0.1	0	"	OK	OK	OK
0.1	1	Valentino	OK	Fluency	OK
0.1	2	prefers	OK	OK	BAD
0.1	3	the	OK	OK	OK
0.1	4	elegance	OK	OK	OK
0.1	5	to	OK	OK	OK
0.1	6	the	OK	OK	OK
0.1	7	fame	OK	OK	OK
0.1	8	"	OK	OK	OK
2.1	0	Somerset	OK	OK	BAD
2.1	1	House	OK	OK	OK
2.1	2	,	OK	OK	OK
2.1	3	former	OK	OK	OK
2.1	4	residence	OK	OK	OK
2.1	5	of	OK	OK	OK
2.1	6	Isabel	OK	OK	OK
2.1	7	I	Style/register	OK	OK
2.1	8	of	OK	OK	OK
2.1	9	England	OK	OK	OK
2.1	10	,	OK	OK	OK
2.1	11	is	OK	OK	OK
2.1	12	the	OK	OK	OK
2.1	13	only	OK	OK	OK
2.1	14	place	OK	OK	OK
2.1	15	in	OK	OK	OK
2.1	16	the	OK	OK	OK
2.1	17	British	OK	OK	OK
2.1	18	capital	Word_order	OK	OK
2.1	19	worthy	OK	OK	OK
2.1	20	to	OK	OK	BAD
2.1	21	receive	OK	OK	OK
2.1	22	an	OK	Fluency	OK
2.1	23	exhibition	OK	OK	OK
2.1	24	on	OK	OK	OK
2.1	25	Valentino	OK	OK	OK
2.1	26	Garavani	OK	OK	OK
2.1	27	.	OK	OK	BAD
7.1	0	Valentino	OK	OK	OK
7.1	1	shows	OK	OK	OK
7.1	2	those	OK	OK	OK
7.1	3	personal	OK	OK	OK
7.1	4	memories	OK	OK	OK
7.1	5	as	OK	OK	OK
7.1	6	trophies	OK	Fluency	OK
7.1	7	of	OK	OK	OK
7.1	8	its	OK	Fluency	OK
7.1	9	social	OK	OK	OK
7.1	10	rise	OK	OK	OK
7.1	11	:	Mistranslation	OK	OK
7.1	12	of	Function_words	OK	BAD
7.1	13	humble	OK	OK	OK
7.1	14	fashion	OK	OK	OK
7.1	15	designer	OK	Fluency	OK
7.1	16	of	OK	OK	OK
7.1	17	the	OK	OK	OK
7.1	18	city	OK	OK	OK
7.1	19	of	OK	OK	OK
7.1	20	Voghera	OK	OK	OK
7.1	21	,	OK	OK	OK
7.1	22	in	OK	OK	OK
7.1	23	the	OK	OK	OK
7.1	24	north	OK	OK	OK
7.1	25	of	OK	OK	OK
7.1	26	Italy	OK	OK	BAD
7.1	27	,	OK	OK	OK
7.1	28	to	OK	OK	OK
7.1	29	idol	OK	OK	OK
7.1	30	of	OK	OK	OK
7.1	31	the	OK	OK	OK
7.1	32	international	OK	OK	OK
7.1	33	"	OK	OK	OK
7.1	34	jet-set	OK	OK	BAD
7.1	35	-set	OK	OK	OK
7.1	36	"	OK	OK	OK
7.1	37	.	OK	OK	OK
16.1	0	Many	OK	OK	OK
16.1	1	years	OK	OK	OK
16.1	2	ago	OK	OK	OK
16.1	3	,	OK	OK	OK
16.1	4	after	OK	OK	OK
16.1	5	a	OK	OK	OK
16.1	6	parade	Mistranslation	Accuracy	BAD
16.1	7	in	OK	OK	OK
16.1	8	Piazza	OK	OK	OK
16.1	9	di	OK	OK	OK
16.1	10	Spagna	OK	OK	OK
16.1	11	,	OK	OK	OK
16.1	12	in	OK	OK	OK
16.1	13	Rome	OK	OK	OK
16.1	14	,	OK	OK	OK
16.1	15	we	OK	Fluency	OK
16.1	16	went	OK	OK	OK
16.1	17	to	OK	OK	OK
16.1	18	dine	OK	OK	OK
16.1	19	to	OK	OK	OK
16.1	20	its	OK	OK	BAD
16.1	21	flat	Agreement	OK	OK
16.1	22	.	OK	OK	OK
26.1	0	Many	OK	OK	OK
26.1	1	of	OK	OK	OK
26.1	2	those	OK	OK	OK
26.1	3	customers	OK	OK	OK
26.1	4	say	OK	OK	OK
26.1	5	that	OK	OK	OK
26.1	6	the	OK	OK	OK
26.1	7	first	OK	OK	OK
26.1	8	Valentino	OK	OK	OK
26.1	9	is	OK	OK	OK
26.1	10	as	OK	OK	OK
26.1	11	the	OK	OK	OK
26.1	12	first	OK	OK	OK
26.1	13	love	OK	OK	OK
26.1	14	,	OK	OK	OK
26.1	15	"	OK	OK	OK
26.1	16	impossible	OK	OK	OK
26.1	17	to	OK	OK	OK
26.1	18	forget	OK	OK	OK
26.1	19	"	OK	OK	BAD
26.1	20	.	OK	OK	OK
29.1	0	"	OK	OK	OK
29.1	1	It	OK	OK	OK
29.1	2	was	OK	OK	OK
29.1	3	a	OK	OK	OK
29.1	4	gift	OK	OK	OK
29.1	5	that	OK	OK	OK
29.1	6	did	OK	OK	OK
29.1	7	me	OK	OK	OK
29.1	8	he	OK	Accuracy	BAD
29.1	9	"	Mistranslation	OK	OK
29.1	10	,	OK	OK	OK
29.1	11	says	OK	OK	OK
29.1	12	Naty	OK	OK	OK
29.1	13	Abascal	OK	OK	OK
29.1	14	,	OK	OK	OK
29.1	15	one	OK	OK	OK
29.1	16	of	OK	OK	OK
29.1	17	the	OK	OK	OK
29.1	18	muses	OK	OK	OK
29.1	19	of	OK	OK	OK
29.1	20	the	OK	OK	OK
29.1	21	designer	OK	OK	OK
29.1	22	.	OK	OK	OK
52.1	0	They	OK	OK	OK
52.1	1	know	OK	OK	OK
52.1	2	that	OK	OK	OK
52.1	3	any	OK	OK	OK
52.1	4	stumble-up	OK	OK	OK
52.1	5	could	OK	OK	OK
52.1	6	cost	OK	OK	OK
52.1	7	them	OK	OK	OK
52.1	8	the	OK	OK	OK
52.1	9	life	OK	OK	OK
52.1	10	,	OK	OK	OK
52.1	11	as	OK	OK	OK
52.1	12	it	OK	OK	OK
52.1	13	happened	OK	OK	OK
52.1	14	to	OK	OK	OK
52.1	15	a	OK	Fluency	OK
52.1	16	French	OK	OK	OK
52.1	17	tourist	OK	OK	OK
52.1	18	that	OK	Fluency	OK
52.1	19	fell	OK	OK	OK
52.1	20	years	OK	OK	OK
52.1	21	through	OK	OK	OK
52.1	22	the	OK	OK	OK
52.1	23	cliffs	OK	OK	OK
52.1	24	of	Word_order	OK	OK
52.1	25	the	OK	OK	BAD
52.1	26	Kawah	OK	OK	OK
52.1	27	Ijen	OK	OK	OK
52.1	28	ago	Word_order	OK	OK
52.1	29	.	OK	OK	OK
61.1	0	It	OK	OK	OK
61.1	1	is	OK	OK	OK
61.1	2	the	OK	OK	OK
61.1	3	price	OK	OK	OK
61.1	4	we	Grammar	OK	OK
61.1	5	must	Omission	OK	OK
61.1	6	pay	OK	OK	BAD
61.1	7	to	OK	OK	OK
61.1	8	achieve	Omission	OK	BAD
61.1	9	his	OK	OK	OK
61.1	10	dream	OK	OK	OK
61.1	11	.	OK	OK	OK
66.1	0	About	OK	OK	OK
66.1	1	400	OK	Fluency	BAD
66.1	2	carriers	OK	OK	OK
66.1	3	load	OK	OK	OK
66.1	4	the	OK	OK	OK
66.1	5	baskets	OK	OK	OK
66.1	6	of	OK	OK	OK
66.1	7	sulfur	OK	OK	BAD
66.1	8	on	OK	OK	OK
66.1	9	its	OK	OK	OK
66.1	10	shoulders	OK	Fluency	OK
66.1	11	from	OK	OK	OK
66.1	12	the	OK	OK	OK
66.1	13	fund	OK	OK	OK
66.1	14	of	OK	OK	OK
66.1	15	the	OK	OK	OK
66.1	16	crater	Terminology	OK	OK
71.1	0	I	OK	OK	OK
71.1	1	am	OK	OK	OK
71.1	2	not	OK	OK	OK
71.1	3	jubilaré	OK	OK	OK
71.1	4	,	OK	OK	OK
71.1	5	I	OK	OK	OK
71.1	6	will	OK	OK	OK
71.1	7	die	OK	OK	OK
71.1	8	here	OK	OK	OK
71.1	9	because	OK	OK	OK
71.1	10	the	OK	OK	OK
71.1	11	volcano	OK	OK	OK
71.1	12	has	OK	OK	OK
71.1	13	been	OK	OK	OK
71.1	14	all	OK	OK	OK
71.1	15	my	OK	OK	OK
71.1	16	life	OK	OK	OK
72.1	0	Although	OK	OK	OK
72.1	1	the	OK	OK	OK
72.1	2	sulfur	OK	OK	OK
72.1	3	burns	OK	OK	OK
72.1	4	the	OK	OK	OK
72.1	5	throat	OK	Fluency	OK
72.1	6	and	OK	OK	OK
72.1	7	it	OK	OK	OK
72.1	8	stings	OK	OK	OK
72.1	9	the	OK	OK	OK
72.1	10	eyes	OK	OK	OK
72.1	11	when	OK	OK	OK
72.1	12	the	OK	Accuracy	OK
72.1	13	wind	OK	OK	OK
72.1	14	changes	OK	OK	OK
72.1	15	unexpectedly	OK	OK	OK
72.1	16	and	OK	OK	OK
72.1	17	catches	OK	Fluency	OK
72.1	18	the	OK	OK	OK
72.1	19	miners	OK	OK	OK
72.1	20	in	OK	OK	OK
72.1	21	the	OK	OK	OK
72.1	22	thick	OK	OK	OK
72.1	23	columns	Word_order	Accuracy	OK
72.1	24	that	Style/register	OK	OK
72.1	25	go	OK	OK	OK
72.1	26	out	Mistranslation	OK	OK
72.1	27	of	OK	OK	OK
72.1	28	the	OK	OK	OK
72.1	29	volcano	OK	OK	OK
72.1	30	,	OK	OK	OK
72.1	31	are	OK	OK	OK
72.1	32	so	OK	OK	OK
72.1	33	hard	OK	OK	OK
72.1	34	that	OK	OK	OK
72.1	35	none	OK	OK	OK
72.1	36	complain	Word_order	OK	OK
72.1	37	of	OK	OK	OK
72.1	38	suffering	OK	OK	OK
72.1	39	severe	OK	Fluency	BAD
72.1	40	illnesses	OK	OK	OK
72.1	41	...	OK	OK	BAD
72.1	42	further	OK	OK	OK
72.1	43	on	OK	OK	OK
72.1	44	,	OK	OK	OK
72.1	45	of	OK	OK	BAD
72.1	46	course	OK	OK	OK
72.1	47	,	OK	OK	OK
72.1	48	of	OK	OK	OK
72.1	49	its	OK	OK	OK
72.1	50	usual	OK	Fluency	OK
72.1	51	breathing	OK	OK	OK
72.1	52	problems	OK	OK	OK
72.1	53	,	OK	OK	OK
72.1	54	arthrosis	OK	OK	OK
72.1	55	,	OK	OK	OK
72.1	56	pains	OK	OK	OK
72.1	57	in	OK	OK	OK
72.1	58	the	OK	OK	OK
72.1	59	knees	OK	Accuracy	OK
72.1	60	and	OK	OK	OK
72.1	61	sores	OK	OK	OK
72.1	62	in	OK	OK	OK
72.1	63	the	OK	OK	OK
72.1	64	shoulders	OK	OK	OK
72.1	65	,	OK	OK	OK
72.1	66	that	OK	OK	OK
72.1	67	themselves	OK	OK	OK
72.1	68	have	OK	Fluency	OK
72.1	69	malformado	OK	OK	OK
72.1	70	for	OK	OK	OK
72.1	71	the	OK	OK	OK
72.1	72	weight	OK	OK	OK
72.1	73	of	OK	OK	OK
72.1	74	the	OK	OK	OK
72.1	75	baskets	OK	OK	OK
72.1	76	.	OK	OK	OK
73.1	0	Swinging	OK	OK	OK
73.1	1	the	OK	OK	OK
73.1	2	basket	OK	OK	OK
73.1	3	on	Mistranslation	Fluency	OK
73.1	4	its	OK	OK	BAD
73.1	5	back	OK	OK	OK
73.1	6	,	OK	OK	OK
73.1	7	Unainik	OK	OK	OK
73.1	8	can	OK	OK	OK
73.1	9	only	OK	OK	OK
73.1	10	already	OK	OK	OK
73.1	11	load	Mistranslation	OK	OK
73.1	12	50	OK	OK	OK
73.1	13	kilos	OK	OK	OK
73.1	14	at	Mistranslation	Fluency	BAD
73.1	15	its	Omission	Fluency	BAD
73.1	16	53	Function_words	OK	BAD
73.1	17	years	OK	OK	BAD
73.1	18	.	OK	OK	OK
87.1	0	$	OK	OK	OK
87.1	1	1.2	OK	Fluency	OK
87.1	2	children	OK	OK	OK
92.1	0	The	OK	OK	OK
92.1	1	birth	OK	OK	OK
92.1	2	rate	OK	OK	OK
92.1	3	of	OK	OK	OK
92.1	4	Singapore	OK	OK	OK
92.1	5	,	OK	OK	OK
92.1	6	according	OK	OK	OK
92.1	7	to	OK	OK	OK
92.1	8	its	OK	OK	BAD
92.1	9	national	OK	OK	OK
92.1	10	division	OK	OK	OK
92.1	11	of	OK	OK	OK
92.1	12	population	OK	OK	OK
92.1	13	,	OK	OK	OK
92.1	14	is	OK	OK	OK
92.1	15	situated	OK	OK	OK
92.1	16	at	OK	OK	OK
92.1	17	present	OK	OK	OK
92.1	18	in	OK	OK	OK
92.1	19	1.2	OK	OK	OK
92.1	20	children	OK	OK	OK
92.1	21	for	OK	OK	OK
92.1	22	woman	OK	OK	OK
92.1	23	.	OK	OK	OK
111.1	0	However	OK	OK	OK
111.1	1	,	OK	OK	OK
111.1	2	he	OK	OK	OK
111.1	3	admits	OK	OK	OK
111.1	4	that	OK	OK	OK
111.1	5	the	OK	OK	OK
111.1	6	new	OK	OK	OK
111.1	7	rules	OK	OK	OK
111.1	8	give	OK	OK	BAD
111.1	9	clearer	OK	OK	OK
111.1	10	guidelines	OK	OK	OK
111.1	11	for	OK	OK	OK
111.1	12	developers	Function_words	OK	OK
111.1	13	,	OK	OK	OK
111.1	14	who	Mistranslation	OK	OK
111.1	15	before	OK	OK	OK
111.1	16	they	OK	OK	OK
111.1	17	put	OK	OK	OK
111.1	18	obstacles	OK	Fluency	OK
111.1	19	if	OK	OK	BAD
111.1	20	they	OK	OK	OK
111.1	21	wanted	OK	OK	OK
111.1	22	to	OK	Fluency	BAD
111.1	23	offer	OK	Fluency	BAD
111.1	24	too	OK	OK	OK
111.1	25	many	OK	OK	OK
111.1	26	small	Agreement	Accuracy	OK
111.1	27	units	OK	OK	OK
111.1	28	in	OK	OK	OK
111.1	29	a	OK	OK	OK
111.1	30	project	OK	OK	OK
111.1	31	.	OK	OK	OK
118.1	0	According	OK	OK	OK
118.1	1	to	OK	OK	OK
118.1	2	the	OK	OK	OK
118.1	3	Dictionary	OK	OK	OK
118.1	4	of	OK	OK	OK
118.1	5	the	OK	OK	OK
118.1	6	Spanish	OK	OK	OK
118.1	7	Royal	OK	Accuracy	OK
118.1	8	Academy	OK	OK	OK
118.1	9	is	OK	OK	OK
118.1	10	the	OK	OK	OK
118.1	11	quality	OK	OK	OK
118.1	12	of	Word_order	OK	OK
118.1	13	private	OK	OK	OK
118.1	14	or	OK	OK	OK
118.1	15	"	OK	OK	OK
118.1	16	the	OK	OK	OK
118.1	17	scope	Style/register	OK	BAD
118.1	18	of	OK	Fluency	OK
118.1	19	the	OK	OK	OK
118.1	20	private	OK	OK	OK
118.1	21	life	OK	OK	OK
118.1	22	that	OK	OK	OK
118.1	23	it	OK	OK	OK
118.1	24	has	OK	OK	OK
118.1	25	a	OK	OK	OK
118.1	26	right	OK	Fluency	OK
118.1	27	to	OK	Fluency	OK
118.1	28	protect	OK	OK	OK
118.1	29	any	OK	OK	BAD
118.1	30	intrusion	OK	OK	OK
118.1	31	.	OK	OK	OK
118.1	32	"	OK	OK	OK
119.1	0	What	OK	OK	OK
119.1	1	is	OK	OK	OK
119.1	2	privacy	OK	OK	OK
119.1	3	for	OK	OK	OK
119.1	4	an	OK	OK	OK
119.1	5	under	Word_order	Fluency	BAD
119.1	6	16	Word_order	Fluency	BAD
119.1	7	?	OK	OK	BAD
127.1	0	I	OK	OK	OK
127.1	1	also	OK	OK	OK
127.1	2	entertain	OK	OK	OK
127.1	3	myself	OK	OK	BAD
127.1	4	with	Mistranslation	OK	OK
127.1	5	my	OK	OK	OK
127.1	6	acquaintances	Word_order	Accuracy	OK
127.1	7	.	OK	OK	OK
135.1	0	He	OK	Fluency	BAD
135.1	1	does	OK	OK	OK
135.1	2	not	OK	OK	OK
135.1	3	hesitate	OK	OK	OK
135.1	4	to	OK	OK	OK
135.1	5	answer	OK	OK	OK
135.1	6	that	Mistranslation	OK	OK
135.1	7	would	OK	OK	OK
135.1	8	never	OK	OK	BAD
135.1	9	accept	Tense/aspect/mood	OK	OK
135.1	10	a	OK	OK	OK
135.1	11	request	Terminology	OK	OK
135.1	12	for	Word_order	Fluency	OK
135.1	13	an	OK	OK	OK
135.1	14	unknown	OK	OK	OK
135.1	15	person	OK	OK	OK
135.1	16	.	OK	OK	OK
137.1	0	The	OK	OK	OK
137.1	1	adolescent	OK	OK	OK
137.1	2	possesses	Word_order	OK	OK
137.1	3	open	OK	OK	OK
137.1	4	accounts	OK	OK	OK
137.1	5	in	OK	OK	OK
137.1	6	Hotmail	OK	OK	OK
137.1	7	,	Mistranslation	OK	OK
137.1	8	Facebook	OK	OK	OK
137.1	9	,	OK	OK	OK
137.1	10	My	OK	OK	OK
137.1	11	Space	OK	OK	OK
137.1	12	and	OK	OK	OK
137.1	13	Ask	OK	OK	OK
137.1	14	,	OK	OK	OK
137.1	15	in	OK	OK	OK
137.1	16	the	OK	OK	OK
137.1	17	latter	OK	OK	OK
137.1	18	last	OK	OK	OK
137.1	19	one	OK	OK	OK
137.1	20	admits	OK	OK	OK
137.1	21	not	OK	OK	OK
137.1	22	knowing	OK	OK	OK
137.1	23	20	OK	OK	OK
137.1	24	of	OK	OK	OK
137.1	25	the	OK	OK	OK
137.1	26	people	OK	OK	OK
137.1	27	added	OK	OK	OK
137.1	28	in	OK	OK	OK
137.1	29	its	OK	OK	OK
137.1	30	list	OK	OK	OK
137.1	31	of	OK	OK	OK
137.1	32	friends	OK	OK	OK
137.1	33	.	OK	OK	OK
141.1	0	The	OK	OK	BAD
141.1	1	boy	OK	OK	OK
141.1	2	would	OK	OK	OK
141.1	3	not	OK	Fluency	OK
141.1	4	are	OK	OK	OK
141.1	5	outside	OK	OK	OK
141.1	6	the	OK	OK	OK
141.1	7	experiences	OK	OK	OK
141.1	8	of	OK	OK	OK
141.1	9	what	Punctuation	OK	OK
141.1	10	is	OK	OK	OK
141.1	11	now	OK	OK	OK
141.1	12	known	OK	Accuracy	BAD
141.1	13	as	OK	OK	OK
141.1	14	ciberbullying	OK	Accuracy	OK
141.1	15	.	OK	OK	OK
150.1	0	You	Word_order	OK	OK
150.1	1	can	OK	Fluency	OK
150.1	2	also	Terminology	OK	OK
150.1	3	choose	OK	OK	OK
150.1	4	the	OK	Accuracy	OK
150.1	5	format	OK	Fluency	BAD
150.1	6	of	OK	OK	OK
150.1	7	guardado	OK	Fluency	OK
150.1	8	of	OK	OK	OK
150.1	9	the	OK	OK	OK
150.1	10	file	OK	OK	OK
150.1	11	,	OK	OK	OK
150.1	12	the	OK	OK	OK
150.1	13	pre-determined	OK	OK	OK
150.1	14	is	OK	Fluency	OK
150.1	15	png	OK	Accuracy	BAD
150.1	16	.	Style/register	OK	OK
155.1	0	Allows	OK	Fluency	OK
155.1	1	you	OK	OK	OK
155.1	2	to	OK	OK	OK
155.1	3	keep	OK	OK	OK
155.1	4	a	OK	OK	OK
155.1	5	file	OK	OK	OK
155.1	6	as	OK	OK	OK
155.1	7	a	OK	OK	OK
155.1	8	template	OK	OK	OK
155.1	9	in	OK	OK	OK
155.1	10	the	Mistranslation	Fluency	BAD
155.1	11	scope	OK	OK	OK
155.1	12	premises	OK	OK	OK
155.1	13	.	OK	OK	OK
159.1	0	Alternatively	OK	OK	OK
159.1	1	,	OK	OK	OK
159.1	2	you	OK	OK	OK
159.1	3	can	OK	OK	OK
159.1	4	use	OK	OK	BAD
159.1	5	the	OK	OK	OK
159.1	6	menu	OK	OK	OK
159.1	7	that	Word_order	OK	OK
159.1	8	appears	Agreement	Fluency	BAD
159.1	9	to	OK	OK	OK
159.1	10	press	OK	OK	OK
159.1	11	the	OK	OK	BAD
159.1	12	right	OK	OK	OK
159.1	13	mouse	OK	OK	OK
159.1	14	button	OK	OK	OK
159.1	15	,	OK	OK	OK
159.1	16	choosing	OK	OK	OK
159.1	17	Perform	OK	OK	OK
159.1	18	now	OK	OK	OK
159.1	19	.	OK	OK	OK
161.1	0	The	OK	OK	OK
161.1	1	exact	OK	OK	OK
161.1	2	information	OK	OK	OK
161.1	3	is	OK	OK	OK
161.1	4	dependant	OK	OK	OK
161.1	5	of	OK	OK	OK
161.1	6	the	OK	OK	OK
161.1	7	system	OK	Accuracy	OK
161.1	8	.	OK	OK	OK
161.1	9	In	OK	OK	OK
161.1	10	some	Style/register	OK	BAD
161.1	11	systems	Mistranslation	Fluency	BAD
161.1	12	,	OK	OK	OK
161.1	13	this	OK	OK	OK
161.1	14	information	OK	OK	OK
161.1	15	is	OK	OK	OK
161.1	16	not	OK	OK	OK
161.1	17	yet	Word_order	OK	OK
161.1	18	may	Word_order	OK	OK
161.1	19	show	OK	OK	OK
161.1	20	.	OK	OK	OK
170.1	0	The	OK	OK	OK
170.1	1	usermap	OK	OK	BAD
170.1	2	file	OK	OK	OK
170.1	3	used	OK	OK	OK
170.1	4	is	OK	OK	OK
170.1	5	/	OK	OK	OK
170.1	6	etc	OK	OK	OK
170.1	7	/	OK	OK	OK
170.1	8	hotplug	OK	Fluency	OK
170.1	9	/	OK	OK	OK
170.1	10	usb	OK	OK	OK
170.1	11	/	OK	OK	OK
170.1	12	logitechmouse	OK	OK	OK
170.1	13	.	OK	OK	OK
170.1	14	U	OK	OK	OK
170.1	15	sermap	Mistranslation	OK	BAD
170.1	16	,	OK	Fluency	BAD
170.1	17	and	OK	OK	OK
170.1	18	could	OK	OK	OK
170.1	19	be	OK	OK	OK
170.1	20	like	OK	OK	OK
170.1	21	this	OK	OK	OK
170.1	22	:	OK	OK	OK
175.1	0	The	OK	OK	OK
175.1	1	Transport	OK	OK	OK
175.1	2	System	OK	OK	OK
175.1	3	Image	OK	OK	OK
175.1	4	Flexible	OK	OK	OK
175.1	5	(	OK	OK	BAD
175.1	6	FITS	OK	OK	BAD
175.1	7	)	Word_order	Fluency	OK
175.1	8	is	OK	OK	OK
175.1	9	the	OK	OK	OK
175.1	10	standard	Terminology	Fluency	OK
175.1	11	format	OK	OK	OK
175.1	12	to	Style/register	Fluency	OK
175.1	13	represent	OK	OK	OK
175.1	14	images	Terminology	Accuracy	BAD
175.1	15	and	OK	OK	OK
175.1	16	data	OK	OK	BAD
175.1	17	in	OK	OK	OK
175.1	18	Astronomía	OK	OK	OK
175.1	19	.	OK	OK	OK
177.1	0	Stop	OK	OK	OK
177.1	1	the	OK	OK	OK
177.1	2	execution	OK	OK	OK
177.1	3	.	OK	OK	OK
177.1	4	This	OK	OK	OK
177.1	5	action	OK	OK	OK
177.1	6	will	Agreement	Fluency	OK
177.1	7	be	OK	OK	OK
177.1	8	available	OK	OK	OK
177.1	9	only	OK	OK	OK
177.1	10	is	OK	OK	OK
177.1	11	running	OK	OK	OK
177.1	12	while	OK	OK	BAD
177.1	13	a	OK	OK	OK
177.1	14	program	OK	OK	OK
177.1	15	.	OK	OK	OK
184.1	0	Show	OK	OK	OK
184.1	1	lateral	OK	OK	OK
184.1	2	rod	Mistranslation	OK	OK
184.1	3	:	OK	OK	OK
184.1	4	Show	Accuracy	OK	OK
184.1	5	lateral	Tense/aspect/mood	OK	OK
184.1	6	rod	Addition	OK	BAD
184.1	7	(	OK	OK	OK
184.1	8	right	OK	Fluency	OK
184.1	9	)	OK	OK	OK
184.1	10	that	OK	OK	OK
184.1	11	provides	OK	OK	OK
184.1	12	information	Word_order	Fluency	OK
184.1	13	about	OK	OK	OK
184.1	14	the	OK	OK	BAD
184.1	15	image	OK	OK	OK
184.1	16	is	OK	OK	OK
184.1	17	today	OK	OK	BAD
184.1	18	.	OK	OK	OK
187.1	0	Shows	OK	OK	OK
187.1	1	the	OK	OK	OK
187.1	2	assistant	OK	OK	OK
187.1	3	for	OK	OK	OK
187.1	4	adding	OK	OK	OK
187.1	5	contacts	OK	OK	BAD
187.1	6	,	OK	OK	OK
187.1	7	that	OK	OK	OK
187.1	8	lets	OK	OK	OK
187.1	9	you	OK	OK	OK
187.1	10	add	OK	OK	OK
187.1	11	a	OK	Accuracy	OK
187.1	12	new	Terminology	OK	OK
187.1	13	touch	OK	OK	OK
187.1	14	to	OK	OK	OK
187.1	15	your	Style/register	OK	OK
187.1	16	list	OK	OK	OK
187.1	17	.	OK	OK	OK
192.1	0	Start	OK	OK	OK
192.1	1	Search	OK	Accuracy	OK
192.1	2	dialogue	Word_order	OK	BAD
192.1	3	to	OK	OK	OK
192.1	4	allow	OK	OK	BAD
192.1	5	find	OK	OK	OK
192.1	6	text	OK	OK	OK
192.1	7	files	OK	OK	OK
192.1	8	in	Word_order	OK	OK
192.1	9	the	OK	OK	OK
192.1	10	text	OK	OK	OK
192.1	11	of	Function_words	OK	OK
192.1	12	a	OK	OK	OK
192.1	13	directory	Word_order	Fluency	BAD
192.1	14	.	OK	Fluency	OK
199.1	0	The	Word_order	OK	OK
199.1	1	configuration	Word_order	OK	OK
199.1	2	dialogue	OK	OK	OK
199.1	3	server	OK	OK	OK
199.1	4	&	OK	OK	OK
199.1	5	COTILOS	OK	OK	OK
199.1	6	;	OK	OK	OK
199.1	7	:	OK	OK	OK
199.1	8	security	OK	OK	OK
199.1	9	glance	OK	OK	BAD
207.1	0	You	OK	OK	OK
207.1	1	may	OK	OK	OK
207.1	2	use	OK	OK	OK
207.1	3	this	OK	Fluency	BAD
207.1	4	button	Untranslated	OK	BAD
207.1	5	to	Untranslated	OK	BAD
207.1	6	get	OK	OK	BAD
207.1	7	more	OK	OK	OK
207.1	8	detailed	OK	OK	OK
207.1	9	information	OK	OK	BAD
207.1	10	about	OK	OK	OK
207.1	11	the	OK	OK	OK
207.1	12	profile	OK	OK	OK
207.1	13	of	OK	OK	OK
207.1	14	test	OK	OK	BAD
207.1	15	selected	OK	OK	BAD
207.1	16	.	OK	OK	OK
216.1	0	Option	OK	OK	OK
216.1	1	to	OK	OK	OK
216.1	2	specify	OK	OK	OK
216.1	3	an	OK	Fluency	BAD
216.1	4	upper	OK	OK	OK
216.1	5	limit	OK	OK	OK
216.1	6	in	OK	OK	OK
216.1	7	the	OK	OK	OK
216.1	8	configuration	OK	OK	OK
216.1	9	of	OK	OK	OK
216.1	10	the	OK	OK	OK
216.1	11	volume	OK	OK	OK
216.1	12	of	OK	Fluency	OK
216.1	13	sound	Style/register	OK	OK
216.1	14	.	OK	OK	OK
220.1	0	Habilitar	OK	OK	OK
220.1	1	a	OK	OK	OK
220.1	2	few	OK	OK	OK
220.1	3	&	OK	OK	OK
220.1	4	specific	OK	OK	OK
220.1	5	ports	OK	OK	OK
220.1	6	for	OK	OK	OK
220.1	7	the	OK	OK	OK
220.1	8	server	OK	OK	BAD
220.1	9	of	OK	Fluency	OK
220.1	10	transfers	OK	OK	OK
220.1	11	DCC	OK	OK	OK
220.1	12	:	OK	OK	OK
224.1	0	Please	OK	OK	OK
224.1	1	,	OK	OK	OK
224.1	2	check	OK	OK	OK
224.1	3	the	OK	OK	OK
224.1	4	website	OK	OK	OK
224.1	5	to	OK	OK	OK
224.1	6	find	OK	OK	OK
224.1	7	the	OK	Fluency	OK
224.1	8	credits	OK	OK	OK
224.1	9	of	OK	OK	OK
224.1	10	translation	OK	OK	OK
224.1	11	up-to-date	OK	OK	OK
224.1	12	.	OK	OK	OK
236.1	0	Show	OK	OK	OK
236.1	1	or	OK	OK	OK
236.1	2	hide	OK	OK	OK
236.1	3	the	OK	OK	OK
236.1	4	menu	OK	OK	OK
236.1	5	bar	OK	OK	OK
236.1	6	in	OK	OK	OK
236.1	7	terminal	OK	OK	OK
236.1	8	boxes	Word_order	OK	OK
238.1	0	¿	OK	Fluency	OK
238.1	1	Desea	OK	OK	OK
238.1	2	remove	OK	OK	BAD
238.1	3	the	OK	OK	OK
238.1	4	resource	OK	OK	OK
238.1	5	and	OK	OK	OK
238.1	6	all	OK	OK	OK
238.1	7	relationships	OK	Fluency	OK
238.1	8	from	OK	OK	OK
238.1	9	and	OK	OK	OK
238.1	10	to	OK	OK	OK
238.1	11	it	OK	OK	OK
238.1	12	?	OK	OK	OK
243.1	0	Show	OK	Fluency	OK
243.1	1	/	OK	OK	OK
243.1	2	Hide	OK	OK	OK
243.1	3	drawn	OK	OK	OK
243.1	4	the	OK	OK	OK
243.1	5	object	OK	OK	OK
243.1	6	of	OK	OK	OK
243.1	7	the	Style/register	OK	OK
243.1	8	solar	OK	OK	OK
243.1	9	system	OK	OK	OK
243.1	10	while	Word_order	Fluency	OK
243.1	11	this	OK	OK	OK
243.1	12	remains	Grammar	OK	OK
243.1	13	apuntado	OK	OK	OK
243.1	14	.	OK	OK	OK
267.1	0	The	OK	OK	OK
267.1	1	name	OK	OK	OK
267.1	2	of	OK	OK	OK
267.1	3	the	OK	OK	OK
267.1	4	file	OK	OK	OK
267.1	5	of	OK	OK	OK
267.1	6	exit	OK	OK	OK
267.1	7	for	OK	OK	OK
267.1	8	the	OK	OK	OK
267.1	9	exporting	OK	OK	OK
267.1	10	as	OK	Fluency	BAD
267.1	11	HTML	OK	OK	OK
267.1	12	.	OK	OK	OK
295.1	0	Error	OK	OK	OK
295.1	1	of	OK	OK	OK
295.1	2	configuration	OK	OK	OK
295.1	3	of	OK	OK	OK
295.1	4	OpenVPN	OK	OK	OK
295.1	5	.	OK	OK	OK
295.1	6	Option	Style/register	Accuracy	OK
295.1	7	not	OK	OK	OK
295.1	8	known	OK	Fluency	OK
295.1	9	or	OK	Accuracy	OK
295.1	10	lack	Terminology	Accuracy	BAD
295.1	11	parameter	OK	OK	OK
306.1	0	This	OK	OK	OK
306.1	1	function	OK	OK	BAD
306.1	2	is	OK	OK	OK
306.1	3	not	OK	Fluency	OK
306.1	4	documented	OK	OK	OK
306.1	5	currently	OK	OK	OK
306.1	6	,	OK	OK	OK
306.1	7	only	Word_order	Fluency	BAD
306.1	8	fall	Word_order	Fluency	BAD
306.1	9	available	Word_order	Fluency	BAD
306.1	10	the	Word_order	Fluency	BAD
306.1	11	list	Word_order	Fluency	BAD
306.1	12	of	Word_order	Fluency	BAD
306.1	13	parametros	OK	OK	OK
306.1	14	.	OK	OK	OK
310.1	0	Find	OK	OK	OK
310.1	1	things	OK	Fluency	OK
310.1	2	in	OK	OK	OK
310.1	3	the	OK	OK	OK
310.1	4	collection	OK	OK	OK
310.1	5	whose	OK	OK	OK
310.1	6	ID	Punctuation	Accuracy	OK
310.1	7	is	OK	OK	OK
310.1	8	IDobjeto	OK	OK	BAD
310.1	9	and	OK	OK	OK
310.1	10	returned	OK	OK	BAD
310.1	11	a	OK	OK	OK
310.1	12	table	OK	OK	OK
310.1	13	of	OK	OK	OK
310.1	14	records	Word_order	OK	OK
310.1	15	of	OK	OK	BAD
310.1	16	object	OK	OK	BAD
310.1	17	.	OK	OK	OK
320.1	0	OCICommit	OK	OK	OK
320.1	1	(	OK	OK	OK
320.1	2	)	OK	OK	OK
320.1	3	confirms	OK	OK	OK
320.1	4	all	OK	OK	OK
320.1	5	sentencias	OK	OK	OK
320.1	6	aware	OK	OK	OK
320.1	7	for	OK	OK	OK
320.1	8	the	Word_order	OK	OK
320.1	9	connection	OK	Fluency	OK
320.1	10	with	OK	OK	OK
320.1	11	Oracle	Word_order	OK	OK
320.1	12	connection	OK	Accuracy	BAD
320.1	13	.	Word_order	OK	OK
322.1	0	l	OK	OK	OK
322.1	1	signed	Style/register	Fluency	BAD
322.1	2	long	Mistranslation	OK	OK
322.1	3	(	OK	OK	OK
322.1	4	always	Function_words	OK	OK
322.1	5	32	OK	OK	BAD
322.1	6	bits	OK	OK	BAD
322.1	7	,	OK	OK	OK
322.1	8	distribution	OK	OK	OK
322.1	9	of	OK	OK	OK
322.1	10	bytes	OK	OK	OK
322.1	11	of	OK	OK	OK
322.1	12	the	OK	OK	BAD
322.1	13	machine	OK	OK	OK
322.1	14	)	OK	OK	OK
324.1	0	session	OK	OK	OK
324.1	1	_	OK	OK	OK
324.1	2	_	OK	OK	OK
324.1	3	is	Typography	Fluency	OK
324.1	4	registered	OK	Fluency	OK
324.1	5	(	Punctuation	Fluency	BAD
324.1	6	)	Morphology_(word_form)	OK	OK
324.1	7	returned	OK	OK	OK
324.1	8	TRUE	Grammar	OK	OK
324.1	9	if	OK	OK	OK
324.1	10	there	Function_words	OK	BAD
324.1	11	is	OK	OK	OK
324.1	12	a	OK	OK	OK
324.1	13	variable	OK	OK	BAD
324.1	14	recorded	OK	OK	OK
324.1	15	in	OK	OK	OK
324.1	16	the	OK	OK	OK
324.1	17	current	OK	OK	OK
324.1	18	session	OK	Fluency	OK
324.1	19	whose	Punctuation	OK	OK
324.1	20	name	OK	OK	OK
324.1	21	is	OK	OK	OK
324.1	22	name	Style/register	OK	OK
324.1	23	.	OK	OK	OK
326.1	0	This	OK	OK	OK
326.1	1	function	OK	OK	OK
326.1	2	is	OK	OK	OK
326.1	3	not	OK	OK	OK
326.1	4	documented	OK	OK	OK
326.1	5	currently	OK	OK	OK
326.1	6	,	OK	OK	OK
326.1	7	only	Word_order	Fluency	BAD
326.1	8	fall	Word_order	Fluency	BAD
326.1	9	available	Word_order	Fluency	BAD
326.1	10	the	Word_order	Fluency	BAD
326.1	11	list	Word_order	Fluency	BAD
326.1	12	of	Word_order	Fluency	BAD
326.1	13	parametros	OK	OK	OK
326.1	14	.	OK	OK	OK
327.1	0	You	Omission	OK	OK
327.1	1	may	OK	OK	OK
327.1	2	use	OK	OK	OK
327.1	3	the	OK	OK	OK
327.1	4	parameter	OK	OK	BAD
327.1	5	optional	OK	OK	OK
327.1	6	to	OK	OK	OK
327.1	7	specify	OK	OK	OK
327.1	8	the	OK	OK	OK
327.1	9	labels	OK	OK	BAD
327.1	10	that	OK	OK	OK
327.1	11	should	OK	Accuracy	OK
327.1	12	not	Tense/aspect/mood	OK	BAD
327.1	13	be	OK	OK	OK
327.1	14	removed	OK	OK	OK
327.1	15	.	OK	OK	OK
331.1	0	The	Word_order	OK	OK
331.1	1	general	OK	OK	OK
331.1	2	content	OK	OK	OK
331.1	3	of	Word_order	OK	OK
331.1	4	the	Word_order	Accuracy	OK
331.1	5	Accept-Encoding	Terminology	OK	OK
331.1	6	:	OK	OK	OK
331.1	7	request	OK	OK	OK
331.1	8	of	OK	OK	OK
331.1	9	the	OK	OK	OK
331.1	10	current	OK	OK	OK
331.1	11	,	OK	OK	OK
331.1	12	if	OK	OK	OK
331.1	13	none	OK	OK	OK
331.1	14	.	OK	OK	OK
352.1	0	Efe	OK	OK	OK
352.1	1	repeatedly	OK	Accuracy	OK
352.1	2	tried	OK	OK	BAD
352.1	3	to	OK	OK	OK
352.1	4	gain	Word_order	Accuracy	BAD
352.1	5	access	OK	OK	OK
352.1	6	to	OK	OK	OK
352.1	7	the	OK	OK	OK
352.1	8	document	OK	OK	OK
352.1	9	signed	OK	OK	OK
352.1	10	at	OK	Accuracy	BAD
352.1	11	the	OK	OK	BAD
352.1	12	Sixth	OK	Accuracy	BAD
352.1	13	UNASUR	OK	OK	OK
352.1	14	Meeting	OK	OK	OK
352.1	15	of	OK	OK	OK
352.1	16	Heads	OK	Accuracy	OK
352.1	17	of	OK	OK	OK
352.1	18	State	OK	OK	BAD
352.1	19	and	OK	OK	OK
352.1	20	Government	OK	OK	OK
352.1	21	,	OK	OK	OK
352.1	22	but	OK	OK	OK
352.1	23	Presidential	OK	OK	BAD
352.1	24	and	OK	OK	OK
352.1	25	Chancellery	OK	OK	BAD
352.1	26	sources	OK	OK	OK
352.1	27	initially	OK	OK	OK
352.1	28	said	Word_order	OK	OK
352.1	29	they	OK	OK	OK
352.1	30	would	OK	OK	OK
352.1	31	deliver	OK	OK	OK
352.1	32	it	OK	OK	OK
352.1	33	after	OK	OK	OK
352.1	34	the	OK	OK	OK
352.1	35	summit	OK	OK	OK
352.1	36	closed	OK	OK	OK
352.1	37	,	OK	OK	OK
352.1	38	but	OK	OK	OK
352.1	39	later	OK	OK	OK
352.1	40	they	Terminology	OK	OK
352.1	41	claimed	Word_order	OK	BAD
352.1	42	that	Agreement	OK	OK
352.1	43	it	Word_order	Fluency	BAD
352.1	44	will	Untranslated	Fluency	BAD
352.1	45	be	Spelling	Fluency	BAD
352.1	46	published	OK	Fluency	BAD
352.1	47	at	OK	Fluency	BAD
352.1	48	some	OK	OK	OK
352.1	49	point	Style/register	OK	OK
352.1	50	on	OK	OK	BAD
352.1	51	the	OK	OK	OK
352.1	52	Peruvian	OK	OK	OK
352.1	53	Government	OK	OK	OK
352.1	54	website	OK	OK	OK
352.1	55	.	OK	OK	OK
363.1	0	"	OK	OK	OK
363.1	1	We	OK	OK	OK
363.1	2	will	OK	OK	OK
363.1	3	obey	OK	OK	OK
363.1	4	and	OK	OK	OK
363.1	5	execute	OK	OK	OK
363.1	6	the	OK	OK	OK
363.1	7	order	OK	OK	OK
363.1	8	that	OK	OK	OK
363.1	9	currently	OK	OK	BAD
363.1	10	defines	OK	OK	BAD
363.1	11	the	OK	OK	OK
363.1	12	differences	OK	OK	OK
363.1	13	we	OK	Fluency	OK
363.1	14	are	OK	OK	OK
363.1	15	bringing	OK	OK	OK
363.1	16	before	OK	OK	OK
363.1	17	this	OK	OK	OK
363.1	18	international	OK	OK	OK
363.1	19	court	OK	OK	OK
363.1	20	"	OK	OK	OK
363.1	21	said	OK	OK	OK
363.1	22	Humala	OK	OK	OK
363.1	23	,	OK	OK	OK
363.1	24	together	OK	OK	OK
363.1	25	with	OK	Fluency	OK
363.1	26	his	OK	OK	OK
363.1	27	Chilean	OK	OK	OK
363.1	28	counterpart	OK	Accuracy	OK
363.1	29	.	OK	OK	OK
364.1	0	"	OK	OK	OK
364.1	1	Chile	OK	OK	OK
364.1	2	has	OK	OK	OK
364.1	3	been	OK	OK	OK
364.1	4	,	OK	OK	OK
364.1	5	is	OK	OK	BAD
364.1	6	and	OK	OK	OK
364.1	7	is	OK	OK	OK
364.1	8	going	OK	OK	OK
364.1	9	to	OK	OK	OK
364.1	10	keep	OK	OK	OK
364.1	11	being	OK	Fluency	OK
364.1	12	a	OK	OK	OK
364.1	13	respectful	OK	OK	OK
364.1	14	country	OK	Fluency	OK
364.1	15	of	OK	OK	OK
364.1	16	the	OK	OK	OK
364.1	17	international	Word_order	OK	OK
364.1	18	law	OK	OK	OK
364.1	19	,	OK	OK	OK
364.1	20	of	OK	OK	OK
364.1	21	the	OK	Fluency	OK
364.1	22	pacific	OK	OK	BAD
364.1	23	solution	OK	OK	OK
364.1	24	of	OK	OK	OK
364.1	25	the	OK	OK	OK
364.1	26	controversies	OK	OK	OK
364.1	27	,	OK	OK	OK
364.1	28	of	OK	OK	OK
364.1	29	the	OK	OK	OK
364.1	30	treaties	OK	OK	OK
364.1	31	and	OK	OK	OK
364.1	32	of	OK	OK	OK
364.1	33	the	OK	OK	OK
364.1	34	international	OK	OK	OK
364.1	35	tribunals	OK	OK	OK
364.1	36	"	OK	OK	OK
364.1	37	,	OK	OK	OK
364.1	38	added	OK	OK	OK
364.1	39	Piñera	OK	OK	OK
364.1	40	,	OK	OK	OK
364.1	41	and	OK	OK	OK
364.1	42	greeted	OK	OK	OK
364.1	43	with	OK	OK	OK
364.1	44	a	OK	OK	OK
364.1	45	handshake	OK	OK	BAD
364.1	46	Humala	Mistranslation	OK	OK
364.1	47	,	OK	OK	OK
364.1	48	beside	OK	OK	OK
364.1	49	the	OK	OK	OK
364.1	50	flags	OK	OK	OK
364.1	51	of	OK	OK	OK
364.1	52	both	OK	Fluency	OK
364.1	53	countries	OK	OK	OK
364.1	54	.	OK	OK	OK
375.1	0	Similarly	OK	OK	OK
375.1	1	,	Mistranslation	OK	OK
375.1	2	the	OK	OK	OK
375.1	3	final	OK	OK	OK
375.1	4	document	OK	OK	OK
375.1	5	mentioned	OK	OK	OK
375.1	6	the	OK	OK	OK
375.1	7	political	OK	OK	OK
375.1	8	situation	OK	OK	OK
375.1	9	in	OK	OK	OK
375.1	10	Paraguay	OK	Fluency	BAD
375.1	11	.	OK	OK	OK
381.1	0	Saints	OK	OK	OK
381.1	1	and	OK	OK	OK
381.1	2	Sandgrouse	OK	OK	BAD
381.1	3	would	OK	OK	OK
381.1	4	find	OK	OK	BAD
381.1	5	Saturday	OK	OK	OK
381.1	6	in	OK	OK	OK
381.1	7	Mexico	OK	OK	BAD
381.1	8	where	Word_order	OK	BAD
381.1	9	they	Mistranslation	Accuracy	BAD
381.1	10	plan	Mistranslation	Fluency	OK
381.1	11	on	Grammar	OK	OK
381.1	12	attending	Punctuation	OK	OK
381.1	13	the	Terminology	OK	OK
381.1	14	taking	OK	OK	OK
381.1	15	of	OK	OK	OK
381.1	16	command	OK	OK	OK
381.1	17	of	OK	OK	OK
381.1	18	the	OK	OK	OK
381.1	19	new	OK	OK	OK
381.1	20	president	Terminology	OK	OK
381.1	21	of	OK	OK	OK
381.1	22	that	OK	Accuracy	OK
381.1	23	country	Word_order	Accuracy	BAD
381.1	24	,	OK	OK	OK
381.1	25	Enrique	OK	OK	OK
381.1	26	Peña	OK	Accuracy	OK
381.1	27	Nieto	OK	OK	BAD
381.1	28	.	OK	OK	OK
384.1	0	Peru	OK	OK	OK
384.1	1	has	OK	OK	OK
384.1	2	the	OK	OK	OK
384.1	3	presidency	Style/register	Accuracy	BAD
384.1	4	pro	OK	Accuracy	OK
384.1	5	témpore	OK	OK	OK
384.1	6	of	OK	OK	OK
384.1	7	the	OK	OK	OK
384.1	8	regional	OK	OK	OK
384.1	9	block	OK	OK	OK
384.1	10	.	OK	OK	OK
391.1	0	"	OK	OK	OK
391.1	1	It	OK	OK	OK
391.1	2	is	OK	OK	OK
391.1	3	incomprehensible	OK	OK	OK
391.1	4	that	OK	OK	BAD
391.1	5	the	Word_order	Fluency	BAD
391.1	6	Inter-American	OK	OK	BAD
391.1	7	Commission	OK	OK	BAD
391.1	8	on	OK	Fluency	OK
391.1	9	Human	OK	OK	OK
391.1	10	Rights	OK	OK	OK
391.1	11	in	OK	OK	OK
391.1	12	Washington	OK	OK	OK
391.1	13	under	OK	OK	OK
391.1	14	the	OK	OK	OK
391.1	15	financing	OK	OK	OK
391.1	16	of	OK	OK	OK
391.1	17	the	OK	OK	OK
391.1	18	United	OK	OK	OK
391.1	19	States	OK	OK	OK
391.1	20	,	OK	OK	OK
391.1	21	"	OK	OK	OK
391.1	22	he	OK	OK	OK
391.1	23	said	OK	OK	OK
391.1	24	in	Style/register	Fluency	BAD
391.1	25	allusion	OK	Fluency	OK
391.1	26	to	OK	OK	OK
391.1	27	the	OK	OK	BAD
391.1	28	political	OK	OK	OK
391.1	29	asylum	Word_order	OK	OK
391.1	30	given	OK	OK	BAD
391.1	31	by	Word_order	OK	BAD
391.1	32	Ecuador	OK	OK	BAD
391.1	33	to	OK	OK	OK
391.1	34	the	OK	OK	OK
391.1	35	founder	OK	OK	OK
391.1	36	of	OK	OK	OK
391.1	37	WikiLeaks	OK	OK	OK
391.1	38	,	OK	OK	OK
391.1	39	Julian	OK	OK	OK
391.1	40	Assange	OK	OK	BAD
391.1	41	.	OK	OK	OK
392.1	0	Correa	OK	OK	OK
392.1	1	assured	OK	OK	OK
392.1	2	that	OK	Fluency	BAD
392.1	3	it	OK	OK	BAD
392.1	4	is	OK	OK	OK
392.1	5	not	OK	OK	OK
392.1	6	repented	OK	OK	BAD
392.1	7	of	OK	OK	OK
392.1	8	that	OK	OK	OK
392.1	9	decision	OK	OK	OK
392.1	10	because	OK	Accuracy	OK
392.1	11	with	OK	OK	BAD
392.1	12	that	OK	OK	BAD
392.1	13	it	Mistranslation	OK	OK
392.1	14	has	OK	OK	OK
392.1	15	not	OK	OK	OK
392.1	16	betrayed	Mistranslation	Fluency	OK
392.1	17	its	OK	OK	OK
392.1	18	principles	OK	OK	OK
392.1	19	,	OK	OK	OK
392.1	20	but	OK	OK	OK
392.1	21	has	OK	OK	OK
392.1	22	respected	OK	OK	OK
392.1	23	its	OK	OK	OK
392.1	24	"	OK	OK	OK
392.1	25	deep	OK	OK	OK
392.1	26	values	OK	OK	OK
392.1	27	democratic	OK	OK	OK
392.1	28	and	OK	OK	OK
392.1	29	of	Word_order	OK	OK
392.1	30	human	OK	OK	OK
392.1	31	rights	OK	OK	OK
392.1	32	"	OK	OK	OK
392.1	33	.	OK	OK	OK
409.1	0	For	OK	OK	OK
409.1	1	the	OK	OK	OK
409.1	2	moment	OK	OK	OK
409.1	3	it	OK	Accuracy	OK
409.1	4	is	OK	OK	OK
409.1	5	not	OK	OK	OK
409.1	6	abide	Word_order	OK	OK
409.1	7	by	Mistranslation	OK	BAD
409.1	8	that	OK	Fluency	BAD
409.1	9	ruling	OK	OK	OK
409.1	10	.	OK	OK	OK
415.1	0	Correa	OK	OK	OK
415.1	1	assured	OK	Accuracy	OK
415.1	2	that	OK	OK	OK
415.1	3	if	OK	OK	OK
415.1	4	it	OK	OK	BAD
415.1	5	loses	Word_order	OK	OK
415.1	6	the	OK	OK	OK
415.1	7	elections	Mistranslation	OK	OK
415.1	8	of	OK	OK	OK
415.1	9	February	OK	OK	OK
415.1	10	of	OK	OK	OK
415.1	11	2013	OK	OK	OK
415.1	12	she	OK	OK	OK
415.1	13	will	OK	OK	OK
415.1	14	move	OK	OK	OK
415.1	15	away	OK	OK	OK
415.1	16	from	OK	OK	OK
415.1	17	the	OK	OK	OK
415.1	18	public	OK	OK	OK
415.1	19	life	OK	OK	OK
415.1	20	.	OK	OK	OK
417.1	0	To	Function_words	OK	OK
417.1	1	win	Grammar	OK	OK
417.1	2	it	Mistranslation	OK	OK
417.1	3	would	OK	OK	OK
417.1	4	be	OK	OK	OK
417.1	5	my	OK	OK	OK
417.1	6	last	OK	OK	OK
417.1	7	period	OK	OK	OK
417.1	8	in	OK	OK	OK
417.1	9	the	OK	OK	OK
417.1	10	presidency	Word_order	OK	BAD
417.1	11	and	Word_order	OK	OK
417.1	12	hence	OK	OK	OK
417.1	13	we	OK	OK	BAD
417.1	14	leave	OK	OK	OK
417.1	15	public	Word_order	Fluency	OK
417.1	16	life	OK	Fluency	OK
417.1	17	.	OK	OK	OK
421.1	0	Fabrizio	Style/register	OK	BAD
421.1	1	had	OK	OK	OK
421.1	2	21	OK	Fluency	OK
421.1	3	years	OK	OK	OK
421.1	4	of	OK	OK	BAD
421.1	5	age	OK	OK	BAD
421.1	6	when	OK	OK	OK
421.1	7	they	OK	OK	OK
421.1	8	confirmed	OK	OK	OK
421.1	9	the	OK	OK	OK
421.1	10	result	Mistranslation	OK	OK
421.1	11	of	OK	OK	OK
421.1	12	the	OK	OK	OK
421.1	13	test	OK	OK	OK
421.1	14	to	OK	OK	OK
421.1	15	him	OK	OK	BAD
421.1	16	:	OK	OK	OK
421.1	17	Positive	OK	OK	BAD
421.1	18	Aids	OK	OK	BAD
421.1	19	.	OK	OK	OK
426.1	0	Fabrizio	OK	OK	OK
426.1	1	lives	OK	OK	OK
426.1	2	with	OK	OK	OK
426.1	3	the	OK	OK	OK
426.1	4	virus	OK	OK	OK
426.1	5	of	OK	OK	BAD
426.1	6	the	OK	OK	OK
426.1	7	human	OK	OK	OK
426.1	8	immunodeficiency	Word_order	OK	OK
426.1	9	(	OK	OK	OK
426.1	10	HIV	OK	Fluency	OK
426.1	11	)	OK	OK	OK
426.1	12	since	OK	OK	OK
426.1	13	22	OK	OK	OK
426.1	14	years	OK	OK	BAD
426.1	15	ago	OK	OK	BAD
426.1	16	,	OK	OK	OK
426.1	17	something	OK	OK	OK
426.1	18	difficult	OK	Fluency	OK
426.1	19	to	OK	OK	OK
426.1	20	imagine	Word_order	OK	OK
426.1	21	at	OK	Fluency	OK
426.1	22	the	OK	OK	OK
426.1	23	beginning	OK	OK	OK
426.1	24	of	OK	OK	OK
426.1	25	the	OK	OK	OK
426.1	26	nineties	OK	OK	BAD
426.1	27	,	OK	OK	OK
426.1	28	when	OK	OK	OK
426.1	29	there	Agreement	OK	OK
426.1	30	were	OK	OK	OK
426.1	31	many	OK	OK	OK
426.1	32	doubts	OK	OK	OK
426.1	33	,	OK	OK	OK
426.1	34	few	OK	OK	OK
426.1	35	options	OK	OK	OK
426.1	36	of	OK	OK	OK
426.1	37	treatment	OK	OK	OK
426.1	38	and	OK	OK	OK
426.1	39	more	OK	OK	OK
426.1	40	stigma	OK	OK	OK
426.1	41	.	OK	OK	OK
428.1	0	Then	OK	OK	OK
428.1	1	,	OK	OK	OK
428.1	2	to	OK	OK	OK
428.1	3	have	OK	OK	OK
428.1	4	AIDS	OK	OK	OK
428.1	5	was	OK	OK	OK
428.1	6	synonymous	OK	OK	OK
428.1	7	with	OK	OK	OK
428.1	8	death	OK	OK	OK
428.1	9	.	OK	OK	OK
435.1	0	Although	OK	OK	OK
435.1	1	the	OK	OK	OK
435.1	2	mortality	OK	OK	OK
435.1	3	has	OK	OK	BAD
435.1	4	lowered	OK	OK	BAD
435.1	5	significantly	OK	Accuracy	BAD
435.1	6	in	OK	OK	OK
435.1	7	the	OK	OK	OK
435.1	8	last	OK	OK	OK
435.1	9	years	OK	OK	OK
435.1	10	,	OK	OK	OK
435.1	11	in	OK	OK	OK
435.1	12	the	OK	OK	OK
435.1	13	case	OK	OK	OK
435.1	14	of	OK	OK	OK
435.1	15	Mexico	OK	OK	OK
435.1	16	,	OK	OK	OK
435.1	17	the	OK	Fluency	OK
435.1	18	number	OK	OK	OK
435.1	19	of	OK	OK	OK
435.1	20	people	OK	OK	OK
435.1	21	that	OK	OK	OK
435.1	22	die	OK	OK	OK
435.1	23	of	Style/register	OK	OK
435.1	24	AIDS	OK	OK	OK
435.1	25	lowered	OK	Fluency	OK
435.1	26	of	OK	OK	OK
435.1	27	6.678	OK	Fluency	OK
435.1	28	cases	OK	OK	OK
435.1	29	in	OK	OK	OK
435.1	30	2007	OK	OK	OK
435.1	31	to	OK	Fluency	OK
435.1	32	4.862	OK	OK	OK
435.1	33	in	OK	OK	OK
435.1	34	2011	OK	OK	BAD
435.1	35	(	OK	OK	OK
435.1	36	annual	OK	OK	OK
435.1	37	report	OK	OK	OK
435.1	38	of	OK	OK	OK
435.1	39	ONUSIDA	OK	OK	OK
435.1	40	)	OK	OK	OK
435.1	41	,	OK	OK	OK
435.1	42	it	OK	Fluency	OK
435.1	43	is	OK	OK	OK
435.1	44	also	OK	OK	OK
435.1	45	true	OK	OK	OK
435.1	46	that	OK	OK	OK
435.1	47	from	OK	OK	OK
435.1	48	the	OK	OK	OK
435.1	49	appearance	OK	OK	OK
435.1	50	of	OK	OK	BAD
435.1	51	AIDS	OK	OK	OK
435.1	52	,	OK	OK	OK
435.1	53	60	OK	OK	OK
435.1	54	per	OK	OK	OK
435.1	55	cent	OK	OK	OK
435.1	56	of	OK	OK	OK
435.1	57	the	OK	OK	OK
435.1	58	patients	OK	OK	OK
435.1	59	in	Word_order	OK	OK
435.1	60	the	OK	OK	OK
435.1	61	national	OK	OK	BAD
435.1	62	database	Style/register	Fluency	BAD
435.1	63	have	OK	OK	OK
435.1	64	died	OK	OK	OK
435.1	65	.	OK	OK	OK
445.1	0	To	OK	Accuracy	OK
445.1	1	take	OK	OK	OK
445.1	2	the	OK	OK	OK
445.1	3	test	Word_order	OK	OK
445.1	4	,	OK	OK	OK
445.1	5	whether	OK	OK	OK
445.1	6	they	OK	OK	BAD
445.1	7	had	OK	OK	OK
445.1	8	risk	OK	OK	OK
445.1	9	,	OK	OK	OK
445.1	10	that	OK	OK	BAD
445.1	11	between	Word_order	OK	BAD
445.1	12	quickly	OK	OK	BAD
445.1	13	know	OK	Fluency	OK
445.1	14	whether	OK	OK	OK
445.1	15	they	OK	OK	OK
445.1	16	are	OK	Fluency	OK
445.1	17	HIV	OK	OK	OK
445.1	18	positive	OK	OK	OK
445.1	19	,	OK	OK	OK
445.1	20	it	OK	OK	OK
445.1	21	is	OK	OK	OK
445.1	22	better	OK	OK	OK
445.1	23	and	OK	OK	OK
445.1	24	if	OK	OK	OK
445.1	25	they	OK	Fluency	OK
445.1	26	already	OK	OK	BAD
445.1	27	have	OK	OK	OK
445.1	28	a	OK	OK	OK
445.1	29	diagnosis	OK	OK	BAD
445.1	30	,	OK	OK	OK
445.1	31	to	OK	OK	OK
445.1	32	learn	OK	OK	OK
445.1	33	that	OK	OK	OK
445.1	34	they	OK	OK	OK
445.1	35	can	OK	OK	OK
445.1	36	live	OK	OK	OK
445.1	37	like	OK	OK	OK
445.1	38	anyone	Mistranslation	OK	OK
445.1	39	,	OK	OK	OK
445.1	40	being	OK	Fluency	OK
445.1	41	responsible	OK	OK	OK
445.1	42	.	OK	OK	OK
453.1	0	Cream	OK	OK	OK
453.1	1	of	OK	OK	OK
453.1	2	andaricas	Word_order	OK	OK
453.1	3	(	OK	Fluency	OK
453.1	4	Asturias	OK	OK	OK
453.1	5	)	OK	OK	OK
459.1	0	Hunter	OK	OK	OK
459.1	1	's	OK	OK	OK
459.1	2	napa	OK	OK	OK
459.1	3	reversible	OK	OK	OK
459.1	4	,	OK	Fluency	OK
459.1	5	manufactured	OK	OK	OK
459.1	6	from	OK	OK	BAD
459.1	7	100	OK	OK	OK
459.1	8	%	OK	OK	OK
459.1	9	sheep	Word_order	OK	BAD
459.1	10	.	OK	OK	OK
473.1	0	582	Tense/aspect/mood	OK	BAD
473.1	1	M	OK	Accuracy	OK
473.1	2	€	Style/register	Fluency	OK
473.1	3	,	OK	OK	OK
473.1	4	a	OK	OK	OK
473.1	5	13	OK	OK	OK
473.1	6	%	OK	OK	OK
473.1	7	lower	OK	OK	OK
473.1	8	than	OK	OK	OK
473.1	9	during	OK	OK	OK
473.1	10	the	OK	OK	OK
473.1	11	same	OK	Accuracy	OK
473.1	12	period	OK	OK	OK
473.1	13	in	OK	OK	BAD
473.1	14	2012	OK	OK	OK
473.1	15	.	OK	OK	OK
479.1	0	The	OK	OK	OK
479.1	1	first	OK	OK	BAD
479.1	2	,	OK	OK	OK
479.1	3	since	OK	Fluency	OK
479.1	4	1932	OK	OK	OK
479.1	5	,	OK	OK	OK
479.1	6	is	OK	OK	OK
479.1	7	a	OK	OK	OK
479.1	8	meeting	Mistranslation	OK	OK
479.1	9	point	OK	OK	OK
479.1	10	for	OK	OK	OK
479.1	11	family	OK	OK	OK
479.1	12	meals	OK	OK	OK
479.1	13	and	OK	OK	OK
479.1	14	banquets	OK	Accuracy	BAD
479.1	15	.	OK	OK	OK
482.1	0	Presents	OK	OK	OK
482.1	1	round	OK	OK	OK
482.1	2	neck	Mistranslation	OK	BAD
482.1	3	,	OK	Fluency	OK
482.1	4	low	OK	OK	OK
482.1	5	and	OK	OK	OK
482.1	6	slightly	OK	Fluency	OK
482.1	7	rounded	OK	Accuracy	OK
482.1	8	metal	OK	OK	OK
482.1	9	emblem	OK	OK	OK
482.1	10	with	OK	OK	OK
482.1	11	shield	OK	OK	OK
482.1	12	of	OK	OK	OK
482.1	13	the	Word_order	OK	BAD
482.1	14	signature	OK	OK	OK
482.1	15	engraving	OK	OK	OK
482.1	16	.	OK	OK	OK
489.1	0	Presents	OK	OK	OK
489.1	1	round	OK	OK	OK
489.1	2	neck	Mistranslation	Accuracy	BAD
489.1	3	,	OK	OK	OK
489.1	4	long	OK	OK	OK
489.1	5	sleeves	OK	OK	OK
489.1	6	,	OK	OK	OK
489.1	7	cuffs	OK	OK	OK
489.1	8	and	OK	OK	OK
489.1	9	low	Mistranslation	Accuracy	BAD
489.1	10	with	OK	OK	OK
489.1	11	fluted	OK	OK	OK
489.1	12	design	OK	OK	OK
489.1	13	and	OK	OK	OK
489.1	14	two	OK	OK	OK
489.1	15	patch	OK	OK	OK
489.1	16	pockets	OK	OK	OK
489.1	17	with	OK	OK	OK
489.1	18	contrasting	OK	Accuracy	BAD
489.1	19	piping	OK	OK	OK
489.1	20	to	OK	OK	BAD
489.1	21	match	Word_order	OK	BAD
489.1	22	the	OK	Fluency	OK
489.1	23	interior	OK	OK	OK
489.1	24	.	OK	OK	OK
498.1	0	Cardigan	OK	OK	OK
498.1	1	with	OK	Accuracy	OK
498.1	2	thick	OK	OK	BAD
498.1	3	structure	OK	OK	OK
498.1	4	of	OK	OK	OK
498.1	5	fantasy	OK	OK	BAD
498.1	6	,	OK	OK	OK
498.1	7	produced	OK	OK	OK
498.1	8	in	OK	Fluency	OK
498.1	9	Italy	OK	OK	OK
498.1	10	.	OK	OK	OK
499.1	0	In	OK	OK	OK
499.1	1	this	OK	OK	OK
499.1	2	way	OK	OK	OK
499.1	3	meet	OK	OK	OK
499.1	4	or	OK	OK	OK
499.1	5	exceed	OK	OK	OK
499.1	6	the	Grammar	OK	BAD
499.1	7	requirements	Addition	OK	OK
499.1	8	imposed	OK	OK	OK
499.1	9	both	OK	OK	OK
499.1	10	by	OK	OK	OK
499.1	11	the	OK	OK	OK
499.1	12	manufacturers	OK	OK	OK
499.1	13	of	Terminology	OK	BAD
499.1	14	Equipment	OK	OK	OK
499.1	15	and	OK	OK	OK
499.1	16	environmental	OK	OK	OK
499.1	17	regulations	OK	OK	OK
499.1	18	currently	OK	Fluency	OK
499.1	19	in	OK	OK	OK
499.1	20	force	OK	OK	OK
499.1	21	.	OK	OK	OK
502.1	0	Warmth	OK	OK	OK
502.1	1	and	OK	OK	OK
502.1	2	comfort	Tense/aspect/mood	OK	OK
502.1	3	combine	OK	OK	OK
502.1	4	to	Function_words	Fluency	BAD
502.1	5	make	OK	OK	OK
502.1	6	this	OK	OK	OK
502.1	7	blouson	Typography	Accuracy	BAD
502.1	8	bomber	Spelling	Fluency	OK
502.1	9	type	OK	OK	OK
502.1	10	in	OK	OK	OK
502.1	11	the	OK	OK	OK
502.1	12	garment	OK	OK	OK
502.1	13	of	Function_words	OK	OK
502.1	14	the	OK	OK	OK
502.1	15	unbeatable	OK	OK	OK
502.1	16	street	Style/register	OK	OK
502.1	17	style	OK	Accuracy	OK
502.1	18	.	OK	OK	OK
503.1	0	Presents	OK	OK	OK
503.1	1	cleavage	OK	Accuracy	OK
503.1	2	,	OK	OK	BAD
503.1	3	manga	Function_words	OK	OK
503.1	4	adjustable	Agreement	OK	OK
503.1	5	through	Word_order	OK	OK
503.1	6	roll-up	OK	Accuracy	OK
503.1	7	,	Word_order	OK	OK
503.1	8	two	OK	OK	BAD
503.1	9	patch	OK	Accuracy	OK
503.1	10	pockets	OK	OK	OK
503.1	11	with	Style/register	OK	OK
503.1	12	flap	OK	OK	OK
503.1	13	buttoned	OK	OK	OK
503.1	14	to	OK	OK	OK
503.1	15	the	OK	OK	OK
503.1	16	height	OK	OK	OK
503.1	17	of	Word_order	OK	OK
503.1	18	the	OK	OK	OK
503.1	19	chest	OK	OK	OK
503.1	20	and	OK	OK	OK
503.1	21	side	OK	OK	OK
503.1	22	slits	OK	OK	OK
503.1	23	for	OK	OK	OK
503.1	24	added	OK	OK	OK
503.1	25	comfort	OK	Fluency	OK
503.1	26	.	OK	OK	OK
510.1	0	Injects	OK	OK	OK
510.1	1	a	OK	OK	BAD
510.1	2	dose	OK	OK	BAD
510.1	3	of	OK	OK	BAD
510.1	4	elegance	OK	OK	BAD
510.1	5	to	Terminology	Accuracy	BAD
510.1	6	your	Mistranslation	Fluency	BAD
510.1	7	casual	Mistranslation	Fluency	OK
510.1	8	look	Part_of_speech	OK	OK
510.1	9	with	OK	OK	OK
510.1	10	this	OK	OK	OK
510.1	11	jersey	OK	OK	OK
510.1	12	,	OK	OK	OK
510.1	13	compiled	OK	OK	OK
510.1	14	in	OK	OK	OK
510.1	15	a	OK	OK	OK
510.1	16	delicate	OK	OK	OK
510.1	17	blend	OK	Fluency	BAD
510.1	18	of	OK	OK	OK
510.1	19	cashmere	OK	OK	OK
510.1	20	and	OK	OK	OK
510.1	21	cotton	OK	OK	OK
510.1	22	.	OK	OK	OK
512.1	0	The	OK	OK	OK
512.1	1	restaurant	OK	OK	OK
512.1	2	has	OK	OK	OK
512.1	3	a	OK	OK	OK
512.1	4	capacity	Mistranslation	OK	OK
512.1	5	of	OK	Fluency	OK
512.1	6	140	OK	OK	OK
512.1	7	guests	OK	OK	BAD
512.1	8	and	OK	Fluency	OK
512.1	9	has	OK	OK	OK
512.1	10	two	OK	OK	OK
512.1	11	private	OK	Fluency	BAD
512.1	12	dining	OK	OK	OK
512.1	13	rooms	OK	OK	OK
512.1	14	(	OK	OK	OK
512.1	15	one	OK	OK	OK
512.1	16	of	Function_words	Fluency	OK
512.1	17	up	Word_order	Accuracy	OK
512.1	18	to	OK	OK	BAD
512.1	19	14	Function_words	Accuracy	OK
512.1	20	seats	OK	OK	OK
512.1	21	and	OK	OK	OK
512.1	22	one	OK	OK	OK
512.1	23	of	OK	Fluency	BAD
512.1	24	30	OK	Fluency	OK
512.1	25	to	OK	OK	OK
512.1	26	70	OK	OK	OK
512.1	27	)	OK	OK	OK
512.1	28	.	OK	OK	OK
518.1	0	Knitted	OK	OK	OK
518.1	1	pullover	OK	OK	OK
518.1	2	,	OK	OK	OK
518.1	3	compiled	OK	OK	OK
518.1	4	in	OK	OK	OK
518.1	5	a	OK	OK	OK
518.1	6	delicate	OK	OK	OK
518.1	7	blend	OK	OK	OK
518.1	8	of	OK	OK	BAD
518.1	9	silk	OK	OK	OK
518.1	10	and	OK	OK	OK
518.1	11	cotton	OK	OK	OK
518.1	12	,	OK	OK	OK
518.1	13	with	OK	OK	OK
518.1	14	long	OK	OK	BAD
518.1	15	sleeves	OK	OK	OK
518.1	16	and	OK	OK	OK
518.1	17	neckline	OK	OK	OK
518.1	18	in	OK	OK	OK
518.1	19	pico	OK	OK	OK
518.1	20	crossed	OK	OK	OK
518.1	21	.	Grammar	OK	OK
520.1	0	Classics	OK	OK	BAD
520.1	1	reinterpreted	OK	OK	OK
520.1	2	in	OK	OK	OK
520.1	3	key	OK	Fluency	OK
520.1	4	chic	OK	OK	OK
520.1	5	that	OK	OK	OK
520.1	6	will	OK	OK	OK
520.1	7	delight	OK	OK	OK
520.1	8	the	OK	OK	OK
520.1	9	most	OK	OK	OK
520.1	10	small	OK	OK	OK
520.1	11	of	OK	OK	OK
520.1	12	the	OK	Fluency	OK
520.1	13	house	OK	OK	OK
520.1	14	.	OK	OK	OK
529.1	0	The	OK	OK	OK
529.1	1	result	OK	OK	OK
529.1	2	of	OK	Fluency	BAD
529.1	3	recurrent	OK	OK	BAD
529.1	4	exploitation	OK	OK	OK
529.1	5	in	OK	OK	OK
529.1	6	the	OK	OK	OK
529.1	7	third	OK	OK	OK
529.1	8	quarter	OK	OK	OK
529.1	9	of	OK	OK	BAD
529.1	10	2013	OK	OK	OK
529.1	11	amounted	OK	OK	OK
529.1	12	to	OK	OK	OK
529.1	13	400	OK	OK	OK
529.1	14	M	OK	OK	BAD
529.1	15	€	OK	OK	BAD
529.1	16	,	OK	OK	OK
529.1	17	a	OK	OK	OK
529.1	18	37	OK	OK	OK
529.1	19	%	OK	OK	OK
529.1	20	lower	OK	OK	OK
529.1	21	than	OK	OK	OK
529.1	22	the	OK	OK	OK
529.1	23	third	OK	OK	OK
529.1	24	quarter	OK	OK	OK
529.1	25	of	OK	OK	OK
529.1	26	2012	OK	OK	OK
529.1	27	.	OK	OK	OK
537.1	0	Biodegradable	Mistranslation	OK	OK
537.1	1	oils	OK	OK	OK
537.1	2	:	OK	OK	OK
537.1	3	technological	OK	OK	OK
537.1	4	innovation	OK	OK	OK
537.1	5	at	OK	OK	BAD
537.1	6	the	OK	OK	OK
537.1	7	service	Mistranslation	OK	OK
537.1	8	of	OK	OK	BAD
537.1	9	the	OK	OK	OK
537.1	10	environment	Terminology	OK	OK
548.1	0	Incorporates	Terminology	OK	OK
548.1	1	elastic	OK	OK	OK
548.1	2	waistband	OK	OK	OK
548.1	3	,	OK	OK	OK
548.1	4	front	Style/register	OK	OK
548.1	5	clips	OK	OK	BAD
548.1	6	,	OK	OK	OK
548.1	7	two	OK	OK	OK
548.1	8	side	OK	OK	OK
548.1	9	pockets	OK	OK	OK
548.1	10	and	OK	OK	OK
548.1	11	two	OK	Fluency	OK
548.1	12	of	OK	OK	OK
548.1	13	eyelet	Word_order	Fluency	BAD
548.1	14	on	OK	OK	OK
548.1	15	the	OK	OK	BAD
548.1	16	back	OK	OK	OK
548.1	17	.	OK	OK	OK
550.1	0	Committed	OK	OK	OK
550.1	1	to	OK	OK	OK
550.1	2	the	OK	OK	OK
550.1	3	environment	OK	OK	OK
560.1	0	Present	OK	Fluency	OK
560.1	1	in	OK	OK	OK
560.1	2	all	OK	OK	OK
560.1	3	fishing	OK	OK	OK
560.1	4	ports	Mistranslation	OK	BAD
560.1	5	,	OK	Accuracy	OK
560.1	6	this	Terminology	Accuracy	OK
560.1	7	dish	OK	Fluency	BAD
560.1	8	becomes	OK	OK	BAD
560.1	9	Christmas	Grammar	OK	OK
560.1	10	in	OK	OK	OK
560.1	11	one	OK	OK	OK
560.1	12	of	OK	OK	OK
560.1	13	the	OK	OK	OK
560.1	14	stars	OK	OK	OK
560.1	15	of	OK	OK	OK
560.1	16	the	OK	Fluency	OK
560.1	17	basque	OK	OK	OK
560.1	18	tables	OK	OK	OK
560.1	19	.	OK	OK	OK
565.1	0	What	OK	OK	OK
565.1	1	of	OK	OK	OK
565.1	2	the	OK	OK	OK
565.1	3	Cardo	OK	OK	OK
565.1	4	in	OK	OK	OK
565.1	5	La	OK	Fluency	OK
565.1	6	Rioja	OK	OK	OK
565.1	7	is	OK	OK	OK
565.1	8	pure	Untranslated	Fluency	OK
565.1	9	devotion	OK	OK	BAD
565.1	10	.	OK	OK	OK
586.1	0	A	OK	OK	OK
586.1	1	triumph	OK	OK	OK
586.1	2	of	OK	OK	OK
586.1	3	legendary	Terminology	OK	OK
586.1	4	character	OK	OK	OK
586.1	5	that	OK	OK	OK
586.1	6	combines	OK	OK	OK
586.1	7	functionality	OK	OK	OK
586.1	8	and	OK	OK	OK
586.1	9	maximum	OK	OK	OK
586.1	10	comfort	OK	OK	OK
586.1	11	.	OK	OK	OK
611.1	0	Presents	OK	OK	OK
611.1	1	round	OK	OK	OK
611.1	2	neck	Mistranslation	Accuracy	BAD
611.1	3	,	OK	OK	OK
611.1	4	long	OK	OK	OK
611.1	5	sleeves	OK	OK	BAD
611.1	6	,	OK	OK	OK
611.1	7	and	OK	OK	OK
611.1	8	closure	OK	Accuracy	OK
611.1	9	of	OK	OK	OK
611.1	10	tear	OK	OK	OK
611.1	11	in	Style/register	Fluency	BAD
611.1	12	the	OK	Fluency	BAD
611.1	13	back	OK	OK	OK
611.1	14	.	OK	OK	OK
619.1	0	We	OK	OK	OK
619.1	1	develop	OK	OK	OK
619.1	2	new	OK	OK	BAD
619.1	3	energy	OK	OK	OK
619.1	4	projects	OK	Fluency	OK
619.1	5	with	OK	OK	BAD
619.1	6	wind	OK	OK	OK
619.1	7	and	OK	OK	OK
619.1	8	bioenergy	OK	Fluency	BAD
619.1	9	.	OK	OK	OK
622.1	0	The	OK	OK	OK
622.1	1	purity	OK	OK	OK
622.1	2	of	OK	OK	OK
622.1	3	the	OK	OK	OK
622.1	4	white	OK	OK	OK
622.1	5	is	OK	OK	OK
622.1	6	enhanced	OK	OK	OK
622.1	7	with	OK	OK	OK
622.1	8	clear	OK	Fluency	OK
622.1	9	details	OK	OK	OK
622.1	10	of	OK	OK	OK
622.1	11	romantic	Style/register	Fluency	BAD
622.1	12	evocation	OK	OK	BAD
622.1	13	to	OK	OK	OK
622.1	14	give	Tense/aspect/mood	OK	OK
622.1	15	this	Word_order	OK	OK
622.1	16	top	OK	OK	OK
622.1	17	flyers	OK	OK	OK
622.1	18	a	OK	OK	OK
622.1	19	femininity	OK	OK	OK
622.1	20	of	OK	OK	OK
622.1	21	absolute	Word_order	OK	OK
622.1	22	character	OK	OK	OK
622.1	23	.	OK	OK	OK
625.1	0	We	OK	OK	OK
625.1	1	carry	OK	OK	OK
625.1	2	out	OK	OK	OK
625.1	3	operations	OK	OK	BAD
625.1	4	in	Function_words	OK	OK
625.1	5	various	OK	OK	OK
625.1	6	fields	OK	OK	OK
625.1	7	located	OK	OK	OK
625.1	8	in	OK	OK	BAD
625.1	9	sensitive	OK	OK	OK
625.1	10	areas	OK	OK	OK
625.1	11	,	OK	OK	OK
625.1	12	considered	OK	OK	OK
625.1	13	to	OK	OK	OK
625.1	14	be	Terminology	OK	OK
625.1	15	of	OK	OK	OK
625.1	16	high	OK	Accuracy	OK
625.1	17	ecological	OK	OK	OK
625.1	18	value	Terminology	Accuracy	BAD
625.1	19	,	OK	OK	OK
625.1	20	and	OK	OK	OK
625.1	21	spaces	OK	Fluency	OK
625.1	22	classified	OK	OK	OK
625.1	23	with	OK	OK	OK
625.1	24	categories	OK	OK	OK
625.1	25	I	OK	OK	OK
625.1	26	-	OK	OK	OK
625.1	27	IV	OK	OK	OK
625.1	28	in	OK	OK	OK
625.1	29	the	OK	OK	OK
625.1	30	scale	OK	OK	OK
625.1	31	of	OK	OK	OK
625.1	32	the	Style/register	OK	OK
625.1	33	IUCN	OK	OK	OK
625.1	34	-	OK	OK	OK
625.1	35	International	OK	OK	OK
625.1	36	Union	OK	OK	OK
625.1	37	for	OK	OK	OK
625.1	38	the	OK	OK	OK
625.1	39	Conservation	OK	OK	OK
625.1	40	of	OK	OK	OK
625.1	41	Nature-	OK	OK	OK
625.1	42	.	OK	OK	OK
627.1	0	Ultra	OK	OK	OK
627.1	1	girly	OK	OK	BAD
627.1	2	clothes	OK	OK	OK
627.1	3	that	OK	OK	OK
627.1	4	are	OK	OK	OK
627.1	5	not	OK	Fluency	OK
627.1	6	be	OK	Accuracy	OK
627.1	7	able	Grammar	OK	OK
627.1	8	to	OK	Fluency	OK
627.1	9	resist	OK	OK	OK
627.1	10	.	Mistranslation	OK	OK
630.1	0	40	OK	OK	BAD
630.1	1	Hours	OK	OK	BAD
630.1	2	and	OK	OK	OK
630.1	3	15	Tense/aspect/mood	OK	OK
630.1	4	to	OK	OK	OK
630.1	5	17.25	OK	OK	OK
630.1	6	hours	OK	OK	OK
630.1	7	.	OK	OK	OK
632.1	0	The	OK	OK	OK
632.1	1	energy	OK	OK	OK
632.1	2	efficiency	OK	OK	OK
632.1	3	is	OK	OK	OK
632.1	4	to	OK	OK	OK
632.1	5	get	OK	OK	OK
632.1	6	more	Word_order	OK	OK
632.1	7	and	OK	OK	OK
632.1	8	better	Untranslated	OK	BAD
632.1	9	results	OK	OK	OK
632.1	10	with	OK	OK	OK
632.1	11	less	OK	Fluency	OK
632.1	12	energy	OK	OK	OK
632.1	13	resources	OK	OK	OK
632.1	14	.	OK	OK	OK
636.1	0	To	OK	OK	OK
636.1	1	get	OK	Fluency	OK
636.1	2	there	Word_order	Accuracy	OK
636.1	3	,	OK	Fluency	OK
636.1	4	we	OK	OK	OK
636.1	5	travel	Style/register	OK	OK
636.1	6	about	OK	OK	OK
636.1	7	20	OK	OK	OK
636.1	8	kilometers	OK	OK	OK
636.1	9	from	OK	OK	OK
636.1	10	the	OK	OK	OK
636.1	11	AP2	OK	Accuracy	OK
636.1	12	and	OK	OK	OK
636.1	13	then	OK	OK	OK
636.1	14	bind	OK	OK	OK
636.1	15	to	OK	OK	OK
636.1	16	the	OK	OK	BAD
636.1	17	C-51	OK	OK	OK
636.1	18	.	OK	OK	OK
639.1	0	The	OK	OK	OK
639.1	1	lower	OK	OK	OK
639.1	2	sales	OK	Accuracy	OK
639.1	3	,	OK	OK	OK
639.1	4	mainly	OK	OK	OK
639.1	5	of	OK	OK	OK
639.1	6	liquids	OK	Fluency	OK
639.1	7	in	OK	OK	OK
639.1	8	Libya	OK	Fluency	OK
639.1	9	,	OK	OK	OK
639.1	10	have	OK	OK	OK
639.1	11	had	OK	OK	OK
639.1	12	a	OK	OK	OK
639.1	13	negative	OK	OK	OK
639.1	14	effect	OK	Fluency	OK
639.1	15	of	OK	OK	OK
639.1	16	118	OK	OK	OK
639.1	17	M	OK	Fluency	OK
639.1	18	€	OK	OK	OK
639.1	19	.	OK	OK	OK
646.1	0	Complete	Tense/aspect/mood	OK	BAD
646.1	1	with	OK	OK	OK
646.1	2	an	OK	OK	BAD
646.1	3	internal	OK	OK	OK
646.1	4	pocket	OK	OK	OK
646.1	5	and	OK	OK	BAD
646.1	6	interior	OK	OK	BAD
646.1	7	lining	OK	Accuracy	BAD
646.1	8	.	OK	OK	OK
647.1	0	After	OK	OK	OK
647.1	1	similar	Mistranslation	Accuracy	BAD
647.1	2	cultural	OK	OK	OK
647.1	3	route	OK	OK	OK
647.1	4	,	OK	OK	OK
647.1	5	it	Function_words	OK	OK
647.1	6	is	OK	OK	OK
647.1	7	easy	OK	OK	OK
647.1	8	for	OK	OK	OK
647.1	9	us	OK	OK	OK
647.1	10	open	OK	OK	OK
647.1	11	the	OK	OK	OK
647.1	12	appetite	OK	OK	OK
647.1	13	.	OK	OK	OK
656.1	0	Tasty	OK	OK	OK
656.1	1	,	OK	OK	OK
656.1	2	lightweight	OK	OK	OK
656.1	3	and	OK	OK	OK
656.1	4	well	OK	Fluency	OK
656.1	5	warm	OK	OK	OK
656.1	6	to	Terminology	OK	BAD
656.1	7	temper	OK	OK	OK
656.1	8	the	OK	OK	OK
656.1	9	body	OK	Fluency	OK
656.1	10	.	OK	OK	OK
663.1	0	It	OK	OK	OK
663.1	1	was	OK	OK	OK
663.1	2	a	OK	OK	OK
663.1	3	red	OK	Fluency	OK
663.1	4	dress	OK	OK	BAD
663.1	5	,	OK	OK	OK
663.1	6	skirt	OK	OK	OK
663.1	7	blowing	OK	OK	OK
663.1	8	up	OK	OK	OK
663.1	9	,	OK	OK	OK
663.1	10	"	OK	OK	OK
663.1	11	corsage	Function_words	OK	OK
663.1	12	"	OK	OK	OK
663.1	13	drapeado	OK	OK	BAD
663.1	14	and	OK	OK	OK
663.1	15	décolleté	OK	Fluency	OK
663.1	16	word	Word_order	Fluency	OK
663.1	17	of	OK	OK	BAD
663.1	18	honour	OK	Fluency	OK
663.1	19	.	OK	OK	OK
664.1	0	If	OK	Fluency	OK
664.1	1	it	OK	Accuracy	BAD
664.1	2	says	OK	OK	OK
664.1	3	a	OK	OK	OK
664.1	4	princess	OK	OK	OK
664.1	5	...	OK	OK	OK
668.1	0	The	OK	OK	OK
668.1	1	miners	OK	OK	OK
668.1	2	of	OK	OK	OK
668.1	3	Kawah	Terminology	OK	OK
668.1	4	Ijen	OK	OK	OK
668.1	5	earn	OK	OK	OK
668.1	6	5	OK	OK	OK
668.1	7	euro	OK	OK	OK
668.1	8	cents	OK	OK	OK
668.1	9	for	OK	OK	OK
668.1	10	every	Function_words	OK	OK
668.1	11	kilogram	OK	OK	OK
668.1	12	of	OK	OK	OK
668.1	13	sulphur	OK	OK	OK
668.1	14	extracting	OK	OK	OK
674.1	0	An	OK	OK	OK
674.1	1	acquaintance	Word_order	Fluency	OK
674.1	2	of	OK	OK	OK
674.1	3	my	OK	OK	OK
674.1	4	friend	OK	OK	OK
674.1	5	were	OK	Accuracy	BAD
674.1	6	extorting	OK	OK	BAD
674.1	7	on	OK	OK	OK
674.1	8	a	OK	OK	BAD
674.1	9	social	Addition	OK	BAD
674.1	10	network	OK	OK	OK
674.1	11	.	OK	OK	OK
684.1	0	This	OK	OK	OK
684.1	1	show	OK	OK	OK
684.1	2	is	OK	OK	OK
684.1	3	the	OK	OK	BAD
684.1	4	pinnacle	OK	Fluency	OK
684.1	5	of	OK	Fluency	OK
684.1	6	a	OK	OK	OK
684.1	7	story	OK	Accuracy	BAD
684.1	8	whose	OK	OK	OK
684.1	9	only	OK	OK	OK
684.1	10	protagonist	OK	OK	OK
684.1	11	is	OK	OK	OK
684.1	12	"	OK	OK	OK
684.1	13	Il	OK	OK	OK
684.1	14	signore	OK	OK	OK
684.1	15	"	OK	OK	OK
684.1	16	Garavani	OK	OK	OK
684.1	17	,	OK	OK	OK
684.1	18	but	OK	OK	OK
684.1	19	that	OK	OK	OK
684.1	20	could	OK	OK	OK
684.1	21	not	OK	OK	OK
684.1	22	have	OK	OK	OK
684.1	23	been	OK	OK	OK
684.1	24	written	OK	OK	BAD
684.1	25	without	OK	OK	OK
684.1	26	his	OK	OK	OK
684.1	27	distinguished	OK	Fluency	OK
684.1	28	clients	OK	OK	OK
684.1	29	.	OK	OK	OK
690.1	0	The	OK	OK	OK
690.1	1	last	OK	OK	OK
690.1	2	time	OK	OK	OK
690.1	3	it	OK	OK	BAD
690.1	4	was	Mistranslation	OK	BAD
690.1	5	above	OK	OK	BAD
690.1	6	2	Word_order	OK	BAD
690.1	7	-	OK	OK	OK
690.1	8	known	OK	OK	OK
690.1	9	as	Function_words	OK	OK
690.1	10	reposición-	OK	OK	OK
690.1	11	rate	OK	OK	OK
690.1	12	was	OK	OK	OK
690.1	13	in	Mistranslation	OK	BAD
690.1	14	1976	OK	OK	OK
690.1	15	.	OK	OK	OK
691.1	0	Naty	OK	OK	OK
691.1	1	Abascal	OK	OK	OK
691.1	2	and	OK	OK	OK
691.1	3	dressmaker	OK	Accuracy	BAD
691.1	4	,	OK	OK	OK
691.1	5	in	OK	OK	OK
691.1	6	2006	OK	OK	OK
716.1	0	Punished	OK	OK	OK
716.1	1	for	OK	OK	OK
716.1	2	life	OK	Fluency	OK
716.1	3	,	OK	OK	OK
716.1	4	this	OK	OK	OK
716.1	5	pleasant	OK	OK	BAD
716.1	6	,	OK	OK	OK
716.1	7	intelligent	OK	OK	OK
716.1	8	young	OK	OK	OK
716.1	9	man	Untranslated	OK	OK
716.1	10	could	OK	OK	OK
716.1	11	be	OK	Fluency	OK
716.1	12	a	OK	OK	OK
716.1	13	tour	Grammar	OK	OK
716.1	14	guide	OK	OK	OK
716.1	15	,	OK	OK	OK
716.1	16	waiter	OK	OK	OK
716.1	17	or	OK	OK	OK
716.1	18	hotel	OK	OK	OK
716.1	19	receptionist	OK	OK	OK
716.1	20	,	OK	OK	OK
716.1	21	but	OK	OK	OK
716.1	22	instead	OK	OK	BAD
716.1	23	he	OK	OK	OK
716.1	24	does	OK	OK	OK
716.1	25	the	OK	OK	OK
716.1	26	work	Style/register	OK	OK
716.1	27	of	OK	OK	OK
716.1	28	a	OK	OK	OK
716.1	29	mule	Style/register	Accuracy	OK
716.1	30	.	OK	OK	OK
717.1	0	"	OK	Fluency	OK
717.1	1	Valentino	OK	OK	OK
717.1	2	prefers	OK	OK	OK
717.1	3	elegance	OK	OK	OK
717.1	4	to	OK	OK	BAD
717.1	5	the	OK	OK	OK
717.1	6	notoriety	OK	OK	OK
717.1	7	.	OK	OK	OK
717.1	8	"	Punctuation	OK	BAD
718.1	0	His	OK	OK	BAD
718.1	1	five	OK	OK	OK
718.1	2	children	OK	OK	OK
718.1	3	,	OK	OK	OK
718.1	4	the	OK	Fluency	OK
718.1	5	largest	OK	OK	OK
718.1	6	,	OK	OK	OK
718.1	7	30	OK	OK	OK
718.1	8	,	OK	OK	OK
718.1	9	also	OK	OK	OK
718.1	10	works	OK	OK	BAD
718.1	11	loading	OK	OK	OK
718.1	12	sulfur	OK	Fluency	BAD
718.1	13	.	OK	OK	OK
719.1	0	In	Function_words	OK	OK
719.1	1	FB	OK	Fluency	OK
719.1	2	go	Mistranslation	OK	OK
719.1	3	pretty	OK	OK	OK
719.1	4	images	OK	OK	OK
719.1	5	or	Agreement	Fluency	OK
719.1	6	games	Tense/aspect/mood	OK	OK
719.1	7	.	OK	Fluency	OK
733.1	0	Jorge	OK	OK	OK
733.1	1	ensures	OK	OK	OK
733.1	2	meet	OK	OK	OK
733.1	3	the	OK	OK	OK
733.1	4	35	OK	Fluency	OK
733.1	5	friends	OK	OK	BAD
733.1	6	in	OK	OK	OK
733.1	7	FB	OK	OK	OK
733.1	8	and	Mistranslation	OK	OK
733.1	9	its	OK	OK	OK
733.1	10	nine	OK	OK	OK
733.1	11	followers	OK	OK	OK
733.1	12	on	Mistranslation	OK	OK
733.1	13	Twitter	OK	OK	BAD
733.1	14	.	OK	OK	OK
741.1	0	We	OK	Fluency	OK
741.1	1	knew	OK	OK	OK
741.1	2	that	OK	OK	BAD
741.1	3	the	OK	OK	OK
741.1	4	government	OK	OK	OK
741.1	5	had	OK	OK	OK
741.1	6	tried	OK	OK	BAD
741.1	7	many	OK	OK	OK
741.1	8	things	OK	OK	BAD
741.1	9	,	OK	OK	OK
741.1	10	such	OK	OK	OK
741.1	11	as	OK	OK	OK
741.1	12	launching	OK	OK	OK
741.1	13	perfumes	OK	OK	OK
741.1	14	with	Function_words	Accuracy	OK
741.1	15	pheromones	Word_order	OK	BAD
741.1	16	or	Terminology	Accuracy	OK
741.1	17	organize	Capitalization	Accuracy	OK
741.1	18	parties	Tense/aspect/mood	Fluency	OK
741.1	19	quick	Typography	Fluency	BAD
741.1	20	quotes	Word_order	OK	OK
741.1	21	(	OK	Fluency	OK
741.1	22	speed-dating	OK	OK	OK
741.1	23	)	Style/register	OK	OK
741.1	24	.	OK	OK	OK
747.1	0	Garavani	OK	OK	OK
747.1	1	's	OK	OK	OK
747.1	2	life	OK	OK	OK
747.1	3	is	OK	OK	OK
747.1	4	not	OK	OK	OK
747.1	5	a	OK	OK	OK
747.1	6	history	OK	OK	OK
747.1	7	of	OK	OK	OK
747.1	8	obsessions	OK	OK	OK
747.1	9	,	OK	OK	OK
747.1	10	but	OK	OK	OK
747.1	11	loves	OK	OK	OK
747.1	12	well	OK	OK	OK
747.1	13	matched	Word_order	OK	BAD
747.1	14	.	OK	OK	OK
749.1	0	The	OK	OK	OK
749.1	1	mother	OK	OK	OK
749.1	2	is	OK	OK	OK
749.1	3	included	OK	OK	OK
749.1	4	,	OK	OK	OK
749.1	5	holds	OK	OK	OK
749.1	6	the	OK	OK	OK
749.1	7	key	OK	Accuracy	BAD
749.1	8	to	OK	OK	OK
749.1	9	one	OK	OK	OK
749.1	10	of	OK	OK	OK
749.1	11	the	OK	OK	BAD
749.1	12	accounts	OK	OK	OK
749.1	13	.	OK	OK	OK
754.1	0	Access	OK	OK	OK
754.1	1	to	OK	OK	OK
754.1	2	the	Word_order	Fluency	OK
754.1	3	on-line	Mistranslation	OK	BAD
754.1	4	validador	Style/register	OK	OK
754.1	5	:	OK	OK	OK
759.1	0	Likewise	OK	OK	OK
759.1	1	,	OK	OK	OK
759.1	2	every	OK	OK	OK
759.1	3	user	OK	OK	OK
759.1	4	has	OK	OK	OK
759.1	5	the	OK	OK	OK
759.1	6	right	OK	OK	OK
759.1	7	to	OK	OK	OK
759.1	8	rectifying	OK	OK	OK
759.1	9	or	OK	OK	OK
759.1	10	canceling	OK	OK	OK
759.1	11	,	OK	OK	OK
759.1	12	in	OK	OK	OK
759.1	13	any	OK	OK	OK
759.1	14	moment	OK	OK	OK
759.1	15	,	OK	OK	OK
759.1	16	the	OK	OK	OK
759.1	17	data	OK	OK	OK
759.1	18	of	Word_order	OK	OK
759.1	19	personal	Terminology	OK	OK
759.1	20	character	Style/register	OK	OK
759.1	21	that	OK	Fluency	BAD
759.1	22	it	OK	OK	OK
759.1	23	has	OK	OK	OK
759.1	24	supplied	OK	OK	OK
759.1	25	the	OK	OK	OK
759.1	26	Cocktail	OK	OK	OK
759.1	27	Shaker	OK	Accuracy	OK
759.1	28	with	OK	OK	OK
759.1	29	.	OK	OK	OK
761.1	0	Although	OK	OK	OK
761.1	1	he	Style/register	OK	OK
761.1	2	has	OK	OK	OK
761.1	3	taken	OK	OK	OK
761.1	4	part	OK	OK	OK
761.1	5	on	OK	OK	OK
761.1	6	16	OK	Fluency	BAD
761.1	7	occasions	OK	Accuracy	OK
761.1	8	in	OK	OK	OK
761.1	9	a	OK	Fluency	OK
761.1	10	World	OK	OK	OK
761.1	11	Championship	Omission	Fluency	OK
761.1	12	its	Untranslated	OK	OK
761.1	13	best	Word_order	OK	OK
761.1	14	participation	OK	OK	OK
761.1	15	dates	OK	OK	OK
761.1	16	from	OK	OK	OK
761.1	17	1967	OK	OK	OK
761.1	18	,	OK	OK	OK
761.1	19	when	OK	OK	OK
761.1	20	they	OK	OK	OK
761.1	21	were	OK	OK	OK
761.1	22	seconds	OK	OK	OK
761.1	23	.	OK	OK	OK
776.1	0	Data	OK	OK	BAD
776.1	1	of	OK	OK	OK
776.1	2	the	Mistranslation	OK	OK
776.1	3	Web	OK	OK	OK
789.1	0	On	OK	OK	OK
789.1	1	30	Mistranslation	Fluency	OK
789.1	2	of	OK	Accuracy	OK
789.1	3	October	OK	OK	OK
789.1	4	a	OK	OK	OK
789.1	5	hundred	OK	OK	OK
789.1	6	and	OK	Fluency	OK
789.1	7	twenty	OK	OK	OK
789.1	8	families	OK	OK	OK
789.1	9	that	OK	OK	OK
789.1	10	had	OK	OK	OK
789.1	11	occupied	OK	OK	OK
789.1	12	an	OK	OK	BAD
789.1	13	unoccupied	OK	OK	OK
789.1	14	estate	OK	OK	OK
789.1	15	in	OK	OK	OK
789.1	16	the	OK	Fluency	OK
789.1	17	San	OK	OK	OK
789.1	18	José	OK	OK	OK
789.1	19	Neighborhood	OK	OK	OK
789.1	20	of	OK	OK	OK
789.1	21	Almte	OK	Fluency	OK
789.1	22	.	OK	OK	OK
790.1	0	The	OK	OK	OK
790.1	1	48	OK	OK	OK
790.1	2	%	OK	OK	OK
790.1	3	remaining	OK	OK	OK
790.1	4	held	OK	OK	OK
790.1	5	a	Punctuation	Fluency	OK
790.1	6	little	OK	Fluency	OK
790.1	7	frequent	Typography	OK	BAD
790.1	8	or	OK	OK	OK
790.1	9	non-existent	OK	OK	OK
790.1	10	social	OK	OK	BAD
790.1	11	contact	OK	OK	OK
790.1	12	.	OK	OK	OK
798.1	0	The	OK	Fluency	BAD
798.1	1	cinema	OK	Fluency	OK
798.1	2	breaks	OK	Fluency	OK
798.1	3	the	OK	OK	OK
798.1	4	first	OK	OK	BAD
798.1	5	limit	OK	OK	OK
798.1	6	fixed	OK	OK	OK
798.1	7	to	OK	OK	OK
798.1	8	the	OK	OK	OK
798.1	9	representation	OK	OK	BAD
798.1	10	of	Word_order	OK	OK
798.1	11	the	Word_order	OK	OK
798.1	12	Holocaust	OK	OK	OK
798.1	13	:	OK	OK	OK
799.1	0	The	OK	OK	OK
799.1	1	cinema	OK	OK	OK
799.1	2	and	OK	OK	OK
799.1	3	the	OK	OK	OK
799.1	4	telly	OK	OK	OK
799.1	5	are	OK	OK	OK
799.1	6	adapted	OK	Fluency	OK
799.1	7	to	OK	OK	OK
799.1	8	the	OK	OK	OK
799.1	9	fourth	OK	OK	OK
799.1	10	screen	OK	OK	OK
806.1	0	The	OK	OK	OK
806.1	1	individual	OK	OK	OK
806.1	2	who	OK	OK	OK
806.1	3	perceives	OK	OK	OK
806.1	4	this	OK	OK	OK
806.1	5	immediateness	OK	OK	OK
806.1	6	can	OK	OK	OK
806.1	7	extend	OK	OK	OK
806.1	8	the	OK	OK	OK
806.1	9	circle	OK	OK	OK
806.1	10	of	OK	OK	OK
806.1	11	the	OK	OK	BAD
806.1	12	pleasure	OK	OK	OK
806.1	13	up	OK	OK	OK
806.1	14	to	OK	OK	OK
806.1	15	a	OK	OK	OK
806.1	16	certain	OK	OK	OK
806.1	17	point	Word_order	OK	BAD
806.1	18	simply	OK	OK	OK
806.1	19	waking	OK	OK	OK
806.1	20	up	OK	OK	OK
806.1	21	of	OK	OK	OK
806.1	22	the	OK	OK	OK
806.1	23	hypnosis	OK	OK	BAD
806.1	24	of	OK	OK	OK
806.1	25	the	OK	Fluency	OK
806.1	26	"	OK	OK	OK
806.1	27	Spectrums	OK	OK	OK
806.1	28	"	OK	OK	BAD
806.1	29	(	OK	OK	BAD
806.1	30	as	OK	OK	OK
806.1	31	Stirner	OK	Accuracy	OK
806.1	32	it	OK	Fluency	OK
806.1	33	called	Mistranslation	OK	BAD
806.1	34	all	OK	OK	OK
806.1	35	the	OK	OK	OK
806.1	36	abstractions	OK	OK	OK
806.1	37	)	OK	OK	OK
806.1	38	;	OK	OK	OK
812.1	0	The	OK	OK	OK
812.1	1	digestion	OK	OK	OK
812.1	2	process	OK	OK	BAD
812.1	3	,	OK	OK	OK
812.1	4	including	OK	OK	OK
812.1	5	the	OK	OK	OK
812.1	6	concept	OK	OK	OK
812.1	7	of	OK	OK	OK
812.1	8	simple	OK	OK	OK
812.1	9	and	OK	OK	OK
812.1	10	compound	OK	OK	OK
812.1	11	foods	OK	OK	OK
812.1	12	and	OK	OK	OK
812.1	13	the	OK	OK	OK
812.1	14	paper	OK	OK	OK
812.1	15	of	OK	OK	OK
812.1	16	specialized	OK	OK	OK
812.1	17	structures	OK	OK	OK
812.1	18	,	OK	OK	OK
812.1	19	enzymes	OK	OK	OK
812.1	20	,	OK	OK	OK
812.1	21	digestive	OK	OK	OK
812.1	22	juices	OK	OK	OK
812.1	23	,	OK	OK	OK
812.1	24	and	OK	OK	OK
812.1	25	the	OK	OK	OK
812.1	26	liver	OK	OK	OK
812.1	27	salts	OK	OK	BAD
812.1	28	.	OK	Fluency	OK
819.1	0	Temporary	OK	OK	OK
819.1	1	element	OK	OK	OK
819.1	2	for	OK	OK	OK
819.1	3	unit	OK	OK	OK
821.1	0	In	Word_order	OK	OK
821.1	1	Rome	OK	OK	OK
821.1	2	,	OK	OK	OK
821.1	3	in	OK	OK	OK
821.1	4	Milan	OK	OK	OK
821.1	5	or	OK	OK	OK
821.1	6	in	OK	Fluency	OK
821.1	7	any	OK	OK	OK
821.1	8	city	OK	OK	OK
821.1	9	of	OK	OK	OK
821.1	10	the	OK	OK	OK
821.1	11	country	OK	OK	OK
821.1	12	,	OK	OK	OK
821.1	13	Italy	Tense/aspect/mood	OK	OK
821.1	14	leaned	OK	OK	OK
821.1	15	to	OK	OK	OK
821.1	16	the	OK	OK	OK
821.1	17	street	Mistranslation	OK	OK
821.1	18	to	OK	OK	OK
821.1	19	celebrate	OK	OK	OK
821.1	20	the	OK	OK	OK
821.1	21	triumph	OK	OK	OK
821.1	22	of	OK	OK	OK
821.1	23	its	OK	OK	OK
821.1	24	selection	OK	OK	OK
821.1	25	in	Terminology	OK	OK
821.1	26	the	OK	OK	OK
821.1	27	World	OK	OK	OK
821.1	28	Championship	OK	OK	OK
821.1	29	.	OK	OK	OK
827.1	0	In	OK	OK	OK
827.1	1	the	OK	OK	OK
827.1	2	current	OK	OK	OK
827.1	3	documents	OK	OK	BAD
827.1	4	of	OK	OK	OK
827.1	5	the	OK	Fluency	OK
827.1	6	current	OK	Fluency	OK
827.1	7	administration	OK	OK	OK
827.1	8	they	OK	Fluency	OK
827.1	9	are	OK	OK	OK
827.1	10	not	OK	OK	OK
827.1	11	recognized	OK	Fluency	OK
827.1	12	,	OK	OK	OK
827.1	13	even	OK	OK	OK
827.1	14	,	OK	OK	OK
827.1	15	terms	OK	OK	OK
827.1	16	long	OK	OK	OK
827.1	17	and	OK	OK	OK
827.1	18	widely	OK	OK	OK
827.1	19	discussed	OK	OK	OK
827.1	20	as	OK	OK	OK
827.1	21	that	OK	OK	OK
827.1	22	of	OK	OK	OK
827.1	23	integral	OK	OK	OK
827.1	24	attention	OK	OK	OK
827.1	25	to	OK	OK	OK
827.1	26	the	OK	OK	OK
827.1	27	childhood	OK	OK	OK
827.1	28	.	OK	OK	OK
828.1	0	In	OK	OK	OK
828.1	1	less	OK	Fluency	OK
828.1	2	than	OK	OK	BAD
828.1	3	two	OK	OK	OK
828.1	4	minutes	OK	OK	OK
828.1	5	we	OK	OK	OK
828.1	6	get	Style/register	Accuracy	BAD
828.1	7	up	OK	OK	BAD
828.1	8	to	OK	OK	BAD
828.1	9	date	OK	OK	OK
828.1	10	them	OK	OK	OK
828.1	11	on	OK	OK	OK
828.1	12	the	OK	OK	OK
828.1	13	present	OK	OK	BAD
828.1	14	of	OK	OK	OK
828.1	15	the	OK	OK	OK
828.1	16	week	OK	OK	OK
828.1	17	in	OK	OK	OK
828.1	18	Latin	OK	OK	OK
828.1	19	America	OK	OK	OK
828.1	20	and	OK	OK	OK
828.1	21	on	OK	OK	OK
828.1	22	the	OK	OK	OK
828.1	23	Latin	OK	OK	OK
828.1	24	facts	OK	OK	OK
828.1	25	that	OK	OK	OK
828.1	26	are	OK	OK	BAD
828.1	27	a	OK	OK	BAD
828.1	28	news	OK	OK	OK
828.1	29	in	OK	OK	OK
828.1	30	Spain	OK	OK	OK
828.1	31	.	OK	OK	OK
835.1	0	Statistics	OK	OK	OK
835.1	1	of	OK	OK	OK
835.1	2	the	OK	OK	OK
835.1	3	players	OK	Accuracy	BAD
842.1	0	Evolution	OK	OK	OK
842.1	1	of	OK	OK	OK
842.1	2	the	OK	OK	OK
842.1	3	risks	OK	OK	OK
842.1	4	in	OK	OK	OK
842.1	5	the	OK	OK	OK
842.1	6	engine	OK	OK	OK
842.1	7	rooms	OK	OK	OK
842.1	8	of	OK	OK	OK
842.1	9	the	OK	OK	OK
842.1	10	toxic	OK	OK	OK
842.1	11	merchant	Terminology	OK	OK
842.1	12	ships	OK	OK	OK
842.1	13	/	OK	OK	BAD
842.1	14	Risk	Terminology	OK	OK
842.1	15	Evaluation	OK	OK	OK
842.1	16	in	OK	OK	OK
842.1	17	quimiqueros	OK	OK	BAD
842.1	18	ships	OK	Accuracy	OK
842.1	19	of	Word_order	OK	BAD
842.1	20	the	OK	OK	OK
842.1	21	Canarian	OK	OK	OK
842.1	22	coasting	OK	OK	OK
842.1	23	trade	OK	OK	OK
842.1	24	.	OK	OK	OK
843.1	0	The	Word_order	Accuracy	OK
843.1	1	British	OK	Accuracy	OK
843.1	2	film	OK	OK	OK
843.1	3	director	OK	OK	OK
843.1	4	Anthony	OK	OK	OK
843.1	5	Minghella	OK	OK	OK
843.1	6	dies	OK	Fluency	OK
843.1	7	at	OK	OK	OK
843.1	8	the	OK	OK	OK
843.1	9	54	OK	OK	BAD
843.1	10	years	OK	OK	OK
849.1	0	Five	Word_order	Fluency	BAD
849.1	1	years	OK	OK	OK
849.1	2	ago	OK	Accuracy	OK
849.1	3	there	Mistranslation	Accuracy	BAD
849.1	4	were	Omission	Accuracy	BAD
849.1	5	between	OK	Fluency	OK
849.1	6	5,500	OK	OK	BAD
849.1	7	and	Grammar	OK	OK
849.1	8	6,000	Omission	Accuracy	OK
849.1	9	copies	OK	OK	OK
849.1	10	approximately	OK	OK	BAD
849.1	11	"	OK	OK	OK
849.1	12	,	OK	OK	OK
849.1	13	concludes	OK	OK	OK
849.1	14	WWF	OK	OK	OK
849.1	15	/	OK	OK	OK
849.1	16	Adena	OK	OK	OK
849.1	17	in	Function_words	OK	OK
849.1	18	an	Typography	OK	OK
849.1	19	international	OK	OK	OK
849.1	20	seminar	OK	OK	OK
849.1	21	on	OK	Fluency	OK
849.1	22	the	OK	OK	OK
849.1	23	sort	OK	OK	OK
849.1	24	celebrated	OK	OK	OK
849.1	25	in	OK	OK	OK
849.1	26	Stockholm	OK	OK	OK
849.1	27	this	OK	OK	OK
849.1	28	week	OK	OK	OK
849.1	29	.	OK	OK	OK
852.1	0	THE	OK	OK	BAD
852.1	1	CONVENIENCE	Style/register	OK	OK
852.1	2	OF	OK	OK	OK
852.1	3	THE	Agreement	Fluency	BAD
852.1	4	MICRORRIEGO	Unintelligible	OK	OK
852.1	5	TO	Agreement	OK	OK
852.1	6	IMPROVE	OK	OK	OK
852.1	7	THE	OK	OK	OK
852.1	8	FOOD	OK	Fluency	BAD
852.1	9	SAFETY	Unintelligible	Fluency	BAD
852.1	10	WITH	Spelling	Fluency	BAD
852.1	11	RELATIVELY	OK	OK	OK
852.1	12	SCARCE	OK	OK	OK
852.1	13	HYDRIC	Grammar	OK	BAD
852.1	14	RESOURCES	OK	Fluency	OK
852.1	15	.	OK	OK	OK
863.1	0	The	OK	OK	OK
863.1	1	school	Tense/aspect/mood	OK	BAD
863.1	2	can	OK	OK	OK
863.1	3	convert	OK	OK	OK
863.1	4	in	Word_order	OK	OK
863.1	5	space	Style/register	Fluency	OK
863.1	6	of	Style/register	OK	OK
863.1	7	learning	OK	Fluency	BAD
863.1	8	and	OK	OK	OK
863.1	9	research	OK	Fluency	OK
863.1	10	not	OK	OK	OK
863.1	11	only	OK	OK	OK
863.1	12	for	OK	OK	OK
863.1	13	the	OK	Fluency	OK
863.1	14	pupils	OK	OK	OK
863.1	15	,	OK	OK	OK
863.1	16	but	OK	OK	OK
863.1	17	for	OK	OK	OK
863.1	18	the	OK	OK	BAD
863.1	19	teachers	OK	OK	OK
863.1	20	themselves	OK	OK	BAD
863.1	21	:	OK	OK	OK
867.1	0	The	OK	OK	OK
867.1	1	fast	OK	OK	OK
867.1	2	modernization	OK	OK	OK
867.1	3	of	OK	OK	OK
867.1	4	the	OK	OK	OK
867.1	5	individuals	Word_order	OK	OK
867.1	6	is	OK	OK	OK
867.1	7	not	OK	OK	OK
867.1	8	easier	OK	OK	OK
867.1	9	or	OK	OK	BAD
867.1	10	less	OK	OK	OK
867.1	11	troubled	OK	OK	OK
867.1	12	that	OK	OK	OK
867.1	13	that	OK	OK	OK
867.1	14	of	OK	OK	OK
867.1	15	the	OK	OK	BAD
867.1	16	societies	OK	OK	OK
867.1	17	.	OK	OK	OK
902.1	0	Not	OK	OK	OK
902.1	1	a	OK	OK	OK
902.1	2	closed	OK	OK	BAD
902.1	3	and	OK	OK	OK
902.1	4	staunch	OK	OK	OK
902.1	5	humanism	OK	OK	OK
902.1	6	,	OK	OK	OK
902.1	7	excluding	OK	OK	OK
902.1	8	of	OK	OK	OK
902.1	9	the	OK	OK	OK
902.1	10	contributions	OK	OK	OK
902.1	11	of	OK	OK	OK
902.1	12	the	OK	OK	OK
902.1	13	different	OK	OK	OK
902.1	14	trends	OK	OK	OK
902.1	15	,	OK	OK	OK
902.1	16	but	Style/register	OK	OK
902.1	17	a	OK	OK	OK
902.1	18	cozy	OK	OK	OK
902.1	19	humanism	Word_order	OK	BAD
902.1	20	and	OK	OK	OK
902.1	21	,	OK	OK	OK
902.1	22	in	OK	OK	OK
902.1	23	a	OK	OK	OK
902.1	24	certain	Style/register	OK	BAD
902.1	25	sense	OK	OK	OK
902.1	26	,	OK	OK	OK
902.1	27	an	Mistranslation	Fluency	BAD
902.1	28	eclectic	OK	Fluency	OK
902.1	29	attitude	OK	OK	OK
902.1	30	.	OK	OK	BAD
926.1	0	The	OK	OK	OK
926.1	1	exercise	OK	OK	OK
926.1	2	of	OK	OK	OK
926.1	3	the	OK	OK	OK
926.1	4	environmental	OK	OK	OK
926.1	5	duties	OK	OK	OK
926.1	6	is	OK	OK	BAD
926.1	7	promoted	OK	OK	OK
926.1	8	,	OK	OK	OK
926.1	9	differentiating	OK	OK	OK
926.1	10	to	OK	OK	OK
926.1	11	the	OK	OK	OK
926.1	12	sectors	Function_words	OK	OK
926.1	13	and	OK	OK	OK
926.1	14	groups	OK	OK	OK
926.1	15	,	OK	OK	OK
926.1	16	in	OK	OK	OK
926.1	17	its	OK	OK	OK
926.1	18	respective	OK	OK	OK
926.1	19	responsibilities	OK	OK	OK
926.1	20	.	OK	OK	OK
928.1	0	Madams	OK	Fluency	OK
928.1	1	and	OK	Fluency	OK
928.1	2	town	OK	OK	OK
928.1	3	councilors	OK	OK	OK
928.1	4	of	OK	OK	OK
928.1	5	the	OK	OK	OK
928.1	6	Honourable	OK	OK	OK
928.1	7	Town	OK	Accuracy	OK
928.1	8	Council	Word_order	OK	BAD
928.1	9	of	OK	OK	OK
928.1	10	Lorca	OK	OK	OK
928.1	11	.	OK	OK	OK
933.1	0	If	OK	OK	OK
933.1	1	,	OK	OK	OK
933.1	2	so	OK	OK	OK
933.1	3	to	OK	Accuracy	OK
933.1	4	speak	OK	OK	OK
933.1	5	,	OK	OK	OK
933.1	6	these	Punctuation	OK	OK
933.1	7	eight	OK	OK	OK
933.1	8	needs	OK	OK	OK
933.1	9	belong	OK	OK	OK
933.1	10	to	Function_words	OK	OK
933.1	11	the	OK	OK	OK
933.1	12	collective	OK	OK	OK
933.1	13	background	OK	OK	OK
933.1	14	of	OK	OK	OK
933.1	15	every	OK	OK	OK
933.1	16	human	OK	OK	OK
933.1	17	being	OK	OK	OK
933.1	18	,	OK	OK	OK
933.1	19	the	OK	OK	OK
933.1	20	intensity	Word_order	Fluency	OK
933.1	21	and	OK	OK	OK
933.1	22	preference	OK	OK	BAD
933.1	23	staff	OK	OK	OK
933.1	24	or	Agreement	OK	BAD
933.1	25	relative	OK	OK	OK
933.1	26	for	OK	OK	OK
933.1	27	certain	OK	OK	OK
933.1	28	specific	OK	OK	BAD
933.1	29	trends	Tense/aspect/mood	Fluency	BAD
933.1	30	can	Word_order	OK	OK
933.1	31	be	OK	OK	OK
933.1	32	quite	OK	Accuracy	BAD
933.1	33	variable	OK	OK	BAD
933.1	34	.	OK	OK	OK
946.1	0	Every	OK	OK	OK
946.1	1	proposal	OK	OK	OK
946.1	2	of	Word_order	OK	OK
946.1	3	use	OK	OK	OK
946.1	4	and	OK	OK	OK
946.1	5	management	OK	OK	OK
946.1	6	of	OK	OK	OK
946.1	7	the	OK	OK	OK
946.1	8	resource	Style/register	OK	OK
946.1	9	should	OK	OK	OK
946.1	10	have	OK	OK	OK
946.1	11	very	OK	OK	OK
946.1	12	in	OK	OK	OK
946.1	13	account	OK	OK	OK
946.1	14	these	OK	OK	OK
946.1	15	relevant	OK	OK	OK
946.1	16	aspects	OK	Fluency	OK
946.1	17	,	OK	OK	OK
946.1	18	to	OK	OK	OK
946.1	19	prevent	Grammar	OK	OK
946.1	20	possible	OK	OK	BAD
946.1	21	conflicts	OK	OK	OK
946.1	22	or	OK	Fluency	OK
946.1	23	problems	OK	OK	OK
946.1	24	.	OK	OK	BAD
952.1	0	He	OK	OK	OK
952.1	1	suggested	Terminology	Accuracy	OK
952.1	2	reorienting	Tense/aspect/mood	OK	OK
952.1	3	this	OK	OK	OK
952.1	4	inefficient	OK	Fluency	BAD
952.1	5	distribution	OK	OK	OK
952.1	6	;	OK	OK	OK
952.1	7	that	OK	Fluency	OK
952.1	8	the	OK	OK	BAD
952.1	9	condoms	OK	OK	OK
952.1	10	are	OK	OK	OK
952.1	11	not	OK	OK	OK
952.1	12	only	OK	OK	OK
952.1	13	after	OK	OK	OK
952.1	14	the	OK	OK	OK
952.1	15	counters	OK	OK	OK
952.1	16	and	OK	OK	OK
952.1	17	those	OK	Fluency	BAD
952.1	18	hundred	OK	OK	OK
952.1	19	are	Word_order	OK	OK
952.1	20	public	Word_order	Fluency	OK
952.1	21	in	OK	OK	OK
952.1	22	despachadores	OK	OK	OK
952.1	23	of	OK	OK	OK
952.1	24	baths	Word_order	Fluency	OK
952.1	25	of	OK	OK	OK
952.1	26	the	OK	OK	OK
952.1	27	places	OK	OK	OK
952.1	28	that	OK	OK	OK
952.1	29	the	OK	OK	OK
952.1	30	youngsters	OK	OK	BAD
952.1	31	frequent	OK	OK	OK
952.1	32	.	OK	OK	OK
979.1	0	Moreover	OK	OK	OK
979.1	1	,	OK	OK	OK
979.1	2	it	OK	OK	OK
979.1	3	is	OK	OK	OK
979.1	4	pointed	OK	OK	OK
979.1	5	out	OK	OK	OK
979.1	6	that	OK	Fluency	BAD
979.1	7	the	OK	OK	OK
979.1	8	country	Word_order	OK	BAD
979.1	9	surrendered	OK	OK	OK
979.1	10	to	OK	OK	OK
979.1	11	the	OK	OK	OK
979.1	12	principles	OK	OK	OK
979.1	13	of	OK	OK	OK
979.1	14	the	OK	OK	OK
979.1	15	United	OK	OK	OK
979.1	16	Nations	OK	OK	OK
979.1	17	Commission	Mistranslation	OK	OK
979.1	18	on	Terminology	OK	OK
979.1	19	International	OK	OK	OK
979.1	20	Trade	OK	OK	OK
979.1	21	,	OK	OK	OK
979.1	22	i.e.	OK	OK	OK
979.1	23	the	OK	OK	OK
979.1	24	rules	OK	OK	OK
979.1	25	set	OK	OK	OK
979.1	26	for	OK	OK	OK
979.1	27	cross-border	OK	OK	OK
979.1	28	insolvency	OK	Accuracy	BAD
979.1	29	cases	OK	OK	OK
979.1	30	,	OK	OK	OK
979.1	31	that	OK	OK	OK
979.1	32	guarantee	Mistranslation	OK	OK
979.1	33	fairness	OK	OK	OK
979.1	34	for	OK	OK	OK
979.1	35	debtors	OK	OK	OK
979.1	36	and	OK	Fluency	OK
979.1	37	creditors	OK	Fluency	OK
979.1	38	.	OK	OK	OK
984.1	0	According	OK	OK	OK
984.1	1	to	Word_order	OK	BAD
984.1	2	that	OK	Fluency	OK
984.1	3	,	OK	OK	BAD
984.1	4	the	OK	OK	OK
984.1	5	supervisor	OK	OK	OK
984.1	6	authority	OK	OK	BAD
984.1	7	has	OK	OK	OK
984.1	8	refused	OK	Fluency	OK
984.1	9	systematically	OK	OK	BAD
984.1	10	to	OK	OK	OK
984.1	11	giving	OK	OK	OK
984.1	12	reports	OK	OK	OK
984.1	13	to	OK	OK	OK
984.1	14	the	OK	OK	OK
984.1	15	General	OK	OK	OK
984.1	16	Attorneyship	OK	OK	OK
984.1	17	of	OK	OK	OK
984.1	18	the	OK	OK	OK
984.1	19	Republic	OK	OK	OK
984.1	20	on	OK	OK	OK
984.1	21	an	OK	Fluency	BAD
984.1	22	operation	Function_words	Fluency	OK
984.1	23	carried	OK	OK	BAD
984.1	24	out	OK	OK	OK
984.1	25	by	OK	OK	OK
984.1	26	the	Addition	OK	OK
984.1	27	businessman	OK	OK	OK
984.1	28	to	Word_order	OK	BAD
984.1	29	extract	Mistranslation	OK	OK
984.1	30	F	OK	OK	OK
984.1	31	/	OK	OK	OK
984.1	32	589	OK	OK	OK
984.1	33	of	OK	OK	BAD
984.1	34	the	Word_order	OK	OK
984.1	35	Bank	OK	OK	OK
984.1	36	IXE	OK	OK	OK
984.1	37	from	OK	OK	OK
984.1	38	the	OK	OK	OK
984.1	39	trust	Terminology	OK	OK
984.1	40	,	OK	OK	OK
984.1	41	to	OK	OK	OK
984.1	42	name	OK	OK	OK
984.1	43	of	OK	OK	BAD
984.1	44	Mexicana	Terminology	Accuracy	OK
984.1	45	of	OK	OK	OK
984.1	46	Aviation	OK	Fluency	OK
984.1	47	198	OK	OK	OK
984.1	48	million	OK	OK	OK
984.1	49	weights	OK	OK	OK
984.1	50	.	OK	OK	OK
985.1	0	The	OK	OK	OK
985.1	1	resources	OK	OK	OK
985.1	2	would	OK	OK	OK
985.1	3	have	Word_order	OK	OK
985.1	4	been	OK	OK	OK
985.1	5	canalized	OK	OK	OK
985.1	6	to	OK	OK	OK
985.1	7	the	OK	OK	BAD
985.1	8	purchase	OK	OK	OK
985.1	9	of	OK	OK	OK
985.1	10	actions	OK	OK	OK
985.1	11	of	OK	OK	OK
985.1	12	the	OK	OK	OK
985.1	13	Professional	OK	OK	BAD
985.1	14	Administrator	OK	OK	OK
985.1	15	of	OK	OK	OK
985.1	16	Hotels	OK	OK	OK
985.1	17	.	OK	OK	OK
993.1	0	As	OK	OK	OK
993.1	1	you	OK	OK	OK
993.1	2	know	OK	OK	OK
993.1	3	,	OK	OK	OK
993.1	4	the	OK	OK	OK
993.1	5	action	OK	Accuracy	BAD
993.1	6	came	OK	OK	OK
993.1	7	despite	OK	OK	OK
993.1	8	the	OK	OK	OK
993.1	9	fact	Tense/aspect/mood	Fluency	OK
993.1	10	that	OK	Fluency	OK
993.1	11	the	OK	OK	OK
993.1	12	Senate	OK	OK	OK
993.1	13	had	OK	OK	OK
993.1	14	disqualified	OK	OK	OK
993.1	15	the	OK	OK	OK
993.1	16	possibility	OK	OK	OK
993.1	17	to	OK	OK	OK
993.1	18	construe	OK	Fluency	OK
993.1	19	as	OK	OK	OK
993.1	20	freedom	Word_order	Fluency	BAD
993.1	21	of	OK	OK	OK
993.1	22	expression	OK	OK	OK
993.1	23	in	OK	OK	OK
993.1	24	social	OK	OK	OK
993.1	25	networks	OK	OK	OK
993.1	26	.	Word_order	OK	OK
1004.1	0	I	OK	OK	OK
1004.1	1	"	OK	OK	OK
1004.1	2	put	OK	OK	BAD
1004.1	3	on	OK	OK	OK
1004.1	4	many	OK	OK	OK
1004.1	5	hats	OK	OK	OK
1004.1	6	in	OK	OK	OK
1004.1	7	the	OK	OK	OK
1004.1	8	basketball	Function_words	Accuracy	BAD
1004.1	9	through	OK	OK	BAD
1004.1	10	my	OK	OK	OK
1004.1	11	life	OK	OK	OK
1004.1	12	,	OK	OK	OK
1004.1	13	including	OK	OK	OK
1004.1	14	several	OK	OK	OK
1004.1	15	to	OK	OK	OK
1004.1	16	the	OK	OK	OK
1004.1	17	same	OK	OK	OK
1004.1	18	time	OK	OK	OK
1004.1	19	,	OK	OK	OK
1004.1	20	as	OK	OK	OK
1004.1	21	when	OK	OK	OK
1004.1	22	it	OK	OK	OK
1004.1	23	was	OK	OK	OK
1004.1	24	president	OK	OK	OK
1004.1	25	of	OK	Fluency	OK
1004.1	26	the	OK	OK	OK
1004.1	27	BSN	OK	OK	OK
1004.1	28	,	OK	OK	OK
1004.1	29	general	OK	OK	OK
1004.1	30	manager	OK	OK	OK
1004.1	31	of	OK	OK	OK
1004.1	32	the	OK	OK	BAD
1004.1	33	National	Style/register	OK	BAD
1004.1	34	Team	OK	OK	OK
1004.1	35	and	OK	OK	OK
1004.1	36	federative	OK	OK	OK
1004.1	37	president	OK	OK	OK
1004.1	38	during	OK	OK	OK
1004.1	39	the	OK	OK	OK
1004.1	40	years	OK	OK	OK
1004.1	41	90	OK	OK	OK
1004.1	42	,	OK	OK	OK
1004.1	43	"	OK	OK	OK
1004.1	44	it	OK	OK	BAD
1004.1	45	reminded	OK	OK	OK
1004.1	46	its	OK	OK	BAD
1004.1	47	home	OK	OK	OK
1004.1	48	of	OK	Fluency	OK
1004.1	49	Kings	OK	Accuracy	OK
1004.1	50	during	Style/register	OK	OK
1004.1	51	a	OK	OK	OK
1004.1	52	visit	OK	OK	OK
1004.1	53	of	OK	OK	OK
1004.1	54	Primera	Style/register	OK	OK
1004.1	55	Hora	OK	OK	OK
1004.1	56	in	OK	OK	OK
1004.1	57	Bayamón	OK	OK	OK
1004.1	58	,	OK	OK	OK
1004.1	59	where	OK	OK	BAD
1004.1	60	lives	OK	OK	OK
1004.1	61	with	OK	OK	OK
1004.1	62	Isabel	OK	OK	BAD
1004.1	63	,	OK	OK	OK
1004.1	64	its	OK	OK	OK
1004.1	65	faithful	OK	OK	OK
1004.1	66	wife	OK	OK	OK
1004.1	67	for	Word_order	OK	OK
1004.1	68	more	OK	Fluency	OK
1004.1	69	than	OK	OK	OK
1004.1	70	50	OK	OK	OK
1004.1	71	years	OK	OK	OK
1004.1	72	.	OK	OK	OK
1005.1	0	"	OK	OK	OK
1005.1	1	The	OK	OK	BAD
1005.1	2	basketball	OK	OK	OK
1005.1	3	has	OK	OK	OK
1005.1	4	been	OK	OK	OK
1005.1	5	my	OK	OK	OK
1005.1	6	life	OK	OK	OK
1005.1	7	"	OK	OK	OK
1005.1	8	.	OK	OK	OK
1006.1	0	Reyes	OK	OK	OK
1006.1	1	does	OK	OK	OK
1006.1	2	not	OK	OK	OK
1006.1	3	exaggerate	OK	OK	OK
1006.1	4	when	OK	OK	BAD
1006.1	5	doing	OK	OK	OK
1006.1	6	that	OK	OK	BAD
1006.1	7	assertion	OK	OK	OK
1006.1	8	.	OK	OK	OK
1017.1	0	I	OK	OK	OK
1017.1	1	remember	OK	OK	OK
1017.1	2	that	OK	OK	OK
1017.1	3	he	Mistranslation	Fluency	OK
1017.1	4	said	OK	OK	OK
1017.1	5	that	OK	OK	OK
1017.1	6	if	OK	OK	BAD
1017.1	7	Mincy	OK	OK	OK
1017.1	8	had	OK	OK	OK
1017.1	9	given	OK	OK	OK
1017.1	10	him	OK	OK	OK
1017.1	11	a	OK	OK	BAD
1017.1	12	championship	OK	OK	OK
1017.1	13	in	OK	OK	OK
1017.1	14	Bayamon	OK	OK	OK
1017.1	15	,	OK	OK	OK
1017.1	16	Gausse	OK	OK	OK
1017.1	17	would	OK	OK	OK
1017.1	18	help	OK	OK	OK
1017.1	19	bring	OK	OK	OK
1017.1	20	another	OK	OK	OK
1017.1	21	more	Addition	OK	OK
1017.1	22	.	Mistranslation	OK	OK
1024.1	0	But	OK	OK	OK
1024.1	1	my	OK	OK	OK
1024.1	2	favourite	OK	OK	OK
1024.1	3	was	OK	OK	OK
1024.1	4	the	OK	OK	OK
1024.1	5	of	OK	OK	OK
1024.1	6	the	OK	OK	OK
1024.1	7	Pan-American	OK	OK	OK
1024.1	8	in	OK	OK	OK
1024.1	9	Cuba	OK	OK	OK
1024.1	10	in	OK	OK	OK
1024.1	11	1991	OK	Accuracy	OK
1024.1	12	,	OK	OK	OK
1024.1	13	when	OK	OK	OK
1024.1	14	we	OK	OK	OK
1024.1	15	gain	OK	OK	OK
1024.1	16	gold	Terminology	OK	OK
1024.1	17	and	OK	OK	OK
1024.1	18	we	OK	OK	OK
1024.1	19	gave	OK	OK	BAD
1024.1	20	it	OK	OK	OK
1024.1	21	one	OK	OK	OK
1024.1	22	peels	OK	OK	OK
1024.1	23	the	OK	OK	OK
1024.1	24	team	OK	OK	BAD
1024.1	25	of	OK	OK	OK
1024.1	26	the	OK	OK	OK
1024.1	27	United	OK	OK	OK
1024.1	28	States	OK	OK	OK
1024.1	29	,	OK	OK	OK
1024.1	30	which	OK	OK	OK
1024.1	31	the	OK	OK	BAD
1024.1	32	bronze	Word_order	OK	OK
1024.1	33	was	OK	OK	OK
1024.1	34	quite	Style/register	OK	OK
1024.1	35	similar	OK	OK	OK
1024.1	36	to	OK	OK	OK
1024.1	37	the	OK	OK	OK
1024.1	38	one	Word_order	OK	OK
1024.1	39	that	OK	OK	OK
1024.1	40	gained	OK	OK	OK
1024.1	41	us	OK	OK	OK
1024.1	42	in	OK	OK	OK
1024.1	43	the	OK	OK	OK
1024.1	44	world	OK	OK	OK
1024.1	45	championship	OK	OK	OK
1024.1	46	.	OK	OK	OK
1036.1	0	Of	OK	OK	OK
1036.1	1	the	OK	OK	OK
1036.1	2	youngsters	OK	OK	OK
1036.1	3	,	OK	OK	OK
1036.1	4	I	OK	OK	OK
1036.1	5	like	Function_words	OK	OK
1036.1	6	the	OK	OK	OK
1036.1	7	work	OK	OK	BAD
1036.1	8	of	OK	OK	OK
1036.1	9	Leo	OK	OK	OK
1036.1	10	Arill	OK	OK	OK
1036.1	11	a	OK	OK	OK
1036.1	12	lot	OK	Fluency	OK
1036.1	13	.	OK	OK	OK
