QENN	1	3	0
QENN	2	2	0
QENN	3	2	0
QENN	4	2	0
QENN	5	3	0
QENN	6	3	0
QENN	7	1	0
QENN	8	3	0
QENN	9	2	0
QENN	10	2	0
QENN	11	1	0
QENN	12	3	0
QENN	13	3	0
QENN	14	3	0
QENN	15	3	0
QENN	16	3	0
QENN	17	2	0
QENN	18	1	0
QENN	19	3	0
QENN	20	2	0
QENN	21	2	0
QENN	22	1	0
QENN	23	2	0
QENN	24	1	0
QENN	25	2	0
QENN	26	1	0
QENN	27	3	0
QENN	28	3	0
QENN	29	2	0
QENN	30	2	0
QENN	31	3	0
QENN	32	3	0
QENN	33	2	0
QENN	34	2	0
QENN	35	2	0
QENN	36	2	0
QENN	37	2	0
QENN	38	2	0
QENN	39	2	0
QENN	40	2	0
QENN	41	3	0
QENN	42	1	0
QENN	43	2	0
QENN	44	2	0
QENN	45	3	0
QENN	46	3	0
QENN	47	1	0
QENN	48	3	0
QENN	49	2	0
QENN	50	1	0
QENN	51	2	0
QENN	52	2	0
QENN	53	3	0
QENN	54	3	0
QENN	55	2	0
QENN	56	3	0
QENN	57	2	0
QENN	58	3	0
QENN	59	3	0
QENN	60	1	0
QENN	61	1	0
QENN	62	2	0
QENN	63	3	0
QENN	64	3	0
QENN	65	2	0
QENN	66	3	0
QENN	67	3	0
QENN	68	2	0
QENN	69	2	0
QENN	70	3	0
QENN	71	3	0
QENN	72	3	0
QENN	73	2	0
QENN	74	2	0
QENN	75	3	0
QENN	76	3	0
QENN	77	3	0
QENN	78	2	0
QENN	79	2	0
QENN	80	2	0
QENN	81	3	0
QENN	82	2	0
QENN	83	2	0
QENN	84	2	0
QENN	85	2	0
QENN	86	2	0
QENN	87	3	0
QENN	88	3	0
QENN	89	2	0
QENN	90	2	0
QENN	91	1	0
QENN	92	3	0
QENN	93	3	0
QENN	94	2	0
QENN	95	2	0
QENN	96	2	0
QENN	97	2	0
QENN	98	3	0
QENN	99	2	0
QENN	100	3	0
QENN	101	3	0
QENN	102	2	0
QENN	103	3	0
QENN	104	3	0
QENN	105	2	0
QENN	106	3	0
QENN	107	3	0
QENN	108	2	0
QENN	109	3	0
QENN	110	2	0
QENN	111	2	0
QENN	112	3	0
QENN	113	3	0
QENN	114	2	0
QENN	115	3	0
QENN	116	3	0
QENN	117	2	0
QENN	118	2	0
QENN	119	1	0
QENN	120	3	0
QENN	121	3	0
QENN	122	3	0
QENN	123	2	0
QENN	124	2	0
QENN	125	1	0
QENN	126	1	0
QENN	127	2	0
QENN	128	3	0
QENN	129	1	0
QENN	130	2	0
QENN	131	3	0
QENN	132	2	0
QENN	133	2	0
QENN	134	3	0
QENN	135	3	0
QENN	136	2	0
QENN	137	2	0
QENN	138	3	0
QENN	139	2	0
QENN	140	3	0
QENN	141	3	0
QENN	142	1	0
QENN	143	2	0
QENN	144	2	0
QENN	145	3	0
QENN	146	3	0
QENN	147	3	0
QENN	148	3	0
QENN	149	2	0
QENN	150	2	0
QENN	151	3	0
QENN	152	1	0
QENN	153	3	0
QENN	154	3	0
QENN	155	1	0
QENN	156	3	0
QENN	157	1	0
QENN	158	3	0
QENN	159	2	0
QENN	160	2	0
QENN	161	1	0
QENN	162	3	0
QENN	163	2	0
QENN	164	3	0
QENN	165	3	0
QENN	166	2	0
QENN	167	3	0
QENN	168	1	0
QENN	169	3	0
QENN	170	2	0
QENN	171	2	0
QENN	172	2	0
QENN	173	2	0
QENN	174	1	0
QENN	175	2	0
QENN	176	2	0
QENN	177	2	0
QENN	178	3	0
QENN	179	1	0
QENN	180	2	0
QENN	181	2	0
QENN	182	3	0
QENN	183	3	0
QENN	184	3	0
QENN	185	1	0
QENN	186	2	0
QENN	187	2	0
QENN	188	2	0
QENN	189	2	0
QENN	190	2	0
QENN	191	2	0
QENN	192	1	0
QENN	193	2	0
QENN	194	3	0
QENN	195	3	0
QENN	196	3	0
QENN	197	2	0
QENN	198	2	0
QENN	199	2	0
QENN	200	2	0
QENN	201	3	0
QENN	202	3	0
QENN	203	3	0
QENN	204	2	0
QENN	205	3	0
QENN	206	3	0
QENN	207	3	0
QENN	208	3	0
QENN	209	3	0
QENN	210	2	0
QENN	211	3	0
QENN	212	2	0
QENN	213	3	0
QENN	214	1	0
QENN	215	2	0
QENN	216	2	0
QENN	217	2	0
QENN	218	3	0
QENN	219	2	0
QENN	220	1	0
QENN	221	2	0
QENN	222	2	0
QENN	223	3	0
QENN	224	2	0
QENN	225	2	0
QENN	226	2	0
QENN	227	2	0
QENN	228	2	0
QENN	229	2	0
QENN	230	2	0
QENN	231	2	0
QENN	232	2	0
QENN	233	2	0
QENN	234	3	0
QENN	235	2	0
QENN	236	3	0
QENN	237	3	0
QENN	238	3	0
QENN	239	2	0
QENN	240	2	0
QENN	241	3	0
QENN	242	3	0
QENN	243	3	0
QENN	244	2	0
QENN	245	2	0
QENN	246	2	0
QENN	247	3	0
QENN	248	3	0
QENN	249	2	0
QENN	250	2	0
QENN	251	3	0
QENN	252	3	0
QENN	253	2	0
QENN	254	3	0
QENN	255	3	0
QENN	256	3	0
QENN	257	3	0
QENN	258	2	0
QENN	259	3	0
QENN	260	2	0
QENN	261	2	0
QENN	262	2	0
QENN	263	2	0
QENN	264	2	0
QENN	265	3	0
QENN	266	3	0
QENN	267	2	0
QENN	268	2	0
QENN	269	1	0
QENN	270	1	0
QENN	271	3	0
QENN	272	3	0
QENN	273	2	0
QENN	274	3	0
QENN	275	1	0
QENN	276	2	0
QENN	277	2	0
QENN	278	2	0
QENN	279	2	0
QENN	280	3	0
QENN	281	2	0
QENN	282	3	0
QENN	283	3	0
QENN	284	3	0
QENN	285	2	0
QENN	286	2	0
QENN	287	2	0
QENN	288	3	0
QENN	289	2	0
QENN	290	3	0
QENN	291	2	0
QENN	292	1	0
QENN	293	3	0
QENN	294	2	0
QENN	295	3	0
QENN	296	2	0
QENN	297	2	0
QENN	298	2	0
QENN	299	2	0
QENN	300	3	0
QENN	301	3	0
QENN	302	2	0
QENN	303	3	0
QENN	304	2	0
QENN	305	3	0
QENN	306	1	0
QENN	307	1	0
QENN	308	3	0
QENN	309	3	0
QENN	310	2	0
QENN	311	1	0
QENN	312	3	0
QENN	313	1	0
QENN	314	3	0
QENN	315	3	0
QENN	316	2	0
QENN	317	2	0
QENN	318	2	0
QENN	319	3	0
QENN	320	2	0
QENN	321	3	0
QENN	322	2	0
QENN	323	2	0
QENN	324	1	0
QENN	325	2	0
QENN	326	2	0
QENN	327	3	0
QENN	328	2	0
QENN	329	2	0
QENN	330	2	0
QENN	331	2	0
QENN	332	3	0
QENN	333	3	0
QENN	334	2	0
QENN	335	2	0
QENN	336	2	0
QENN	337	1	0
QENN	338	2	0
QENN	339	2	0
QENN	340	2	0
QENN	341	2	0
QENN	342	1	0
QENN	343	2	0
QENN	344	3	0
QENN	345	1	0
QENN	346	3	0
QENN	347	2	0
QENN	348	2	0
QENN	349	2	0
QENN	350	1	0
QENN	351	3	0
QENN	352	2	0
QENN	353	3	0
QENN	354	2	0
QENN	355	3	0
QENN	356	3	0
QENN	357	2	0
QENN	358	3	0
QENN	359	3	0
QENN	360	2	0
QENN	361	3	0
QENN	362	2	0
QENN	363	3	0
QENN	364	2	0
QENN	365	2	0
QENN	366	3	0
QENN	367	3	0
QENN	368	3	0
QENN	369	2	0
QENN	370	2	0
QENN	371	3	0
QENN	372	1	0
QENN	373	3	0
QENN	374	2	0
QENN	375	2	0
QENN	376	3	0
QENN	377	2	0
QENN	378	2	0
QENN	379	2	0
QENN	380	1	0
QENN	381	2	0
QENN	382	2	0
QENN	383	2	0
QENN	384	1	0
QENN	385	2	0
QENN	386	1	0
QENN	387	3	0
QENN	388	3	0
QENN	389	2	0
QENN	390	2	0
QENN	391	2	0
QENN	392	3	0
QENN	393	3	0
QENN	394	2	0
QENN	395	2	0
QENN	396	2	0
QENN	397	3	0
QENN	398	3	0
QENN	399	2	0
QENN	400	3	0
QENN	401	2	0
QENN	402	3	0
QENN	403	3	0
QENN	404	1	0
QENN	405	2	0
QENN	406	1	0
QENN	407	3	0
QENN	408	2	0
QENN	409	1	0
QENN	410	2	0
QENN	411	3	0
QENN	412	2	0
QENN	413	2	0
QENN	414	2	0
QENN	415	1	0
QENN	416	3	0
QENN	417	3	0
QENN	418	2	0
QENN	419	1	0
QENN	420	2	0
QENN	421	3	0
QENN	422	3	0
QENN	423	2	0
QENN	424	2	0
QENN	425	2	0
QENN	426	1	0
QENN	427	1	0
QENN	428	2	0
QENN	429	1	0
QENN	430	3	0
QENN	431	2	0
QENN	432	3	0
QENN	433	2	0
QENN	434	2	0
QENN	435	3	0
QENN	436	2	0
QENN	437	2	0
QENN	438	3	0
QENN	439	2	0
QENN	440	3	0
QENN	441	2	0
QENN	442	3	0
QENN	443	1	0
QENN	444	2	0
QENN	445	2	0
QENN	446	2	0
QENN	447	2	0
QENN	448	3	0
QENN	449	2	0
QENN	450	2	0
