0	0	"	OK	OK	OK
0	1	instead	OK	OK	OK
0	2	of	OK	OK	OK
0	3	strengthening	OK	OK	OK
0	4	the	OK	OK	OK
0	5	civil	OK	OK	OK
0	6	society	OK	OK	OK
0	7	,	OK	OK	OK
0	8	the	OK	OK	OK
0	9	president	OK	OK	OK
0	10	cancels	OK	OK	OK
0	11	them	OK	Fluency	OK
0	12	de	Word_order	Fluency	OK
0	13	facto	OK	Fluency	OK
0	14	"	OK	OK	OK
0	15	,	OK	OK	OK
0	16	deplores	OK	OK	OK
0	17	saeda	OK	OK	OK
0	18	.	OK	OK	BAD
3	0	the	OK	OK	OK
3	1	word	OK	OK	OK
3	2	orientates	OK	OK	OK
3	3	itself	OK	Fluency	BAD
3	4	by	Mistranslation	OK	BAD
3	5	"	OK	OK	OK
3	6	bang	Tense/aspect/mood	OK	OK
3	7	dakuan	OK	OK	BAD
3	8	"	OK	OK	OK
3	9	.	OK	OK	BAD
4	0	this	OK	OK	OK
4	1	is	OK	OK	OK
4	2	cheap	OK	OK	OK
4	3	and	OK	OK	BAD
4	4	time-efficient	OK	OK	OK
4	5	.	OK	OK	OK
7	0	at	OK	OK	OK
7	1	the	OK	OK	OK
7	2	end	OK	OK	OK
7	3	of	OK	OK	OK
7	4	the	OK	Accuracy	OK
7	5	500-meter-long	Terminology	Accuracy	OK
7	6	journey	OK	OK	OK
7	7	,	OK	OK	OK
7	8	you	OK	OK	OK
7	9	are	OK	OK	OK
7	10	rewarded	OK	OK	BAD
7	11	in	OK	OK	OK
7	12	the	OK	OK	OK
7	13	literature	OK	OK	OK
7	14	café	OK	OK	OK
7	15	,	OK	OK	OK
7	16	not	OK	OK	BAD
7	17	only	OK	OK	OK
7	18	with	OK	OK	OK
7	19	a	OK	OK	OK
7	20	fantastic	OK	OK	OK
7	21	view	OK	OK	BAD
7	22	of	OK	OK	OK
7	23	the	OK	OK	OK
7	24	city	OK	OK	OK
7	25	,	OK	OK	BAD
7	26	but	OK	Fluency	OK
7	27	also	OK	OK	OK
7	28	with	OK	OK	OK
7	29	dutch	OK	OK	OK
7	30	croquettes	OK	OK	OK
7	31	and	OK	OK	OK
7	32	potted	OK	OK	OK
7	33	ficus	OK	OK	OK
7	34	trees	OK	OK	OK
7	35	.	OK	OK	OK
13	0	for	OK	OK	OK
13	1	example	OK	OK	OK
13	2	,	OK	OK	OK
13	3	if	OK	OK	OK
13	4	we	OK	OK	OK
13	5	look	OK	Fluency	OK
13	6	at	OK	OK	OK
13	7	the	OK	OK	OK
13	8	euro	OK	OK	OK
13	9	crisis	OK	OK	OK
13	10	,	OK	OK	OK
13	11	there	OK	OK	OK
13	12	is	OK	Fluency	OK
13	13	every	OK	OK	OK
13	14	time	OK	OK	BAD
13	15	germany	OK	Fluency	BAD
13	16	assumes	OK	OK	BAD
13	17	a	OK	OK	OK
13	18	greater	OK	OK	OK
13	19	role	OK	OK	OK
13	20	,	OK	OK	BAD
13	21	a	OK	OK	BAD
13	22	variety	OK	Fluency	BAD
13	23	of	OK	OK	BAD
13	24	anti-german	OK	OK	OK
13	25	sentiment	OK	OK	OK
13	26	.	OK	OK	OK
18	0	our	OK	OK	OK
18	1	insights	OK	OK	OK
18	2	in	OK	OK	OK
18	3	all	OK	OK	OK
18	4	:	OK	OK	OK
18	5	the	OK	OK	OK
18	6	most	Terminology	OK	OK
18	7	important	OK	OK	OK
18	8	telescopes	OK	OK	OK
29	0	imbongi	OK	OK	OK
29	1	means	OK	OK	OK
29	2	on	OK	OK	OK
29	3	zulu	OK	OK	OK
29	4	storyteller	Terminology	OK	OK
29	5	or	OK	OK	OK
29	6	lobpreiser	Capitalization	OK	OK
29	7	.	OK	OK	OK
37	0	"	OK	OK	OK
37	1	the	OK	OK	OK
37	2	koran	OK	OK	OK
37	3	is	OK	OK	OK
37	4	our	OK	OK	OK
37	5	constitution	OK	OK	OK
37	6	.	OK	OK	OK
37	7	"	OK	OK	OK
43	0	but	OK	OK	OK
43	1	what	OK	OK	OK
43	2	of	OK	OK	OK
43	3	the	OK	OK	OK
43	4	61-year-old	Terminology	Accuracy	OK
43	5	engineer	OK	OK	OK
43	6	,	OK	OK	OK
43	7	who	OK	OK	OK
43	8	has	OK	OK	OK
43	9	a	OK	OK	OK
43	10	doctorate	OK	OK	OK
43	11	from	OK	OK	OK
43	12	the	OK	OK	OK
43	13	american	OK	OK	OK
43	14	university	OK	OK	BAD
43	15	of	OK	OK	BAD
43	16	southern	OK	OK	OK
43	17	california	OK	OK	OK
43	18	,	OK	OK	OK
43	19	really	OK	OK	OK
43	20	wants	OK	OK	OK
43	21	to	OK	OK	OK
43	22	save	OK	OK	OK
43	23	,	OK	OK	OK
43	24	as	OK	OK	OK
43	25	are	OK	OK	OK
43	26	the	OK	OK	OK
43	27	egyptians	OK	OK	OK
43	28	,	OK	Fluency	BAD
43	29	the	OK	OK	OK
43	30	world	OK	OK	OK
43	31	is	OK	OK	BAD
43	32	not	OK	OK	OK
43	33	entirely	OK	OK	BAD
43	34	clear	OK	OK	OK
43	35	.	OK	OK	BAD
44	0	for	OK	OK	OK
44	1	all	OK	OK	OK
44	2	of	OK	OK	OK
44	3	them	OK	OK	OK
44	4	,	OK	OK	OK
44	5	until	OK	OK	OK
44	6	now	OK	OK	BAD
44	7	hopelessly	OK	OK	OK
44	8	estranged	OK	OK	OK
44	9	in	OK	OK	OK
44	10	a	OK	OK	OK
44	11	bewildered	OK	OK	OK
44	12	opposition	Tense/aspect/mood	OK	BAD
44	13	,	OK	OK	OK
44	14	are	OK	OK	BAD
44	15	fearful	OK	OK	OK
44	16	.	OK	OK	OK
46	0	the	OK	OK	OK
46	1	fabulous	OK	OK	OK
46	2	wealth	OK	OK	OK
46	3	the	OK	Fluency	OK
46	4	country	Capitalization	Fluency	OK
46	5	owes	OK	OK	OK
46	6	its	OK	OK	BAD
46	7	oil	OK	OK	OK
46	8	in	OK	OK	OK
46	9	the	OK	OK	OK
46	10	caspian	OK	OK	OK
46	11	sea	OK	OK	OK
46	12	,	OK	OK	OK
46	13	has	OK	OK	OK
46	14	not	OK	OK	OK
46	15	yet	OK	OK	BAD
46	16	arrived	OK	OK	OK
46	17	in	OK	OK	OK
46	18	the	OK	OK	OK
46	19	province	OK	OK	OK
46	20	.	OK	OK	BAD
50	0	in	OK	OK	OK
50	1	the	OK	OK	OK
50	2	next	OK	OK	OK
50	3	two	OK	Accuracy	OK
50	4	instances	OK	OK	OK
50	5	,	OK	OK	OK
50	6	freudenberg	OK	OK	OK
50	7	was	OK	OK	OK
50	8	proven	OK	OK	OK
50	9	right	OK	OK	OK
50	10	,	OK	OK	BAD
50	11	however	OK	OK	BAD
50	12	the	OK	OK	OK
50	13	opposing	OK	Accuracy	OK
50	14	party	OK	Fluency	BAD
50	15	continues	OK	OK	OK
50	16	to	OK	OK	OK
50	17	contest	OK	OK	BAD
50	18	the	OK	OK	OK
50	19	matter	OK	OK	OK
50	20	to	OK	OK	OK
50	21	this	OK	OK	OK
50	22	day	OK	OK	OK
50	23	.	OK	OK	OK
54	0	the	OK	OK	OK
54	1	robert-koch	OK	OK	OK
54	2	institute	OK	OK	OK
54	3	estimates	OK	OK	OK
54	4	that	OK	OK	OK
54	5	at	OK	OK	OK
54	6	least	OK	Fluency	OK
54	7	four	OK	OK	OK
54	8	out	OK	OK	BAD
54	9	of	OK	OK	OK
54	10	five	OK	OK	OK
54	11	of	OK	OK	OK
54	12	all	OK	Accuracy	OK
54	13	syphilis	Mistranslation	OK	OK
54	14	cases	OK	OK	OK
54	15	reported	OK	Accuracy	BAD
54	16	in	OK	OK	OK
54	17	germany	OK	Accuracy	OK
54	18	through	OK	OK	OK
54	19	sexual	OK	Accuracy	OK
54	20	contact	OK	OK	OK
54	21	between	OK	OK	OK
54	22	men	OK	OK	OK
54	23	.	OK	OK	OK
59	0	however	OK	OK	OK
59	1	,	OK	OK	OK
59	2	there	OK	OK	OK
59	3	is	OK	OK	BAD
59	4	not	OK	OK	OK
59	5	a	OK	OK	OK
59	6	birth	OK	OK	OK
59	7	certificate	OK	OK	OK
59	8	.	OK	OK	OK
62	0	here	OK	OK	OK
62	1	,	OK	OK	OK
62	2	humane	OK	OK	OK
62	3	pappilomaviren	OK	OK	OK
62	4	also	OK	Fluency	BAD
62	5	occur	Word_order	OK	OK
62	6	among	Mistranslation	OK	BAD
62	7	young	OK	OK	OK
62	8	people	OK	OK	OK
62	9	.	OK	OK	OK
64	0	"	OK	OK	OK
64	1	the	OK	OK	OK
64	2	revolution	OK	OK	OK
64	3	has	OK	OK	BAD
64	4	returned	OK	OK	OK
64	5	.	OK	OK	OK
64	6	"	OK	OK	OK
73	0	aggravatingly	OK	OK	OK
73	1	comes	OK	OK	OK
73	2	that	OK	OK	OK
73	3	the	OK	OK	OK
73	4	europeans	OK	OK	OK
73	5	have	OK	OK	OK
73	6	no	OK	OK	BAD
73	7	coherent	OK	OK	OK
73	8	and	OK	OK	BAD
73	9	uniform	OK	OK	OK
73	10	politics	OK	OK	OK
73	11	.	OK	OK	OK
76	0	similarly	OK	OK	OK
76	1	,	OK	OK	OK
76	2	the	OK	OK	OK
76	3	phrase	OK	Fluency	OK
76	4	seems	OK	OK	OK
76	5	dubious	OK	OK	OK
76	6	,	OK	OK	OK
76	7	"	OK	OK	OK
76	8	insulting	OK	OK	BAD
76	9	people	OK	OK	BAD
76	10	is	OK	OK	BAD
76	11	prohibited	OK	OK	BAD
76	12	.	OK	OK	BAD
79	0	a	OK	OK	OK
79	1	bus	OK	OK	OK
79	2	full	OK	OK	OK
79	3	of	OK	OK	OK
79	4	white	OK	OK	OK
79	5	people	OK	OK	OK
79	6	,	OK	OK	OK
79	7	who	OK	OK	BAD
79	8	sing	OK	OK	OK
79	9	songs	OK	OK	OK
79	10	in	OK	OK	OK
79	11	a	OK	OK	OK
79	12	black	OK	OK	OK
79	13	language	OK	OK	OK
79	14	-	OK	OK	OK
79	15	this	Word_order	Fluency	OK
79	16	degree	Word_order	Fluency	OK
79	17	of	Word_order	OK	OK
79	18	recognition	Terminology	OK	OK
79	19	brings	OK	OK	OK
79	20	not	OK	OK	OK
79	21	only	OK	OK	OK
79	22	morale	OK	OK	OK
79	23	and	OK	OK	OK
79	24	joy	OK	OK	OK
79	25	,	OK	OK	OK
79	26	but	OK	Fluency	OK
79	27	some	OK	OK	OK
79	28	grim-faced	Word_order	Fluency	BAD
79	29	border	OK	Fluency	OK
79	30	soldiers	OK	Accuracy	OK
79	31	even	OK	OK	BAD
79	32	shed	OK	OK	OK
79	33	a	OK	OK	OK
79	34	few	OK	OK	OK
79	35	tears	OK	OK	OK
79	36	.	OK	OK	OK
83	0	these	OK	OK	OK
83	1	provide	OK	OK	OK
83	2	atmosphere	OK	OK	OK
83	3	,	OK	OK	OK
83	4	but	OK	OK	OK
83	5	most	OK	OK	OK
83	6	importantly	OK	OK	OK
83	7	,	OK	OK	OK
83	8	regulate	OK	Fluency	OK
83	9	the	OK	Fluency	OK
83	10	air	OK	OK	OK
83	11	humidity	OK	OK	BAD
83	12	in	OK	OK	OK
83	13	the	OK	OK	OK
83	14	literary	OK	OK	OK
83	15	mountain	OK	OK	OK
83	16	range	OK	OK	OK
83	17	.	OK	OK	OK
84	0	although	OK	OK	OK
84	1	the	OK	OK	OK
84	2	books	OK	OK	OK
84	3	mountain	OK	OK	OK
84	4	is	OK	OK	OK
84	5	under	OK	OK	OK
84	6	a	OK	OK	OK
84	7	glass	OK	OK	OK
84	8	of	OK	OK	BAD
84	9	fall	OK	OK	OK
84	10	,	OK	OK	BAD
84	11	the	OK	OK	OK
84	12	sun	OK	Fluency	OK
84	13	shines	OK	Accuracy	OK
84	14	even	Grammar	OK	BAD
84	15	on	Mistranslation	OK	OK
84	16	sunny	OK	OK	OK
84	17	days	OK	OK	OK
84	18	,	OK	OK	OK
84	19	briefly	OK	OK	OK
84	20	into	OK	OK	OK
84	21	the	OK	OK	OK
84	22	interior	OK	OK	OK
84	23	.	OK	OK	OK
89	0	"	OK	OK	OK
89	1	and	OK	OK	OK
89	2	now	OK	OK	OK
89	3	the	OK	Fluency	OK
89	4	word	OK	OK	OK
89	5	is	OK	OK	OK
89	6	not	OK	OK	BAD
89	7	even	OK	OK	BAD
89	8	human	OK	OK	OK
89	9	rights	OK	OK	OK
89	10	in	OK	OK	OK
89	11	the	OK	OK	OK
89	12	new	OK	OK	OK
89	13	constitution	OK	OK	OK
89	14	,	OK	OK	BAD
89	15	"	OK	OK	OK
89	16	he	OK	OK	OK
89	17	laments	OK	OK	OK
89	18	in	OK	OK	OK
89	19	conversation	OK	OK	OK
89	20	with	OK	OK	OK
89	21	the	OK	OK	OK
89	22	"	OK	Accuracy	OK
89	23	world	OK	OK	OK
89	24	on	OK	OK	BAD
89	25	sunday	OK	OK	OK
89	26	.	OK	OK	BAD
89	27	"	OK	OK	OK
91	0	nevertheless	OK	OK	OK
91	1	,	OK	OK	OK
91	2	he	OK	OK	OK
91	3	reaches	OK	OK	OK
91	4	a	OK	OK	OK
91	5	diameter	OK	OK	OK
91	6	from	Function_words	OK	OK
91	7	about	OK	OK	OK
91	8	eleven	OK	OK	OK
91	9	metres	OK	OK	OK
91	10	.	OK	OK	OK
93	0	in	OK	OK	OK
93	1	heidelberg	OK	OK	OK
93	2	the	OK	OK	OK
93	3	choir	OK	Accuracy	OK
93	4	rehearses	OK	OK	OK
93	5	imbongi	OK	OK	OK
93	6	-	OK	OK	OK
93	7	and	OK	OK	OK
93	8	in	OK	OK	OK
93	9	swaziland	OK	OK	OK
93	10	aids	OK	OK	OK
93	11	orphans	Tense/aspect/mood	OK	OK
93	12	are	OK	OK	OK
93	13	glad	OK	OK	OK
93	14	about	OK	OK	OK
93	15	it	OK	OK	OK
93	16	.	OK	OK	OK
94	0	everybody	OK	OK	OK
94	1	has	OK	OK	OK
94	2	internet	OK	OK	OK
94	3	,	OK	OK	BAD
94	4	ipad	OK	OK	OK
94	5	and	OK	OK	BAD
94	6	e-books	OK	OK	OK
94	7	.	OK	OK	OK
95	0	this	OK	OK	OK
95	1	plays	OK	OK	OK
95	2	anyway	OK	OK	OK
95	3	a	OK	OK	OK
95	4	role	OK	OK	OK
95	5	.	OK	OK	OK
96	0	the	OK	OK	OK
96	1	germans	OK	OK	OK
96	2	appear	OK	OK	OK
96	3	so	OK	OK	OK
96	4	between	OK	Accuracy	OK
96	5	the	OK	Accuracy	OK
96	6	fronts	Capitalization	OK	OK
96	7	.	OK	OK	BAD
101	0	these	OK	OK	OK
101	1	dishes	OK	OK	OK
101	2	served	OK	OK	OK
101	3	during	Word_order	OK	OK
101	4	mubarak	Word_order	Accuracy	OK
101	5	's	Tense/aspect/mood	OK	OK
101	6	rule	OK	OK	OK
101	7	on	OK	OK	OK
101	8	the	OK	OK	OK
101	9	repression	OK	OK	OK
101	10	of	OK	OK	OK
101	11	political	OK	OK	OK
101	12	opponents	OK	OK	OK
101	13	.	OK	OK	OK
104	0	a	OK	OK	OK
104	1	demonstrator	OK	OK	OK
104	2	on	OK	OK	OK
104	3	the	OK	Fluency	OK
104	4	tahrir	OK	OK	OK
104	5	warns	OK	OK	BAD
104	6	:	OK	Fluency	OK
104	7	"	OK	OK	OK
104	8	you	OK	OK	OK
104	9	gebährt	OK	OK	OK
104	10	a	OK	OK	OK
104	11	monster	OK	OK	OK
104	12	whom	OK	OK	OK
104	13	you	OK	Fluency	OK
104	14	cannot	OK	OK	BAD
104	15	control	OK	OK	BAD
104	16	any	OK	OK	BAD
104	17	more	Word_order	OK	BAD
104	18	.	OK	OK	OK
104	19	"	OK	OK	BAD
106	0	"	OK	OK	OK
106	1	the	OK	OK	OK
106	2	bookshelves	OK	OK	OK
106	3	stand	OK	OK	OK
106	4	ordinarily	OK	OK	OK
106	5	along	OK	OK	OK
106	6	the	OK	OK	OK
106	7	facade	OK	OK	OK
106	8	,	OK	OK	OK
106	9	and	OK	OK	OK
106	10	in	OK	OK	OK
106	11	the	OK	OK	OK
106	12	middle	OK	OK	OK
106	13	lies	OK	OK	OK
106	14	a	OK	OK	OK
106	15	big	OK	OK	OK
106	16	,	OK	OK	OK
106	17	dark	OK	OK	OK
106	18	space	OK	OK	OK
106	19	which	OK	OK	OK
106	20	is	OK	OK	BAD
106	21	mostly	OK	OK	OK
106	22	uncomfortable	OK	OK	OK
106	23	and	OK	OK	OK
106	24	impersonal	OK	OK	OK
106	25	"	OK	OK	OK
106	26	,	OK	OK	OK
106	27	says	OK	OK	OK
106	28	winy	OK	OK	OK
106	29	the	OK	OK	OK
106	30	meuse	OK	OK	OK
106	31	.	OK	OK	OK
108	0	unnoticed	OK	OK	OK
108	1	by	OK	OK	OK
108	2	the	OK	OK	OK
108	3	people	OK	OK	OK
108	4	of	OK	OK	OK
108	5	the	OK	OK	OK
108	6	earth	OK	OK	OK
108	7	probes	OK	OK	OK
108	8	,	OK	OK	OK
108	9	telescopes	OK	OK	OK
108	10	and	OK	OK	OK
108	11	small	OK	OK	OK
108	12	robots	OK	OK	OK
108	13	like	OK	OK	OK
108	14	phoenix	OK	OK	OK
108	15	is	OK	Fluency	BAD
108	16	to	OK	OK	BAD
108	17	explore	OK	OK	BAD
108	18	the	OK	OK	OK
108	19	depths	OK	OK	OK
108	20	of	OK	OK	BAD
108	21	the	OK	OK	OK
108	22	universe	OK	OK	OK
108	23	.	OK	OK	OK
112	0	the	OK	OK	OK
112	1	80,000-inhabitant	OK	OK	OK
112	2	municipality	OK	OK	OK
112	3	shows	OK	OK	OK
112	4	the	OK	OK	OK
112	5	lowest	OK	OK	OK
112	6	educational	OK	OK	OK
112	7	rate	OK	OK	OK
112	8	of	OK	OK	OK
112	9	the	OK	OK	OK
112	10	whole	OK	OK	OK
112	11	netherlands	OK	OK	OK
112	12	.	OK	OK	OK
113	0	the	OK	OK	OK
113	1	mini-bus	OK	OK	OK
113	2	rumbled	OK	OK	OK
113	3	through	OK	OK	OK
113	4	the	OK	OK	OK
113	5	winding	OK	OK	OK
113	6	road	OK	OK	OK
113	7	,	OK	OK	BAD
113	8	past	OK	OK	OK
113	9	densely	OK	OK	OK
113	10	wooded	OK	OK	OK
113	11	hills	OK	OK	OK
113	12	,	OK	OK	OK
113	13	rushing	OK	OK	OK
113	14	rivers	OK	OK	OK
113	15	and	OK	Fluency	OK
113	16	simple	OK	OK	OK
113	17	farmhouses	OK	OK	OK
113	18	.	OK	OK	OK
114	0	almost	OK	OK	OK
114	1	57,000	OK	OK	OK
114	2	such	OK	OK	OK
114	3	cased	Word_order	OK	BAD
114	4	were	OK	OK	OK
114	5	closed	OK	OK	OK
114	6	,	OK	OK	OK
114	7	75	OK	OK	OK
114	8	percent	OK	OK	OK
114	9	more	OK	OK	OK
114	10	than	OK	OK	OK
114	11	in	OK	OK	BAD
114	12	the	OK	OK	OK
114	13	previous	OK	OK	OK
114	14	year	OK	OK	OK
114	15	.	OK	OK	OK
117	0	so	OK	OK	OK
117	1	young	OK	OK	OK
117	2	and	OK	OK	OK
117	3	uneducated	OK	Fluency	OK
117	4	,	OK	OK	OK
117	5	they	Capitalization	OK	BAD
117	6	may	OK	OK	OK
117	7	be	OK	OK	OK
117	8	.	OK	OK	OK
130	0	"	OK	OK	OK
130	1	i	OK	OK	OK
130	2	think	OK	OK	OK
130	3	,	OK	OK	BAD
130	4	now	OK	OK	BAD
130	5	thanks	OK	OK	OK
130	6	to	OK	OK	OK
130	7	our	OK	Fluency	OK
130	8	invitation	OK	OK	OK
130	9	every	Word_order	OK	OK
130	10	inhabitant	OK	OK	BAD
130	11	has	OK	OK	BAD
130	12	a	OK	OK	OK
130	13	certain	OK	OK	OK
130	14	respect	OK	OK	OK
130	15	with	OK	OK	BAD
130	16	this	OK	OK	OK
130	17	new	OK	OK	OK
130	18	house	OK	OK	OK
130	19	.	OK	OK	OK
133	0	but	OK	OK	OK
133	1	i	OK	OK	OK
133	2	wonder	OK	OK	OK
133	3	what	OK	OK	OK
133	4	we	OK	OK	OK
133	5	still	OK	OK	OK
133	6	need	OK	OK	OK
133	7	a	OK	OK	OK
133	8	library	OK	OK	OK
133	9	.	OK	OK	BAD
141	0	the	OK	OK	OK
141	1	messenger	OK	OK	OK
141	2	probe	OK	OK	OK
141	3	has	OK	OK	OK
141	4	found	OK	OK	OK
141	5	evidence	OK	OK	OK
141	6	that	OK	OK	OK
141	7	there	OK	OK	BAD
141	8	is	OK	OK	OK
141	9	on	OK	OK	BAD
141	10	the	OK	OK	BAD
141	11	planet	OK	OK	OK
141	12	mercury	OK	OK	OK
141	13	ice	OK	OK	BAD
141	14	.	OK	OK	BAD
142	0	due	OK	OK	OK
142	1	to	OK	OK	OK
142	2	lacking	OK	OK	OK
142	3	documentation	OK	OK	OK
142	4	,	OK	OK	OK
142	5	however	OK	OK	OK
142	6	,	OK	OK	OK
142	7	there	OK	OK	OK
142	8	is	OK	Fluency	OK
142	9	no	OK	Fluency	OK
142	10	scientific	OK	Fluency	OK
142	11	proof	OK	OK	OK
142	12	of	OK	OK	BAD
142	13	age	OK	OK	BAD
142	14	,	OK	OK	OK
142	15	particularly	OK	OK	OK
142	16	as	OK	OK	BAD
142	17	there	OK	OK	OK
142	18	are	OK	OK	OK
142	19	no	OK	OK	OK
142	20	birth	OK	OK	OK
142	21	registers	OK	OK	OK
142	22	.	OK	OK	OK
144	0	the	OK	OK	OK
144	1	messenger	OK	OK	OK
144	2	probe	OK	OK	OK
144	3	has	OK	OK	OK
144	4	found	OK	OK	OK
144	5	evidence	OK	OK	OK
144	6	that	OK	OK	OK
144	7	there	OK	OK	OK
144	8	is	OK	OK	BAD
144	9	an	OK	OK	BAD
144	10	ice	OK	OK	OK
144	11	cover	OK	OK	OK
144	12	in	OK	OK	OK
144	13	the	OK	OK	OK
144	14	region	OK	OK	OK
144	15	of	OK	OK	BAD
144	16	the	OK	Accuracy	OK
144	17	planet	OK	OK	OK
144	18	that	OK	OK	OK
144	19	lies	OK	OK	OK
144	20	permanently	OK	OK	OK
144	21	in	OK	OK	OK
144	22	shadow	OK	OK	OK
144	23	.	OK	OK	OK
145	0	but	OK	OK	OK
145	1	pilata	OK	OK	OK
145	2	fatulayeva	OK	OK	OK
145	3	(	OK	OK	OK
145	4	48	OK	OK	OK
145	5	)	OK	OK	BAD
145	6	is	OK	Fluency	OK
145	7	convinced	OK	OK	OK
145	8	that	OK	OK	OK
145	9	lerik	OK	OK	OK
145	10	has	OK	Fluency	OK
145	11	the	OK	OK	OK
145	12	stuff	OK	OK	OK
145	13	to	OK	Accuracy	OK
145	14	the	OK	OK	OK
145	15	tourist	OK	OK	OK
145	16	attraction	OK	OK	OK
145	17	.	OK	OK	BAD
146	0	but	OK	OK	OK
146	1	i	OK	OK	OK
146	2	would	OK	OK	OK
146	3	not	OK	Fluency	BAD
146	4	want	OK	OK	OK
146	5	to	OK	OK	OK
146	6	give	OK	OK	BAD
146	7	too	Grammar	OK	OK
146	8	much	OK	Fluency	OK
146	9	weight	OK	OK	OK
146	10	,	OK	OK	OK
146	11	which	OK	OK	BAD
146	12	is	OK	OK	BAD
146	13	not	OK	OK	BAD
146	14	a	OK	OK	BAD
146	15	totally	Tense/aspect/mood	OK	OK
146	16	one-sided	OK	OK	OK
146	17	relationship	OK	OK	OK
146	18	.	OK	OK	OK
147	0	in	OK	OK	OK
147	1	the	OK	OK	OK
147	2	village	OK	OK	OK
147	3	itself	OK	OK	BAD
147	4	zodwa	OK	OK	OK
147	5	dlamini	OK	OK	OK
147	6	,	OK	OK	BAD
147	7	a	OK	OK	OK
147	8	self-confident	OK	OK	OK
147	9	and	OK	OK	BAD
147	10	penetration-strong	OK	OK	OK
147	11	woman	OK	OK	OK
147	12	,	OK	OK	OK
147	13	the	OK	OK	OK
147	14	money	OK	OK	BAD
147	15	from	OK	OK	OK
147	16	germany	OK	OK	OK
147	17	administers	OK	OK	OK
147	18	.	OK	OK	OK
152	0	in	OK	OK	OK
152	1	this	OK	OK	OK
152	2	way	OK	OK	OK
152	3	the	OK	OK	OK
152	4	evolution	OK	Accuracy	OK
152	5	of	OK	OK	BAD
152	6	an	OK	OK	OK
152	7	own	OK	OK	OK
152	8	isolated	OK	OK	BAD
152	9	hominid	OK	OK	BAD
152	10	kind	OK	OK	BAD
152	11	is	OK	OK	OK
152	12	impossible	OK	OK	BAD
152	13	,	OK	OK	OK
152	14	deduce	OK	OK	BAD
152	15	the	OK	OK	OK
152	16	researchers	OK	OK	OK
152	17	.	OK	OK	OK
155	0	the	OK	OK	OK
155	1	hype	OK	OK	OK
155	2	does	OK	OK	OK
155	3	not	OK	OK	OK
155	4	take	OK	OK	OK
155	5	any	OK	OK	OK
155	6	end	OK	OK	OK
155	7	,	OK	OK	BAD
155	8	and	OK	OK	OK
155	9	it	OK	OK	OK
155	10	states	OK	OK	OK
155	11	presumably	OK	OK	OK
155	12	more	OK	OK	OK
155	13	about	OK	OK	OK
155	14	the	OK	OK	OK
155	15	mode	OK	Accuracy	OK
155	16	of	OK	OK	BAD
155	17	operation	OK	OK	OK
155	18	of	OK	Fluency	OK
155	19	the	OK	OK	OK
155	20	media	Capitalization	OK	OK
155	21	society	OK	OK	OK
155	22	than	OK	OK	OK
155	23	about	OK	OK	OK
155	24	the	OK	OK	OK
155	25	kitchen	OK	OK	OK
155	26	of	OK	OK	OK
155	27	the	OK	OK	OK
155	28	present	OK	OK	OK
155	29	.	OK	OK	OK
156	0	the	OK	OK	OK
156	1	user	OK	OK	OK
156	2	declares	OK	OK	OK
156	3	himself	OK	OK	OK
156	4	agreed	OK	OK	OK
156	5	on	OK	OK	OK
156	6	his	OK	OK	OK
156	7	personal	OK	OK	OK
156	8	data	OK	OK	BAD
156	9	being	OK	OK	BAD
156	10	stored	OK	OK	OK
156	11	by	OK	Accuracy	OK
156	12	the	OK	OK	OK
156	13	provider	OK	Accuracy	OK
156	14	in	OK	OK	OK
156	15	electronic	OK	Accuracy	OK
156	16	form	OK	OK	OK
156	17	.	OK	OK	OK
161	0	a	OK	OK	OK
161	1	million	OK	OK	OK
161	2	dollars	OK	OK	OK
161	3	because	OK	Fluency	OK
161	4	the	OK	Fluency	OK
161	5	iphone	OK	OK	OK
161	6	is	OK	OK	BAD
161	7	too	OK	OK	BAD
161	8	cheap	OK	OK	BAD
162	0	whole	OK	OK	OK
162	1	living	OK	OK	OK
162	2	spaces	OK	OK	OK
162	3	around	OK	OK	OK
162	4	the	OK	Fluency	OK
162	5	globe	Terminology	Accuracy	OK
162	6	stand	OK	OK	OK
162	7	before	OK	OK	BAD
162	8	dramatic	OK	OK	BAD
162	9	changes	OK	OK	OK
162	10	.	OK	OK	BAD
164	0	in	OK	OK	OK
164	1	some	OK	OK	OK
164	2	branches	OK	OK	OK
164	3	,	OK	OK	OK
164	4	as	OK	OK	OK
164	5	about	OK	Fluency	OK
164	6	the	OK	OK	OK
164	7	trade	OK	OK	OK
164	8	or	OK	OK	OK
164	9	the	OK	Fluency	OK
164	10	social	OK	OK	OK
164	11	and	OK	OK	OK
164	12	health	OK	OK	OK
164	13	being	OK	OK	OK
164	14	,	OK	OK	OK
164	15	the	OK	OK	OK
164	16	working	OK	OK	OK
164	17	conditions	OK	OK	OK
164	18	worsen	OK	OK	BAD
164	19	in	OK	OK	BAD
164	20	the	OK	Accuracy	OK
164	21	practice	OK	Accuracy	OK
164	22	increasingly	OK	OK	OK
164	23	at	OK	OK	OK
164	24	the	OK	OK	OK
164	25	expense	OK	OK	OK
164	26	of	OK	OK	BAD
164	27	the	OK	OK	OK
164	28	employees	OK	OK	OK
164	29	:	OK	OK	OK
167	0	next	OK	OK	OK
167	1	to	OK	OK	OK
167	2	the	OK	OK	OK
167	3	model	OK	OK	OK
167	4	offensive	OK	OK	OK
167	5	the	OK	OK	OK
167	6	bmw	OK	Accuracy	OK
167	7	group	OK	OK	OK
167	8	and	OK	OK	OK
167	9	the	OK	OK	OK
167	10	climbed	OK	OK	OK
167	11	customer	OK	OK	OK
167	12	expectations	OK	OK	OK
167	13	has	OK	OK	OK
167	14	contributed	OK	OK	OK
167	15	the	OK	Fluency	OK
167	16	successful	Terminology	Accuracy	OK
167	17	business	OK	OK	OK
167	18	development	OK	OK	BAD
167	19	of	OK	OK	OK
167	20	bmw	OK	OK	OK
167	21	in	OK	OK	OK
167	22	berlin	OK	OK	OK
167	23	considerably	OK	OK	OK
167	24	to	OK	OK	OK
167	25	this	OK	OK	OK
167	26	decision	OK	OK	OK
167	27	.	OK	OK	OK
168	0	since	OK	OK	OK
168	1	2005	OK	OK	OK
168	2	the	OK	OK	OK
168	3	gigantic	Capitalization	OK	OK
168	4	iceberg	OK	OK	OK
168	5	was	OK	OK	OK
168	6	a53a	OK	OK	OK
168	7	on	OK	Fluency	OK
168	8	the	OK	OK	OK
168	9	way	OK	OK	OK
168	10	through	OK	OK	BAD
168	11	the	OK	OK	OK
168	12	south	OK	OK	OK
168	13	atlantic	OK	OK	OK
168	14	.	OK	OK	OK
173	0	timoschenko	OK	OK	OK
173	1	and	OK	OK	OK
173	2	juschtschenko	OK	OK	OK
173	3	are	OK	OK	OK
173	4	agreed	OK	OK	OK
173	5	that	OK	OK	OK
173	6	the	OK	OK	OK
173	7	country	Terminology	Fluency	BAD
173	8	needs	OK	OK	OK
173	9	a	OK	OK	BAD
173	10	new	OK	OK	BAD
173	11	constitution	OK	OK	OK
173	12	to	OK	OK	BAD
173	13	themselves	OK	OK	OK
173	14	.	OK	OK	BAD
175	0	in	OK	OK	OK
175	1	order	OK	OK	OK
175	2	to	OK	OK	OK
175	3	negotiate	OK	OK	BAD
175	4	to	OK	OK	OK
175	5	children	OK	OK	OK
175	6	,	OK	OK	BAD
175	7	which	OK	OK	OK
175	8	the	OK	Fluency	OK
175	9	conditions	OK	OK	OK
175	10	of	OK	OK	OK
175	11	a	OK	OK	OK
175	12	burning-process	OK	OK	OK
175	13	are	OK	OK	OK
175	14	,	OK	OK	BAD
175	15	the	OK	Fluency	OK
175	16	„	OK	Accuracy	OK
175	17	combustion	OK	Accuracy	OK
175	18	house	OK	OK	OK
175	19	"	OK	OK	OK
175	20	was	OK	OK	BAD
175	21	developed	OK	OK	OK
175	22	following	OK	OK	OK
175	23	the	OK	OK	OK
175	24	combustion	OK	OK	OK
175	25	triangle	OK	OK	OK
175	26	.	OK	OK	OK
176	0	and	OK	OK	OK
176	1	they	OK	OK	OK
176	2	go	OK	OK	OK
176	3	out	OK	OK	OK
176	4	of	OK	OK	OK
176	5	the	OK	OK	OK
176	6	mentality	OK	OK	OK
176	7	of	OK	OK	BAD
176	8	swiss	OK	OK	OK
176	9	and	OK	OK	OK
176	10	germans	OK	OK	OK
176	11	being	OK	OK	OK
176	12	the	OK	OK	OK
176	13	same	OK	OK	OK
176	14	one	OK	OK	BAD
176	15	.	OK	OK	BAD
178	0	in	OK	OK	OK
178	1	some	OK	OK	OK
178	2	fields	OK	OK	OK
178	3	of	OK	OK	OK
178	4	asia	OK	OK	OK
178	5	(	OK	OK	OK
178	6	e.g.	OK	OK	OK
178	7	nepal	OK	OK	OK
178	8	)	OK	OK	OK
178	9	the	OK	OK	OK
178	10	mellifera	OK	OK	OK
178	11	is	OK	OK	BAD
178	12	in	OK	OK	OK
178	13	addition	OK	OK	BAD
178	14	propagated	Word_order	OK	OK
178	15	by	Function_words	OK	OK
178	16	skillful	OK	OK	OK
178	17	profiteers	OK	OK	OK
178	18	strongly	OK	OK	OK
178	19	.	OK	OK	OK
180	0	also	OK	OK	OK
180	1	microsoft	OK	OK	OK
180	2	office	OK	OK	OK
180	3	2007	Word_order	OK	OK
180	4	supports	OK	OK	OK
180	5	the	OK	OK	OK
180	6	transformation	OK	Accuracy	OK
180	7	according	OK	OK	OK
180	8	to	OK	OK	OK
180	9	pdf	OK	OK	OK
180	10	/	OK	OK	OK
180	11	a	OK	OK	OK
180	12	,	OK	OK	OK
180	13	and	OK	OK	OK
180	14	that	OK	OK	OK
180	15	is	OK	OK	OK
180	16	a	OK	OK	OK
180	17	further	OK	OK	OK
180	18	tip	OK	OK	OK
180	19	for	OK	Accuracy	OK
180	20	the	OK	OK	OK
180	21	importance	OK	OK	OK
180	22	of	OK	OK	BAD
180	23	the	OK	OK	OK
180	24	pdf	OK	OK	OK
180	25	/	OK	OK	OK
180	26	a	OK	OK	OK
180	27	standard	OK	OK	OK
180	28	.	OK	OK	OK
182	0	the	OK	OK	OK
182	1	gdr-science	OK	OK	OK
182	2	gave	OK	OK	OK
182	3	in	OK	OK	OK
182	4	1990	OK	Accuracy	OK
182	5	„	OK	OK	OK
182	6	a	OK	OK	OK
182	7	picture	OK	OK	OK
182	8	of	OK	OK	OK
182	9	the	OK	OK	OK
182	10	decay	Capitalization	OK	OK
182	11	“	OK	OK	OK
182	12	,	OK	OK	BAD
182	13	said	OK	OK	OK
182	14	schipanski	OK	OK	OK
182	15	.	OK	OK	OK
189	0	the	OK	OK	OK
189	1	so-called	OK	OK	OK
189	2	chat	OK	OK	OK
189	3	rooms	OK	Fluency	BAD
189	4	are	OK	OK	BAD
189	5	an	OK	OK	OK
189	6	element	OK	OK	OK
189	7	which	OK	OK	OK
189	8	realizes	OK	OK	OK
189	9	the	OK	OK	OK
189	10	communicative	OK	OK	OK
189	11	thought	OK	OK	OK
189	12	in	OK	OK	OK
189	13	high	OK	OK	OK
189	14	measure	OK	OK	OK
189	15	.	OK	OK	OK
193	0	it	OK	OK	OK
193	1	achieves	OK	OK	OK
193	2	in	OK	OK	OK
193	3	this	OK	OK	OK
193	4	way	OK	OK	OK
193	5	a	OK	OK	OK
193	6	contribution	OK	OK	OK
193	7	to	OK	OK	BAD
193	8	the	OK	OK	OK
193	9	prevention	OK	OK	OK
193	10	of	OK	OK	OK
193	11	the	OK	OK	OK
193	12	re-nationalization	OK	OK	OK
193	13	of	OK	OK	BAD
193	14	security	OK	OK	OK
193	15	and	OK	OK	OK
193	16	defense	OK	OK	OK
193	17	politics	OK	OK	OK
193	18	in	OK	OK	OK
193	19	the	OK	OK	OK
193	20	present	OK	OK	OK
193	21	europe	OK	OK	OK
193	22	.	OK	OK	OK
197	0	the	OK	OK	OK
197	1	business	OK	OK	OK
197	2	administration	OK	OK	OK
197	3	deals	OK	OK	OK
197	4	with	OK	OK	OK
197	5	the	OK	OK	OK
197	6	economical	Terminology	OK	OK
197	7	connections	OK	OK	OK
197	8	and	OK	OK	OK
197	9	lawfulness	OK	OK	OK
197	10	of	OK	OK	OK
197	11	single	OK	OK	OK
197	12	enterprises	OK	Accuracy	OK
197	13	and	OK	OK	OK
197	14	supplies	OK	OK	OK
197	15	findings	OK	OK	OK
197	16	for	OK	OK	OK
197	17	company	OK	OK	OK
197	18	internal	OK	OK	OK
197	19	structures	OK	OK	OK
197	20	and	OK	OK	OK
197	21	processes	OK	OK	OK
197	22	.	OK	OK	OK
199	0	also	OK	OK	OK
199	1	the	OK	OK	OK
199	2	room	OK	OK	OK
199	3	offer	Tense/aspect/mood	OK	BAD
199	4	increased	OK	OK	OK
199	5	.	OK	OK	OK
202	0	that	OK	OK	OK
202	1	is	OK	OK	OK
202	2	one	OK	OK	OK
202	3	of	Terminology	OK	BAD
202	4	many	Word_order	OK	OK
202	5	possible	Word_order	OK	OK
202	6	paraphrases	OK	OK	OK
202	7	of	Word_order	OK	OK
202	8	his	OK	OK	BAD
202	9	"	OK	OK	OK
202	10	freedom	OK	OK	OK
202	11	at	OK	OK	BAD
202	12	the	OK	OK	OK
202	13	band	OK	OK	OK
202	14	of	OK	OK	BAD
202	15	the	OK	OK	OK
202	16	necessity	OK	OK	OK
202	17	"	OK	OK	OK
202	18	.	OK	OK	OK
204	0	the	OK	OK	OK
204	1	railroad	OK	OK	OK
204	2	is	OK	OK	OK
204	3	after	OK	OK	BAD
204	4	all	OK	OK	OK
204	5	also	OK	OK	OK
204	6	the	OK	OK	OK
204	7	engineer	OK	OK	OK
204	8	of	OK	OK	BAD
204	9	the	OK	OK	OK
204	10	hybrid	OK	OK	OK
204	11	engine	OK	OK	OK
204	12	.	OK	OK	OK
211	0	central	OK	OK	OK
211	1	points	OK	OK	OK
211	2	are	OK	OK	OK
211	3	the	OK	OK	OK
211	4	strengthening	OK	OK	OK
211	5	of	OK	OK	OK
211	6	the	OK	OK	OK
211	7	attractivity	Terminology	OK	OK
211	8	as	OK	OK	OK
211	9	destination	OK	OK	OK
211	10	,	OK	OK	OK
211	11	improvement	OK	OK	OK
211	12	of	OK	Accuracy	OK
211	13	the	OK	OK	OK
211	14	offer	OK	OK	OK
211	15	quality	OK	OK	OK
211	16	and	OK	OK	OK
211	17	promotion	OK	OK	OK
211	18	of	OK	OK	OK
211	19	the	OK	OK	OK
211	20	social	OK	OK	OK
211	21	tourism	OK	OK	OK
211	22	.	OK	OK	OK
212	0	„	OK	OK	OK
212	1	economic	OK	OK	OK
212	2	refugees	OK	OK	OK
212	3	"	OK	OK	OK
212	4	are	OK	OK	OK
212	5	mentioned	OK	OK	BAD
212	6	those	Function_words	OK	BAD
212	7	ones	Capitalization	OK	BAD
212	8	who	OK	OK	BAD
212	9	flee	OK	OK	OK
212	10	from	OK	OK	OK
212	11	the	OK	OK	OK
212	12	poverty	OK	OK	OK
212	13	which	OK	OK	BAD
212	14	the	OK	OK	OK
212	15	company	OK	OK	OK
212	16	groups	OK	OK	OK
212	17	of	OK	OK	OK
212	18	the	OK	Accuracy	OK
212	19	g8	Terminology	Accuracy	OK
212	20	countries	OK	OK	OK
212	21	and	OK	OK	OK
212	22	their	OK	OK	OK
212	23	governments	OK	OK	OK
212	24	cause	OK	OK	OK
212	25	and	OK	OK	OK
212	26	deepen	OK	OK	OK
212	27	.	OK	OK	OK
214	0	but	OK	OK	OK
214	1	are	OK	OK	OK
214	2	the	OK	OK	OK
214	3	successes	OK	OK	OK
214	4	not	OK	OK	BAD
214	5	relative	OK	OK	BAD
214	6	?	OK	OK	BAD
221	0	because	OK	OK	OK
221	1	the	OK	OK	OK
221	2	shootings	OK	OK	OK
221	3	will	OK	OK	OK
221	4	not	OK	OK	BAD
221	5	be	OK	Fluency	OK
221	6	before	OK	OK	OK
221	7	at	OK	OK	BAD
221	8	the	OK	OK	OK
221	9	end	OK	OK	OK
221	10	of	OK	OK	OK
221	11	august	OK	OK	OK
221	12	finished	OK	OK	OK
221	13	.	OK	OK	OK
228	0	transportation	OK	OK	OK
228	1	in	OK	OK	OK
228	2	the	OK	OK	OK
228	3	electronic	OK	OK	OK
228	4	form	OK	OK	BAD
233	0	the	OK	OK	OK
233	1	traffic	OK	OK	OK
233	2	on	OK	OK	OK
233	3	the	OK	OK	OK
233	4	ten	Terminology	OK	OK
233	5	lanes	OK	Accuracy	OK
233	6	streets	OK	OK	OK
233	7	kills	OK	OK	OK
233	8	us	OK	OK	OK
233	9	-	OK	OK	OK
233	10	it	OK	OK	OK
233	11	remains	OK	OK	OK
233	12	the	OK	OK	OK
233	13	metro	OK	OK	OK
233	14	as	OK	OK	BAD
233	15	a	OK	OK	OK
233	16	vanishing	OK	OK	OK
233	17	point	OK	OK	OK
233	18	.	OK	OK	OK
235	0	the	OK	OK	OK
235	1	empfäger	OK	OK	OK
235	2	e-mail	OK	OK	BAD
235	3	is	OK	OK	OK
235	4	not	OK	OK	OK
235	5	valid	OK	OK	OK
235	6	.	OK	OK	OK
237	0	«	OK	OK	OK
237	1	contents	OK	OK	OK
237	2	»	OK	OK	OK
237	3	are	OK	OK	OK
237	4	decisive	OK	OK	OK
237	5	for	OK	OK	OK
237	6	it	OK	OK	OK
237	7	:	OK	OK	OK
239	0	in	OK	OK	OK
239	1	the	OK	OK	OK
239	2	first	OK	OK	OK
239	3	place	OK	OK	OK
239	4	next	OK	OK	OK
239	5	to	OK	OK	OK
239	6	the	OK	OK	OK
239	7	clarification	OK	OK	OK
239	8	of	OK	OK	OK
239	9	rights	OK	OK	OK
239	10	and	Word_order	OK	OK
239	11	duties	OK	OK	BAD
239	12	this	OK	OK	OK
239	13	is	OK	Fluency	OK
239	14	legal	Mistranslation	OK	OK
239	15	advice	OK	OK	BAD
239	16	and	OK	OK	OK
239	17	representation	OK	OK	OK
239	18	with	OK	OK	OK
239	19	rent	OK	OK	OK
239	20	quarrels	OK	OK	OK
239	21	.	OK	OK	OK
243	0	during	OK	OK	OK
243	1	the	OK	OK	OK
243	2	this	OK	OK	OK
243	3	year	OK	OK	OK
243	4	's	OK	OK	OK
243	5	competition	OK	OK	OK
243	6	in	OK	OK	OK
243	7	helsinki	Tense/aspect/mood	OK	OK
243	8	nine	OK	OK	OK
243	9	of	OK	OK	OK
243	10	the	OK	OK	OK
243	11	ten	OK	Accuracy	OK
243	12	uppermost	OK	OK	BAD
243	13	places	OK	OK	OK
243	14	were	OK	Fluency	BAD
243	15	occupied	OK	OK	OK
243	16	by	Mistranslation	OK	BAD
243	17	east	OK	OK	OK
243	18	european	OK	Accuracy	BAD
243	19	countries	OK	OK	OK
243	20	including	OK	OK	OK
243	21	the	OK	OK	OK
243	22	serbian	OK	Accuracy	OK
243	23	grand	OK	OK	BAD
243	24	prix	OK	OK	OK
243	25	winner	OK	OK	OK
243	26	marija	OK	OK	OK
243	27	serifovic	OK	OK	OK
243	28	(	OK	OK	OK
243	29	"	OK	OK	OK
243	30	molitva	OK	OK	OK
243	31	"	OK	OK	OK
243	32	)	OK	OK	OK
243	33	.	OK	OK	OK
246	0	the	OK	OK	OK
246	1	answers	OK	OK	OK
246	2	are	OK	OK	OK
246	3	not	OK	OK	BAD
246	4	distinguished	OK	OK	OK
246	5	from	OK	OK	OK
246	6	those	OK	OK	OK
246	7	which	OK	OK	OK
246	8	were	Grammar	OK	OK
246	9	given	Function_words	OK	BAD
246	10	before	OK	OK	BAD
246	11	the	OK	OK	OK
246	12	last	OK	OK	OK
246	13	german	OK	OK	OK
246	14	eu	OK	OK	OK
246	15	council	OK	OK	OK
246	16	premiership	OK	OK	OK
246	17	in	OK	OK	OK
246	18	the	OK	OK	OK
246	19	first	OK	OK	OK
246	20	year	OK	OK	OK
246	21	half	OK	OK	OK
246	22	1999	OK	OK	OK
246	23	.	OK	OK	OK
247	0	about	OK	OK	OK
247	1	two	OK	OK	OK
247	2	million	OK	OK	OK
247	3	kinds	OK	OK	OK
247	4	-	OK	OK	OK
247	5	animals	OK	OK	OK
247	6	,	OK	OK	OK
247	7	plants	OK	OK	OK
247	8	,	OK	OK	OK
247	9	mushrooms	OK	OK	OK
247	10	and	OK	OK	OK
247	11	microorganisms	OK	OK	OK
247	12	-	Tense/aspect/mood	OK	OK
247	13	were	OK	OK	OK
247	14	described	OK	OK	OK
247	15	up	OK	OK	OK
247	16	to	OK	OK	OK
247	17	now	OK	OK	OK
247	18	.	OK	OK	OK
248	0	the	OK	OK	OK
248	1	crisis	OK	OK	OK
248	2	of	OK	OK	BAD
248	3	the	OK	OK	OK
248	4	school	OK	OK	OK
248	5	teaches	OK	OK	OK
248	6	how	OK	OK	BAD
248	7	these	OK	OK	OK
248	8	crossings	OK	OK	BAD
248	9	are	OK	OK	OK
248	10	importantly	OK	OK	OK
248	11	.	OK	OK	OK
251	0	also	OK	OK	OK
251	1	here	OK	OK	OK
251	2	the	OK	OK	OK
251	3	handled	Terminology	Accuracy	OK
251	4	bacteria	OK	OK	OK
251	5	showed	OK	OK	OK
251	6	clear	OK	OK	OK
251	7	changes	OK	OK	OK
251	8	in	OK	OK	OK
251	9	the	OK	OK	OK
251	10	material	OK	OK	OK
251	11	budget	OK	OK	BAD
251	12	as	OK	OK	OK
251	13	well	OK	OK	OK
251	14	as	OK	OK	OK
251	15	an	OK	OK	OK
251	16	increasing	OK	OK	OK
251	17	virulence	OK	OK	OK
251	18	.	OK	OK	OK
253	0	chronology	OK	OK	OK
253	1	of	OK	OK	OK
253	2	an	OK	OK	OK
253	3	extraordinary	OK	OK	OK
253	4	mäzenatentums	OK	OK	OK
256	0	because	OK	OK	OK
256	1	pixar	OK	OK	OK
256	2	and	OK	OK	OK
256	3	disney	OK	OK	OK
256	4	lead	OK	OK	OK
256	5	an	OK	OK	OK
256	6	almost	Tense/aspect/mood	OK	OK
256	7	subversive	OK	OK	OK
256	8	campaign	OK	OK	OK
256	9	with	OK	OK	OK
256	10	the	OK	OK	OK
256	11	aid	OK	OK	OK
256	12	of	OK	OK	OK
256	13	the	OK	OK	OK
256	14	agreeable	OK	OK	OK
256	15	rat	Function_words	OK	OK
256	16	against	OK	OK	OK
256	17	lousy	OK	OK	OK
256	18	fastfood-habits	OK	OK	OK
256	19	.	OK	OK	OK
257	0	the	OK	OK	OK
257	1	trade	OK	OK	OK
257	2	representative	OK	OK	OK
257	3	contracts	OK	OK	BAD
257	4	must	OK	OK	OK
257	5	be	OK	OK	OK
257	6	entered	OK	OK	OK
257	7	into	OK	Accuracy	OK
257	8	the	OK	OK	OK
257	9	commercial	OK	OK	OK
257	10	register	OK	OK	OK
257	11	near	OK	Fluency	OK
257	12	the	OK	OK	OK
257	13	responsible	OK	OK	OK
257	14	local	OK	OK	OK
257	15	chamber	OK	OK	OK
257	16	of	OK	OK	OK
257	17	commerce	OK	OK	OK
257	18	(	OK	OK	OK
257	19	kind	OK	OK	OK
257	20	.	OK	OK	OK
258	0	behaviors	OK	OK	OK
258	1	were	OK	OK	OK
258	2	examined	OK	OK	OK
258	3	systematic	OK	OK	OK
258	4	then	OK	OK	OK
258	5	,	OK	OK	OK
258	6	to	OK	Fluency	OK
258	7	what	OK	OK	OK
258	8	extent	OK	OK	OK
258	9	the	OK	Fluency	OK
258	10	animal	OK	Fluency	OK
258	11	corresponds	OK	OK	BAD
258	12	to	OK	OK	OK
258	13	the	OK	OK	OK
258	14	standards	OK	OK	OK
258	15	of	OK	OK	BAD
258	16	human	OK	OK	OK
258	17	cognition	OK	OK	OK
258	18	.	OK	OK	OK
269	0	the	OK	OK	OK
269	1	ferrostaal	OK	OK	OK
269	2	ag	OK	OK	OK
269	3	is	OK	OK	BAD
269	4	worldwide	OK	OK	OK
269	5	leadingly	OK	OK	OK
269	6	as	OK	OK	OK
269	7	a	OK	OK	OK
269	8	service	OK	OK	OK
269	9	provider	OK	OK	OK
269	10	in	OK	OK	OK
269	11	the	OK	OK	OK
269	12	connection	Terminology	OK	OK
269	13	of	OK	OK	BAD
269	14	technical	OK	OK	OK
269	15	and	OK	OK	OK
269	16	financial	OK	OK	OK
269	17	engineering	OK	OK	OK
269	18	.	OK	OK	OK
272	0	use	OK	OK	OK
272	1	of	OK	OK	OK
272	2	weblogs	OK	OK	OK
272	3	in	OK	OK	OK
272	4	the	OK	OK	OK
272	5	school	OK	OK	OK
272	6	instruction	OK	OK	BAD
272	7	-	OK	OK	OK
272	8	application	OK	OK	OK
272	9	stages	OK	OK	OK
276	0	in	OK	OK	OK
276	1	the	OK	OK	OK
276	2	region	OK	Accuracy	OK
276	3	in	OK	OK	OK
276	4	front	OK	OK	OK
276	5	of	OK	OK	OK
276	6	the	OK	Accuracy	OK
276	7	californian	OK	Accuracy	OK
276	8	coast	OK	OK	OK
276	9	about	OK	OK	OK
276	10	a	OK	OK	OK
276	11	hundred	OK	OK	OK
276	12	blue	OK	OK	OK
276	13	whales	OK	OK	OK
276	14	live	OK	OK	OK
276	15	.	OK	OK	OK
278	0	in	OK	OK	OK
278	1	latter	OK	OK	OK
278	2	case	OK	OK	OK
278	3	this	OK	OK	BAD
278	4	would	OK	OK	OK
278	5	be	OK	OK	OK
278	6	among	Capitalization	OK	OK
278	7	other	OK	OK	OK
278	8	things	OK	OK	OK
278	9	the	OK	Accuracy	OK
278	10	messenger	OK	OK	OK
278	11	material	OK	OK	OK
278	12	(	OK	OK	OK
278	13	neurotransmitter	OK	OK	OK
278	14	)	OK	OK	OK
278	15	serotonin	OK	OK	OK
278	16	.	OK	OK	OK
288	0	please	OK	OK	OK
288	1	hold	OK	OK	OK
288	2	yourself	OK	OK	OK
288	3	for	OK	Fluency	BAD
288	4	the	OK	OK	OK
288	5	exact	OK	OK	OK
288	6	positions	OK	OK	OK
288	7	of	OK	OK	OK
288	8	the	OK	OK	OK
288	9	disks	OK	OK	OK
288	10	onto	OK	OK	BAD
288	11	the	OK	OK	OK
288	12	above	OK	OK	OK
288	13	chart	OK	OK	OK
288	14	.	OK	OK	OK
299	0	in	OK	OK	OK
299	1	addition	OK	OK	OK
299	2	theory	OK	OK	OK
299	3	structures	OK	OK	OK
299	4	come	OK	OK	OK
299	5	for	OK	OK	OK
299	6	the	OK	OK	OK
299	7	characterization	OK	OK	OK
299	8	of	OK	OK	BAD
299	9	the	OK	OK	OK
299	10	single	OK	OK	OK
299	11	constituents	OK	OK	OK
299	12	.	OK	OK	OK
301	0	according	OK	OK	OK
301	1	to	OK	OK	OK
301	2	findings	OK	OK	OK
301	3	which	OK	OK	BAD
301	4	reached	OK	OK	BAD
301	5	the	OK	OK	OK
301	6	british	OK	Accuracy	OK
301	7	secret	OK	OK	OK
301	8	service	OK	OK	OK
301	9	at	OK	OK	OK
301	10	the	OK	OK	OK
301	11	beginning	Capitalization	OK	OK
301	12	of	OK	OK	BAD
301	13	1945	OK	OK	BAD
301	14	a	OK	OK	OK
301	15	destruction	Tense/aspect/mood	OK	OK
301	16	radius	OK	OK	OK
301	17	of	OK	OK	BAD
301	18	about	OK	OK	OK
301	19	600	Tense/aspect/mood	OK	OK
301	20	meters	OK	OK	OK
301	21	was	OK	Fluency	OK
301	22	achieved	OK	OK	OK
301	23	with	OK	OK	OK
301	24	a	OK	OK	OK
301	25	test	OK	OK	OK
301	26	by	OK	OK	OK
301	27	berlin	OK	OK	OK
301	28	to	OK	OK	OK
301	29	the	OK	OK	OK
301	30	north	OK	OK	OK
301	31	.	OK	OK	OK
302	0	speak	OK	OK	OK
302	1	the	OK	OK	OK
302	2	following	OK	Accuracy	OK
302	3	words	OK	OK	OK
302	4	aloud	OK	OK	OK
302	5	and	OK	OK	OK
302	6	mark	OK	OK	OK
302	7	then	OK	OK	OK
302	8	the	OK	OK	OK
302	9	syllable	OK	OK	OK
302	10	which	OK	OK	OK
302	11	bears	OK	OK	OK
302	12	the	OK	OK	OK
302	13	main	OK	Fluency	OK
302	14	stress	OK	OK	BAD
302	15	.	OK	OK	BAD
310	0	the	OK	OK	OK
310	1	new	OK	OK	OK
310	2	head	OK	OK	OK
310	3	of	OK	OK	OK
310	4	the	OK	OK	OK
310	5	berlin	OK	OK	OK
310	6	dussmann	OK	OK	OK
310	7	group	OK	OK	OK
310	8	,	OK	OK	BAD
310	9	thomas	OK	OK	OK
310	10	greiner	OK	OK	OK
310	11	,	OK	OK	OK
310	12	wants	OK	OK	BAD
310	13	to	OK	OK	OK
310	14	create	OK	Fluency	BAD
310	15	still	OK	OK	OK
310	16	this	OK	OK	OK
310	17	year	OK	OK	OK
310	18	1000	OK	OK	OK
310	19	new	OK	OK	OK
310	20	jobs	OK	OK	OK
310	21	,	OK	OK	BAD
310	22	100	OK	OK	BAD
310	23	of	OK	OK	OK
310	24	them	OK	OK	OK
310	25	in	OK	OK	OK
310	26	berlin	OK	OK	OK
310	27	and	OK	OK	OK
310	28	brandenburg	OK	OK	OK
310	29	.	OK	OK	OK
312	0	just	OK	OK	OK
312	1	in	OK	OK	OK
312	2	central	OK	OK	OK
312	3	europe	OK	Accuracy	OK
312	4	there	OK	OK	OK
312	5	are	OK	OK	OK
312	6	now	OK	OK	OK
312	7	and	OK	OK	OK
312	8	then	OK	OK	OK
312	9	strong	OK	OK	OK
312	10	reservations	OK	OK	OK
312	11	against	OK	OK	OK
312	12	the	OK	OK	OK
312	13	preserving	OK	OK	OK
312	14	of	OK	OK	OK
312	15	corpses	OK	OK	OK
312	16	.	OK	OK	OK
315	0	information	OK	OK	OK
315	1	(	OK	OK	OK
315	2	about	OK	OK	OK
315	3	application	OK	OK	OK
315	4	possibilities	OK	OK	OK
315	5	,	OK	OK	OK
315	6	fort	OK	OK	OK
315	7	educations	OK	OK	OK
315	8	,	OK	OK	OK
315	9	fact-finding	OK	OK	BAD
315	10	tours	OK	OK	BAD
315	11	,	OK	OK	BAD
315	12	ideas	OK	OK	OK
315	13	)	OK	OK	OK
318	0	because	OK	OK	OK
318	1	there	OK	OK	OK
318	2	is	OK	OK	OK
318	3	this	OK	OK	OK
318	4	transformation	OK	OK	OK
318	5	process	OK	OK	OK
318	6	,	OK	OK	OK
318	7	it	OK	OK	BAD
318	8	is	OK	OK	OK
318	9	reasonable	OK	OK	OK
318	10	and	OK	OK	OK
318	11	necessary	OK	OK	BAD
318	12	to	OK	OK	OK
318	13	understand	OK	Fluency	BAD
318	14	programmatic	OK	OK	BAD
318	15	ideas	OK	OK	OK
318	16	again	OK	OK	BAD
318	17	.	OK	OK	BAD
320	0	in	OK	OK	OK
320	1	november	OK	OK	OK
320	2	union	OK	OK	OK
320	3	and	OK	OK	OK
320	4	spd	OK	Fluency	OK
320	5	want	OK	OK	OK
320	6	to	OK	OK	OK
320	7	talk	OK	OK	OK
320	8	once	OK	OK	OK
320	9	again	OK	OK	OK
320	10	about	OK	OK	OK
320	11	the	OK	OK	OK
320	12	online-search	Terminology	Accuracy	OK
320	13	as	OK	OK	OK
320	14	union	OK	OK	BAD
320	15	faction	OK	OK	OK
320	16	leader	OK	OK	OK
320	17	volker	OK	OK	OK
320	18	kauder	OK	OK	OK
320	19	explained	OK	OK	OK
320	20	.	OK	OK	OK
322	0	also	OK	OK	OK
322	1	"	OK	OK	OK
322	2	black	OK	OK	OK
322	3	man	OK	Fluency	OK
322	4	working	OK	OK	BAD
322	5	"	OK	OK	OK
322	6	is	OK	OK	OK
322	7	possible	OK	OK	OK
322	8	,	OK	OK	OK
322	9	depends	OK	OK	OK
322	10	on	OK	OK	OK
322	11	who	OK	OK	BAD
322	12	answers	OK	OK	OK
322	13	.	OK	OK	BAD
330	0	the	OK	OK	OK
330	1	liquidation	OK	OK	OK
330	2	is	OK	OK	OK
330	3	carried	OK	OK	OK
330	4	out	OK	OK	OK
330	5	by	OK	OK	OK
330	6	the	OK	OK	OK
330	7	executive	OK	OK	OK
330	8	board	OK	OK	OK
330	9	,	OK	OK	BAD
330	10	provided	OK	OK	OK
330	11	that	OK	OK	OK
330	12	the	OK	OK	OK
330	13	general	OK	OK	OK
330	14	meeting	OK	OK	OK
330	15	orders	OK	OK	OK
330	16	liquidators	OK	OK	OK
330	17	not	OK	OK	OK
330	18	other	OK	OK	OK
330	19	.	OK	OK	OK
332	0	and	OK	OK	OK
332	1	yes	OK	OK	OK
332	2	,	OK	OK	OK
332	3	and	OK	OK	OK
332	4	these	OK	OK	OK
332	5	old	OK	OK	BAD
332	6	mountain	OK	OK	OK
332	7	climbers	OK	OK	OK
332	8	told	OK	OK	OK
332	9	these	OK	OK	OK
332	10	histories	OK	OK	OK
332	11	.	OK	OK	BAD
336	0	the	OK	OK	OK
336	1	same	OK	OK	OK
336	2	sense	OK	OK	OK
336	3	of	OK	OK	OK
336	4	office	OK	OK	BAD
336	5	and	OK	OK	OK
336	6	sacrament	OK	OK	BAD
337	0	the	OK	OK	OK
337	1	expansion	OK	OK	OK
337	2	of	OK	OK	OK
337	3	the	OK	OK	OK
337	4	elementary	OK	Accuracy	OK
337	5	schools	OK	OK	OK
337	6	to	OK	Fluency	OK
337	7	full-time	OK	OK	BAD
337	8	elementary	OK	OK	OK
337	9	schools	OK	OK	OK
337	10	broadens	OK	OK	OK
337	11	the	OK	OK	OK
337	12	pedagogic	Capitalization	OK	OK
337	13	action	Tense/aspect/mood	OK	BAD
337	14	elbow	OK	OK	OK
337	15	room	OK	OK	OK
337	16	and	OK	OK	OK
337	17	offers	OK	OK	OK
337	18	possibilities	OK	OK	OK
337	19	of	OK	OK	OK
337	20	qualified	OK	OK	OK
337	21	care	OK	OK	OK
337	22	.	OK	OK	OK
348	0	the	OK	OK	OK
348	1	finishing	OK	OK	OK
348	2	guarantee	OK	OK	OK
348	3	and	OK	OK	BAD
348	4	/	OK	OK	OK
348	5	or	OK	OK	OK
348	6	.	OK	OK	OK
348	7	finishing	Untranslated	OK	OK
348	8	insurance	OK	OK	OK
348	9	is	OK	OK	OK
348	10	an	OK	OK	OK
348	11	important	OK	OK	OK
348	12	component	OK	OK	OK
348	13	of	OK	Accuracy	OK
348	14	the	OK	OK	OK
348	15	film	OK	OK	OK
348	16	financing	OK	OK	OK
348	17	and	OK	OK	OK
348	18	is	OK	OK	OK
348	19	defined	OK	OK	OK
348	20	before	OK	OK	OK
348	21	beginning	OK	OK	OK
348	22	of	OK	OK	OK
348	23	production	OK	OK	OK
348	24	by	OK	OK	OK
348	25	contract	OK	OK	OK
348	26	.	OK	OK	OK
