1.1	0	"	OK	OK	OK
1.1	1	instead	OK	OK	OK
1.1	2	of	OK	OK	OK
1.1	3	strengthening	OK	OK	OK
1.1	4	the	Grammar	OK	OK
1.1	5	civil	OK	OK	OK
1.1	6	society	OK	OK	OK
1.1	7	,	OK	OK	OK
1.1	8	the	OK	OK	OK
1.1	9	president	OK	OK	BAD
1.1	10	cancels	OK	Accuracy	BAD
1.1	11	them	OK	OK	OK
1.1	12	de	Unintelligible	OK	OK
1.1	13	facto	Addition	OK	OK
1.1	14	"	OK	OK	OK
1.1	15	,	Punctuation	OK	BAD
1.1	16	deplores	OK	OK	BAD
1.1	17	saeda	OK	Accuracy	BAD
1.1	18	.	OK	OK	OK
4.1	0	the	OK	OK	OK
4.1	1	word	OK	OK	BAD
4.1	2	orientates	OK	Fluency	OK
4.1	3	itself	Word_order	OK	BAD
4.1	4	by	Word_order	Fluency	BAD
4.1	5	"	Addition	Fluency	BAD
4.1	6	bang	Mistranslation	Fluency	OK
4.1	7	dakuan	Word_order	Fluency	BAD
4.1	8	"	OK	OK	OK
4.1	9	.	OK	OK	OK
5.1	0	this	OK	OK	OK
5.1	1	is	OK	OK	OK
5.1	2	cheap	OK	OK	OK
5.1	3	and	OK	OK	OK
5.1	4	time-efficient	OK	Fluency	BAD
5.1	5	.	OK	OK	OK
8.1	0	at	OK	OK	OK
8.1	1	the	OK	OK	OK
8.1	2	end	OK	OK	OK
8.1	3	of	OK	OK	OK
8.1	4	the	Grammar	OK	OK
8.1	5	500-meter-long	OK	OK	OK
8.1	6	journey	OK	OK	OK
8.1	7	,	OK	OK	OK
8.1	8	you	Terminology	OK	OK
8.1	9	are	OK	OK	OK
8.1	10	rewarded	OK	OK	BAD
8.1	11	in	OK	OK	OK
8.1	12	the	OK	OK	BAD
8.1	13	literature	OK	OK	BAD
8.1	14	café	Mistranslation	OK	BAD
8.1	15	,	OK	OK	OK
8.1	16	not	Word_order	OK	OK
8.1	17	only	OK	OK	BAD
8.1	18	with	OK	OK	OK
8.1	19	a	OK	OK	OK
8.1	20	fantastic	OK	OK	OK
8.1	21	view	OK	OK	OK
8.1	22	of	OK	Fluency	OK
8.1	23	the	OK	Fluency	OK
8.1	24	city	OK	OK	OK
8.1	25	,	OK	Fluency	OK
8.1	26	but	Word_order	OK	OK
8.1	27	also	Word_order	Fluency	BAD
8.1	28	with	OK	Fluency	BAD
8.1	29	dutch	OK	OK	BAD
8.1	30	croquettes	OK	OK	OK
8.1	31	and	Word_order	Fluency	OK
8.1	32	potted	OK	OK	BAD
8.1	33	ficus	OK	OK	OK
8.1	34	trees	OK	OK	OK
8.1	35	.	OK	OK	OK
14.1	0	for	OK	OK	OK
14.1	1	example	OK	OK	OK
14.1	2	,	OK	OK	OK
14.1	3	if	OK	OK	OK
14.1	4	we	OK	OK	OK
14.1	5	look	OK	OK	OK
14.1	6	at	Word_order	OK	OK
14.1	7	the	OK	OK	OK
14.1	8	euro	OK	Fluency	OK
14.1	9	crisis	OK	OK	OK
14.1	10	,	OK	OK	OK
14.1	11	there	OK	OK	BAD
14.1	12	is	Unintelligible	Fluency	BAD
14.1	13	every	OK	OK	OK
14.1	14	time	Morphology_(word_form)	OK	OK
14.1	15	germany	Omission	OK	OK
14.1	16	assumes	Function_words	Fluency	BAD
14.1	17	a	OK	OK	OK
14.1	18	greater	Mistranslation	Accuracy	OK
14.1	19	role	OK	Accuracy	OK
14.1	20	,	OK	OK	OK
14.1	21	a	OK	OK	OK
14.1	22	variety	OK	OK	OK
14.1	23	of	OK	OK	OK
14.1	24	anti-german	OK	OK	OK
14.1	25	sentiment	OK	OK	OK
14.1	26	.	OK	OK	OK
19.1	0	our	Style/register	OK	OK
19.1	1	insights	OK	Accuracy	OK
19.1	2	in	OK	OK	OK
19.1	3	all	Style/register	OK	BAD
19.1	4	:	OK	OK	OK
19.1	5	the	OK	OK	OK
19.1	6	most	Mistranslation	Accuracy	BAD
19.1	7	important	OK	OK	OK
19.1	8	telescopes	OK	OK	OK
30.1	0	imbongi	OK	Accuracy	OK
30.1	1	means	Word_order	Accuracy	OK
30.1	2	on	OK	OK	OK
30.1	3	zulu	OK	Fluency	BAD
30.1	4	storyteller	Spelling	OK	OK
30.1	5	or	OK	Accuracy	OK
30.1	6	lobpreiser	OK	OK	BAD
30.1	7	.	OK	OK	OK
38.1	0	"	OK	OK	OK
38.1	1	the	OK	OK	OK
38.1	2	koran	OK	OK	OK
38.1	3	is	OK	OK	OK
38.1	4	our	OK	OK	OK
38.1	5	constitution	OK	Accuracy	OK
38.1	6	.	OK	OK	OK
38.1	7	"	OK	OK	OK
44.1	0	but	OK	OK	OK
44.1	1	what	OK	OK	OK
44.1	2	of	Part_of_speech	Fluency	BAD
44.1	3	the	Part_of_speech	Fluency	BAD
44.1	4	61-year-old	Part_of_speech	Fluency	BAD
44.1	5	engineer	Part_of_speech	Fluency	BAD
44.1	6	,	OK	OK	OK
44.1	7	who	OK	OK	OK
44.1	8	has	OK	OK	OK
44.1	9	a	OK	OK	OK
44.1	10	doctorate	OK	OK	OK
44.1	11	from	OK	OK	OK
44.1	12	the	OK	OK	OK
44.1	13	american	OK	OK	OK
44.1	14	university	OK	OK	OK
44.1	15	of	OK	OK	OK
44.1	16	southern	OK	OK	OK
44.1	17	california	OK	OK	OK
44.1	18	,	OK	OK	OK
44.1	19	really	OK	OK	OK
44.1	20	wants	OK	OK	OK
44.1	21	to	OK	OK	OK
44.1	22	save	OK	OK	OK
44.1	23	,	OK	OK	OK
44.1	24	as	Grammar	Fluency	BAD
44.1	25	are	Grammar	Fluency	BAD
44.1	26	the	Grammar	Fluency	BAD
44.1	27	egyptians	Grammar	Fluency	BAD
44.1	28	,	Grammar	Fluency	BAD
44.1	29	the	Grammar	Fluency	BAD
44.1	30	world	Grammar	Fluency	BAD
44.1	31	is	Grammar	Fluency	BAD
44.1	32	not	Grammar	Fluency	BAD
44.1	33	entirely	Grammar	Fluency	BAD
44.1	34	clear	OK	OK	OK
44.1	35	.	OK	OK	OK
45.1	0	for	OK	OK	OK
45.1	1	all	OK	OK	OK
45.1	2	of	OK	OK	OK
45.1	3	them	OK	OK	OK
45.1	4	,	OK	OK	OK
45.1	5	until	OK	OK	OK
45.1	6	now	OK	OK	OK
45.1	7	hopelessly	OK	OK	OK
45.1	8	estranged	OK	OK	OK
45.1	9	in	OK	OK	OK
45.1	10	a	OK	OK	OK
45.1	11	bewildered	Mistranslation	Accuracy	BAD
45.1	12	opposition	OK	OK	OK
45.1	13	,	OK	OK	OK
45.1	14	are	OK	OK	OK
45.1	15	fearful	OK	OK	OK
45.1	16	.	OK	OK	OK
47.1	0	the	OK	OK	OK
47.1	1	fabulous	OK	OK	OK
47.1	2	wealth	OK	OK	OK
47.1	3	the	OK	OK	OK
47.1	4	country	OK	OK	OK
47.1	5	owes	OK	OK	OK
47.1	6	its	Part_of_speech	Fluency	BAD
47.1	7	oil	Part_of_speech	Fluency	BAD
47.1	8	in	OK	OK	OK
47.1	9	the	OK	OK	OK
47.1	10	caspian	OK	OK	OK
47.1	11	sea	OK	OK	OK
47.1	12	,	Punctuation	Fluency	BAD
47.1	13	has	OK	OK	OK
47.1	14	not	OK	OK	OK
47.1	15	yet	OK	OK	OK
47.1	16	arrived	OK	OK	OK
47.1	17	in	OK	OK	OK
47.1	18	the	OK	OK	OK
47.1	19	province	OK	OK	OK
47.1	20	.	OK	OK	OK
51.1	0	in	OK	OK	OK
51.1	1	the	OK	OK	OK
51.1	2	next	Word_order	Fluency	BAD
51.1	3	two	Capitalization	OK	OK
51.1	4	instances	Punctuation	OK	OK
51.1	5	,	OK	OK	OK
51.1	6	freudenberg	Morphology_(word_form)	OK	OK
51.1	7	was	Word_order	OK	OK
51.1	8	proven	OK	OK	OK
51.1	9	right	OK	OK	OK
51.1	10	,	OK	OK	OK
51.1	11	however	OK	OK	BAD
51.1	12	the	OK	Accuracy	BAD
51.1	13	opposing	Accuracy	Accuracy	BAD
51.1	14	party	Word_order	Fluency	OK
51.1	15	continues	Word_order	OK	BAD
51.1	16	to	OK	OK	BAD
51.1	17	contest	OK	OK	OK
51.1	18	the	OK	OK	OK
51.1	19	matter	OK	OK	OK
51.1	20	to	OK	OK	OK
51.1	21	this	OK	OK	OK
51.1	22	day	OK	Accuracy	OK
51.1	23	.	OK	OK	OK
55.1	0	the	OK	OK	OK
55.1	1	robert-koch	OK	OK	OK
55.1	2	institute	OK	OK	OK
55.1	3	estimates	OK	OK	BAD
55.1	4	that	OK	OK	OK
55.1	5	at	OK	OK	OK
55.1	6	least	OK	OK	BAD
55.1	7	four	OK	OK	OK
55.1	8	out	OK	OK	OK
55.1	9	of	OK	Accuracy	BAD
55.1	10	five	OK	Accuracy	OK
55.1	11	of	OK	OK	OK
55.1	12	all	Function_words	OK	OK
55.1	13	syphilis	Function_words	Fluency	OK
55.1	14	cases	OK	Fluency	BAD
55.1	15	reported	Mistranslation	Accuracy	OK
55.1	16	in	OK	OK	OK
55.1	17	germany	OK	OK	OK
55.1	18	through	Punctuation	OK	OK
55.1	19	sexual	Untranslated	OK	BAD
55.1	20	contact	Word_order	Fluency	BAD
55.1	21	between	OK	OK	OK
55.1	22	men	Terminology	OK	OK
55.1	23	.	OK	OK	OK
60.1	0	however	OK	OK	OK
60.1	1	,	OK	OK	OK
60.1	2	there	OK	OK	OK
60.1	3	is	OK	OK	OK
60.1	4	not	OK	OK	BAD
60.1	5	a	OK	OK	OK
60.1	6	birth	OK	OK	OK
60.1	7	certificate	OK	OK	OK
60.1	8	.	OK	OK	OK
63.1	0	here	OK	OK	OK
63.1	1	,	OK	OK	OK
63.1	2	humane	Style/register	OK	OK
63.1	3	pappilomaviren	OK	Fluency	OK
63.1	4	also	OK	OK	OK
63.1	5	occur	OK	Fluency	OK
63.1	6	among	Mistranslation	OK	OK
63.1	7	young	OK	OK	OK
63.1	8	people	Terminology	Fluency	BAD
63.1	9	.	OK	OK	OK
65.1	0	"	OK	OK	OK
65.1	1	the	OK	OK	OK
65.1	2	revolution	OK	OK	OK
65.1	3	has	OK	OK	OK
65.1	4	returned	OK	OK	OK
65.1	5	.	OK	OK	OK
65.1	6	"	OK	OK	OK
74.1	0	aggravatingly	OK	OK	OK
74.1	1	comes	OK	OK	OK
74.1	2	that	OK	OK	OK
74.1	3	the	OK	OK	OK
74.1	4	europeans	OK	OK	OK
74.1	5	have	OK	OK	OK
74.1	6	no	OK	OK	OK
74.1	7	coherent	Terminology	Accuracy	BAD
74.1	8	and	OK	OK	OK
74.1	9	uniform	OK	OK	OK
74.1	10	politics	OK	OK	OK
74.1	11	.	OK	OK	OK
77.1	0	similarly	OK	Fluency	BAD
77.1	1	,	Word_order	Fluency	BAD
77.1	2	the	Word_order	Fluency	BAD
77.1	3	phrase	Word_order	Fluency	BAD
77.1	4	seems	Word_order	Fluency	BAD
77.1	5	dubious	Word_order	Fluency	BAD
77.1	6	,	Word_order	Fluency	BAD
77.1	7	"	Word_order	Fluency	BAD
77.1	8	insulting	Word_order	Fluency	BAD
77.1	9	people	Word_order	Fluency	BAD
77.1	10	is	Word_order	Fluency	BAD
77.1	11	prohibited	OK	OK	OK
77.1	12	.	OK	OK	OK
80.1	0	a	OK	OK	OK
80.1	1	bus	OK	OK	OK
80.1	2	full	OK	OK	OK
80.1	3	of	Addition	OK	OK
80.1	4	white	OK	OK	OK
80.1	5	people	OK	OK	OK
80.1	6	,	OK	OK	BAD
80.1	7	who	Mistranslation	Fluency	BAD
80.1	8	sing	OK	Fluency	BAD
80.1	9	songs	OK	OK	OK
80.1	10	in	Word_order	Fluency	OK
80.1	11	a	OK	OK	OK
80.1	12	black	Punctuation	OK	BAD
80.1	13	language	OK	Fluency	BAD
80.1	14	-	Style/register	Fluency	OK
80.1	15	this	Capitalization	OK	OK
80.1	16	degree	Word_order	Fluency	BAD
80.1	17	of	OK	OK	OK
80.1	18	recognition	OK	OK	OK
80.1	19	brings	OK	OK	OK
80.1	20	not	OK	OK	OK
80.1	21	only	OK	OK	OK
80.1	22	morale	OK	OK	OK
80.1	23	and	OK	OK	OK
80.1	24	joy	Word_order	Fluency	OK
80.1	25	,	OK	OK	BAD
80.1	26	but	Word_order	Fluency	BAD
80.1	27	some	Word_order	OK	BAD
80.1	28	grim-faced	OK	OK	OK
80.1	29	border	Spelling	OK	OK
80.1	30	soldiers	OK	OK	OK
80.1	31	even	OK	OK	OK
80.1	32	shed	OK	OK	OK
80.1	33	a	OK	OK	OK
80.1	34	few	OK	OK	OK
80.1	35	tears	OK	OK	OK
80.1	36	.	OK	OK	OK
84.1	0	these	OK	OK	OK
84.1	1	provide	OK	OK	OK
84.1	2	atmosphere	OK	OK	OK
84.1	3	,	OK	OK	OK
84.1	4	but	OK	OK	OK
84.1	5	most	OK	OK	BAD
84.1	6	importantly	OK	OK	OK
84.1	7	,	OK	OK	OK
84.1	8	regulate	OK	OK	OK
84.1	9	the	OK	OK	OK
84.1	10	air	OK	OK	OK
84.1	11	humidity	OK	OK	OK
84.1	12	in	OK	OK	OK
84.1	13	the	OK	Fluency	BAD
84.1	14	literary	OK	OK	OK
84.1	15	mountain	OK	OK	OK
84.1	16	range	OK	OK	OK
84.1	17	.	OK	OK	OK
85.1	0	although	OK	OK	OK
85.1	1	the	OK	Accuracy	OK
85.1	2	books	OK	OK	BAD
85.1	3	mountain	OK	OK	OK
85.1	4	is	OK	OK	OK
85.1	5	under	OK	OK	OK
85.1	6	a	OK	OK	OK
85.1	7	glass	Mistranslation	Accuracy	OK
85.1	8	of	OK	OK	OK
85.1	9	fall	OK	OK	OK
85.1	10	,	OK	OK	OK
85.1	11	the	Function_words	OK	BAD
85.1	12	sun	Mistranslation	OK	OK
85.1	13	shines	Tense/aspect/mood	OK	OK
85.1	14	even	Omission	Fluency	OK
85.1	15	on	Morphology_(word_form)	Fluency	OK
85.1	16	sunny	OK	Accuracy	OK
85.1	17	days	OK	OK	OK
85.1	18	,	OK	OK	OK
85.1	19	briefly	OK	Fluency	OK
85.1	20	into	OK	OK	OK
85.1	21	the	Mistranslation	OK	OK
85.1	22	interior	OK	OK	OK
85.1	23	.	OK	OK	OK
90.1	0	"	OK	OK	OK
90.1	1	and	OK	OK	OK
90.1	2	now	OK	OK	OK
90.1	3	the	OK	Fluency	OK
90.1	4	word	Word_order	OK	OK
90.1	5	is	OK	Fluency	OK
90.1	6	not	OK	Fluency	OK
90.1	7	even	OK	OK	OK
90.1	8	human	OK	Fluency	OK
90.1	9	rights	OK	OK	BAD
90.1	10	in	Function_words	OK	OK
90.1	11	the	OK	OK	OK
90.1	12	new	OK	OK	OK
90.1	13	constitution	OK	OK	OK
90.1	14	,	Punctuation	OK	OK
90.1	15	"	OK	OK	OK
90.1	16	he	OK	OK	OK
90.1	17	laments	OK	OK	OK
90.1	18	in	OK	OK	OK
90.1	19	conversation	Mistranslation	OK	OK
90.1	20	with	Word_order	Fluency	BAD
90.1	21	the	OK	OK	BAD
90.1	22	"	OK	OK	OK
90.1	23	world	OK	OK	BAD
90.1	24	on	OK	OK	OK
90.1	25	sunday	OK	OK	OK
90.1	26	.	OK	OK	OK
90.1	27	"	OK	OK	OK
92.1	0	nevertheless	OK	OK	OK
92.1	1	,	OK	OK	OK
92.1	2	he	OK	OK	OK
92.1	3	reaches	OK	Fluency	OK
92.1	4	a	OK	OK	OK
92.1	5	diameter	OK	OK	OK
92.1	6	from	OK	OK	OK
92.1	7	about	Punctuation	OK	OK
92.1	8	eleven	OK	OK	OK
92.1	9	metres	OK	OK	OK
92.1	10	.	OK	OK	OK
94.1	0	in	OK	OK	OK
94.1	1	heidelberg	OK	OK	OK
94.1	2	the	OK	Fluency	BAD
94.1	3	choir	Word_order	OK	OK
94.1	4	rehearses	Mistranslation	OK	OK
94.1	5	imbongi	OK	OK	OK
94.1	6	-	OK	OK	OK
94.1	7	and	OK	OK	OK
94.1	8	in	OK	Fluency	OK
94.1	9	swaziland	OK	OK	BAD
94.1	10	aids	OK	OK	OK
94.1	11	orphans	OK	Fluency	OK
94.1	12	are	OK	OK	OK
94.1	13	glad	OK	Accuracy	BAD
94.1	14	about	OK	OK	OK
94.1	15	it	OK	OK	OK
94.1	16	.	OK	OK	OK
95.1	0	everybody	OK	OK	OK
95.1	1	has	OK	OK	OK
95.1	2	internet	OK	OK	OK
95.1	3	,	OK	OK	OK
95.1	4	ipad	OK	OK	OK
95.1	5	and	OK	OK	OK
95.1	6	e-books	OK	OK	OK
95.1	7	.	OK	OK	OK
96.1	0	this	OK	OK	OK
96.1	1	plays	OK	OK	OK
96.1	2	anyway	OK	OK	OK
96.1	3	a	OK	OK	BAD
96.1	4	role	OK	OK	BAD
96.1	5	.	Word_order	OK	OK
97.1	0	the	OK	OK	OK
97.1	1	germans	OK	OK	OK
97.1	2	appear	OK	OK	OK
97.1	3	so	Mistranslation	Fluency	BAD
97.1	4	between	Function_words	Accuracy	BAD
97.1	5	the	OK	Fluency	OK
97.1	6	fronts	Word_order	OK	OK
97.1	7	.	Word_order	OK	OK
102.1	0	these	OK	OK	OK
102.1	1	dishes	Word_order	OK	OK
102.1	2	served	OK	OK	OK
102.1	3	during	Fluency	Fluency	BAD
102.1	4	mubarak	Grammar	Fluency	BAD
102.1	5	's	Grammar	OK	OK
102.1	6	rule	Grammar	OK	OK
102.1	7	on	OK	OK	BAD
102.1	8	the	OK	Fluency	OK
102.1	9	repression	OK	OK	OK
102.1	10	of	OK	OK	OK
102.1	11	political	OK	OK	OK
102.1	12	opponents	OK	OK	OK
102.1	13	.	OK	OK	OK
105.1	0	a	OK	OK	BAD
105.1	1	demonstrator	OK	OK	OK
105.1	2	on	OK	OK	OK
105.1	3	the	OK	OK	BAD
105.1	4	tahrir	Terminology	Fluency	OK
105.1	5	warns	OK	Fluency	OK
105.1	6	:	OK	OK	OK
105.1	7	"	Unintelligible	OK	OK
105.1	8	you	OK	OK	BAD
105.1	9	gebährt	OK	OK	BAD
105.1	10	a	OK	OK	OK
105.1	11	monster	Terminology	Accuracy	OK
105.1	12	whom	OK	OK	OK
105.1	13	you	OK	OK	OK
105.1	14	cannot	OK	OK	BAD
105.1	15	control	Part_of_speech	Accuracy	BAD
105.1	16	any	Word_order	OK	OK
105.1	17	more	OK	OK	OK
105.1	18	.	OK	OK	OK
105.1	19	"	OK	OK	BAD
107.1	0	"	Function_words	OK	OK
107.1	1	the	OK	OK	OK
107.1	2	bookshelves	OK	OK	OK
107.1	3	stand	OK	OK	OK
107.1	4	ordinarily	OK	OK	OK
107.1	5	along	OK	OK	OK
107.1	6	the	OK	OK	OK
107.1	7	facade	OK	OK	OK
107.1	8	,	OK	OK	OK
107.1	9	and	OK	OK	OK
107.1	10	in	OK	OK	OK
107.1	11	the	OK	OK	OK
107.1	12	middle	OK	OK	OK
107.1	13	lies	OK	OK	OK
107.1	14	a	OK	OK	OK
107.1	15	big	OK	OK	OK
107.1	16	,	OK	OK	OK
107.1	17	dark	OK	OK	OK
107.1	18	space	OK	OK	OK
107.1	19	which	Mistranslation	OK	OK
107.1	20	is	OK	OK	OK
107.1	21	mostly	OK	OK	OK
107.1	22	uncomfortable	OK	Accuracy	OK
107.1	23	and	OK	OK	OK
107.1	24	impersonal	OK	OK	OK
107.1	25	"	OK	OK	OK
107.1	26	,	OK	OK	OK
107.1	27	says	OK	OK	OK
107.1	28	winy	OK	OK	OK
107.1	29	the	OK	OK	OK
107.1	30	meuse	OK	OK	OK
107.1	31	.	OK	OK	OK
109.1	0	unnoticed	OK	OK	OK
109.1	1	by	OK	OK	OK
109.1	2	the	OK	OK	OK
109.1	3	people	OK	OK	OK
109.1	4	of	OK	OK	OK
109.1	5	the	OK	OK	OK
109.1	6	earth	OK	OK	OK
109.1	7	probes	OK	OK	OK
109.1	8	,	OK	OK	OK
109.1	9	telescopes	OK	OK	OK
109.1	10	and	OK	OK	OK
109.1	11	small	OK	OK	OK
109.1	12	robots	OK	OK	OK
109.1	13	like	OK	OK	OK
109.1	14	phoenix	OK	OK	OK
109.1	15	is	Agreement	Fluency	BAD
109.1	16	to	Tense/aspect/mood	Fluency	BAD
109.1	17	explore	Tense/aspect/mood	Fluency	BAD
109.1	18	the	OK	OK	OK
109.1	19	depths	OK	OK	OK
109.1	20	of	OK	OK	OK
109.1	21	the	OK	OK	OK
109.1	22	universe	OK	OK	OK
109.1	23	.	OK	OK	OK
113.1	0	the	OK	OK	OK
113.1	1	80,000-inhabitant	OK	OK	OK
113.1	2	municipality	OK	OK	OK
113.1	3	shows	Word_order	OK	BAD
113.1	4	the	OK	OK	OK
113.1	5	lowest	OK	OK	OK
113.1	6	educational	OK	Accuracy	BAD
113.1	7	rate	OK	OK	OK
113.1	8	of	OK	OK	OK
113.1	9	the	OK	OK	OK
113.1	10	whole	OK	OK	OK
113.1	11	netherlands	OK	OK	OK
113.1	12	.	OK	OK	OK
114.1	0	the	OK	OK	OK
114.1	1	mini-bus	OK	OK	OK
114.1	2	rumbled	OK	OK	OK
114.1	3	through	Function_words	Fluency	OK
114.1	4	the	Function_words	OK	BAD
114.1	5	winding	OK	Fluency	OK
114.1	6	road	OK	Fluency	OK
114.1	7	,	OK	OK	OK
114.1	8	past	Terminology	OK	BAD
114.1	9	densely	OK	OK	BAD
114.1	10	wooded	OK	OK	OK
114.1	11	hills	OK	OK	OK
114.1	12	,	OK	OK	OK
114.1	13	rushing	OK	OK	BAD
114.1	14	rivers	OK	Fluency	OK
114.1	15	and	OK	OK	OK
114.1	16	simple	OK	OK	OK
114.1	17	farmhouses	OK	OK	OK
114.1	18	.	OK	OK	OK
115.1	0	almost	OK	OK	OK
115.1	1	57,000	Mistranslation	OK	OK
115.1	2	such	OK	OK	BAD
115.1	3	cased	Accuracy	Accuracy	BAD
115.1	4	were	OK	Fluency	OK
115.1	5	closed	OK	OK	OK
115.1	6	,	OK	OK	OK
115.1	7	75	OK	OK	OK
115.1	8	percent	OK	OK	OK
115.1	9	more	Part_of_speech	OK	OK
115.1	10	than	OK	OK	OK
115.1	11	in	OK	OK	OK
115.1	12	the	OK	OK	OK
115.1	13	previous	Word_order	OK	BAD
115.1	14	year	Word_order	OK	OK
115.1	15	.	OK	OK	BAD
118.1	0	so	OK	OK	OK
118.1	1	young	OK	OK	OK
118.1	2	and	OK	OK	OK
118.1	3	uneducated	OK	OK	BAD
118.1	4	,	OK	OK	OK
118.1	5	they	Terminology	OK	OK
118.1	6	may	OK	OK	OK
118.1	7	be	OK	OK	OK
118.1	8	.	OK	OK	OK
131.1	0	"	OK	OK	OK
131.1	1	i	OK	OK	OK
131.1	2	think	OK	OK	OK
131.1	3	,	OK	OK	OK
131.1	4	now	OK	OK	BAD
131.1	5	thanks	OK	OK	OK
131.1	6	to	Spelling	OK	OK
131.1	7	our	Word_order	OK	OK
131.1	8	invitation	Addition	Fluency	OK
131.1	9	every	Morphology_(word_form)	Fluency	BAD
131.1	10	inhabitant	Mistranslation	OK	OK
131.1	11	has	Word_order	OK	OK
131.1	12	a	OK	OK	OK
131.1	13	certain	Function_words	OK	OK
131.1	14	respect	OK	OK	OK
131.1	15	with	Function_words	OK	BAD
131.1	16	this	OK	Fluency	OK
131.1	17	new	OK	OK	OK
131.1	18	house	OK	Fluency	OK
131.1	19	.	OK	OK	OK
134.1	0	but	OK	OK	OK
134.1	1	i	OK	OK	OK
134.1	2	wonder	OK	OK	OK
134.1	3	what	OK	OK	OK
134.1	4	we	OK	OK	BAD
134.1	5	still	Word_order	OK	OK
134.1	6	need	OK	OK	OK
134.1	7	a	OK	OK	OK
134.1	8	library	Accuracy	Accuracy	OK
134.1	9	.	OK	OK	OK
142.1	0	the	OK	OK	OK
142.1	1	messenger	Mistranslation	OK	OK
142.1	2	probe	OK	OK	OK
142.1	3	has	Punctuation	Fluency	BAD
142.1	4	found	OK	Fluency	OK
142.1	5	evidence	OK	OK	OK
142.1	6	that	OK	OK	OK
142.1	7	there	OK	OK	OK
142.1	8	is	Mistranslation	OK	OK
142.1	9	on	Function_words	Fluency	OK
142.1	10	the	OK	OK	OK
142.1	11	planet	OK	OK	OK
142.1	12	mercury	OK	Accuracy	BAD
142.1	13	ice	OK	OK	OK
142.1	14	.	OK	OK	OK
143.1	0	due	OK	OK	OK
143.1	1	to	OK	OK	OK
143.1	2	lacking	OK	OK	OK
143.1	3	documentation	OK	OK	OK
143.1	4	,	OK	OK	OK
143.1	5	however	OK	OK	OK
143.1	6	,	OK	OK	OK
143.1	7	there	OK	OK	OK
143.1	8	is	OK	OK	OK
143.1	9	no	OK	OK	OK
143.1	10	scientific	OK	OK	OK
143.1	11	proof	Mistranslation	Accuracy	BAD
143.1	12	of	Mistranslation	Accuracy	BAD
143.1	13	age	Mistranslation	Accuracy	BAD
143.1	14	,	OK	OK	OK
143.1	15	particularly	OK	OK	OK
143.1	16	as	OK	OK	OK
143.1	17	there	OK	OK	OK
143.1	18	are	OK	OK	OK
143.1	19	no	OK	OK	OK
143.1	20	birth	Terminology	Accuracy	BAD
143.1	21	registers	OK	OK	OK
143.1	22	.	OK	OK	OK
145.1	0	the	OK	OK	OK
145.1	1	messenger	OK	OK	BAD
145.1	2	probe	OK	Fluency	OK
145.1	3	has	OK	OK	OK
145.1	4	found	OK	OK	OK
145.1	5	evidence	OK	OK	OK
145.1	6	that	OK	OK	OK
145.1	7	there	OK	OK	OK
145.1	8	is	OK	OK	OK
145.1	9	an	OK	Fluency	BAD
145.1	10	ice	OK	OK	OK
145.1	11	cover	OK	OK	OK
145.1	12	in	OK	OK	OK
145.1	13	the	OK	OK	OK
145.1	14	region	Terminology	OK	OK
145.1	15	of	Word_order	OK	OK
145.1	16	the	OK	Fluency	BAD
145.1	17	planet	OK	OK	OK
145.1	18	that	Mistranslation	Accuracy	BAD
145.1	19	lies	OK	OK	OK
145.1	20	permanently	Terminology	OK	OK
145.1	21	in	OK	OK	OK
145.1	22	shadow	Word_order	OK	OK
145.1	23	.	OK	OK	OK
146.1	0	but	OK	OK	OK
146.1	1	pilata	OK	OK	OK
146.1	2	fatulayeva	OK	OK	OK
146.1	3	(	OK	OK	OK
146.1	4	48	OK	OK	OK
146.1	5	)	OK	OK	OK
146.1	6	is	OK	OK	OK
146.1	7	convinced	OK	OK	OK
146.1	8	that	OK	OK	OK
146.1	9	lerik	OK	OK	OK
146.1	10	has	Mistranslation	Accuracy	BAD
146.1	11	the	Mistranslation	Accuracy	BAD
146.1	12	stuff	Mistranslation	Accuracy	BAD
146.1	13	to	Mistranslation	Accuracy	BAD
146.1	14	the	OK	OK	OK
146.1	15	tourist	OK	OK	OK
146.1	16	attraction	OK	OK	OK
146.1	17	.	OK	OK	OK
147.1	0	but	OK	OK	OK
147.1	1	i	OK	OK	OK
147.1	2	would	OK	OK	OK
147.1	3	not	Word_order	Fluency	OK
147.1	4	want	OK	Fluency	OK
147.1	5	to	OK	OK	BAD
147.1	6	give	Word_order	OK	OK
147.1	7	too	OK	OK	OK
147.1	8	much	OK	OK	OK
147.1	9	weight	Addition	OK	BAD
147.1	10	,	OK	OK	OK
147.1	11	which	OK	Fluency	OK
147.1	12	is	OK	OK	OK
147.1	13	not	OK	OK	OK
147.1	14	a	OK	OK	OK
147.1	15	totally	OK	OK	OK
147.1	16	one-sided	OK	OK	OK
147.1	17	relationship	OK	OK	OK
147.1	18	.	OK	OK	OK
148.1	0	in	OK	OK	OK
148.1	1	the	OK	OK	OK
148.1	2	village	OK	OK	OK
148.1	3	itself	OK	Accuracy	BAD
148.1	4	zodwa	Tense/aspect/mood	Fluency	OK
148.1	5	dlamini	OK	OK	OK
148.1	6	,	OK	OK	OK
148.1	7	a	OK	OK	OK
148.1	8	self-confident	OK	OK	OK
148.1	9	and	OK	OK	OK
148.1	10	penetration-strong	OK	OK	OK
148.1	11	woman	OK	Fluency	BAD
148.1	12	,	OK	OK	OK
148.1	13	the	OK	OK	OK
148.1	14	money	OK	OK	OK
148.1	15	from	OK	OK	BAD
148.1	16	germany	Word_order	OK	OK
148.1	17	administers	OK	OK	OK
148.1	18	.	OK	OK	OK
153.1	0	in	OK	OK	BAD
153.1	1	this	OK	OK	BAD
153.1	2	way	OK	OK	BAD
153.1	3	the	OK	OK	OK
153.1	4	evolution	Agreement	OK	OK
153.1	5	of	OK	OK	OK
153.1	6	an	OK	OK	OK
153.1	7	own	OK	OK	OK
153.1	8	isolated	Terminology	Fluency	OK
153.1	9	hominid	OK	OK	OK
153.1	10	kind	OK	OK	OK
153.1	11	is	OK	OK	OK
153.1	12	impossible	OK	OK	OK
153.1	13	,	OK	OK	OK
153.1	14	deduce	OK	OK	BAD
153.1	15	the	OK	OK	OK
153.1	16	researchers	OK	OK	OK
153.1	17	.	OK	OK	OK
156.1	0	the	OK	OK	OK
156.1	1	hype	OK	OK	OK
156.1	2	does	OK	OK	OK
156.1	3	not	OK	OK	OK
156.1	4	take	OK	OK	OK
156.1	5	any	OK	OK	OK
156.1	6	end	OK	OK	OK
156.1	7	,	OK	OK	OK
156.1	8	and	OK	OK	OK
156.1	9	it	Mistranslation	OK	OK
156.1	10	states	OK	Accuracy	BAD
156.1	11	presumably	Spelling	OK	OK
156.1	12	more	Word_order	Fluency	OK
156.1	13	about	Word_order	OK	BAD
156.1	14	the	OK	OK	OK
156.1	15	mode	Word_order	OK	BAD
156.1	16	of	Word_order	OK	BAD
156.1	17	operation	Grammar	OK	OK
156.1	18	of	OK	OK	OK
156.1	19	the	OK	Accuracy	BAD
156.1	20	media	OK	OK	OK
156.1	21	society	Part_of_speech	OK	BAD
156.1	22	than	OK	OK	OK
156.1	23	about	OK	OK	OK
156.1	24	the	OK	OK	OK
156.1	25	kitchen	OK	OK	OK
156.1	26	of	OK	OK	OK
156.1	27	the	OK	OK	OK
156.1	28	present	OK	OK	OK
156.1	29	.	OK	OK	OK
157.1	0	the	OK	OK	OK
157.1	1	user	OK	OK	OK
157.1	2	declares	Mistranslation	Accuracy	OK
157.1	3	himself	OK	Accuracy	OK
157.1	4	agreed	Word_order	OK	BAD
157.1	5	on	OK	OK	BAD
157.1	6	his	Mistranslation	Fluency	OK
157.1	7	personal	OK	Fluency	BAD
157.1	8	data	OK	OK	OK
157.1	9	being	OK	Accuracy	BAD
157.1	10	stored	OK	OK	BAD
157.1	11	by	OK	OK	OK
157.1	12	the	Style/register	OK	OK
157.1	13	provider	Word_order	Accuracy	OK
157.1	14	in	OK	OK	OK
157.1	15	electronic	Mistranslation	OK	BAD
157.1	16	form	OK	OK	OK
157.1	17	.	OK	OK	OK
162.1	0	a	OK	OK	OK
162.1	1	million	OK	OK	OK
162.1	2	dollars	OK	OK	OK
162.1	3	because	Word_order	OK	OK
162.1	4	the	Word_order	OK	OK
162.1	5	iphone	OK	OK	BAD
162.1	6	is	OK	OK	OK
162.1	7	too	OK	OK	OK
162.1	8	cheap	OK	OK	OK
163.1	0	whole	OK	OK	OK
163.1	1	living	OK	OK	OK
163.1	2	spaces	Morphology_(word_form)	OK	BAD
163.1	3	around	OK	OK	OK
163.1	4	the	OK	OK	OK
163.1	5	globe	Word_order	OK	OK
163.1	6	stand	OK	OK	OK
163.1	7	before	OK	OK	OK
163.1	8	dramatic	Word_order	Accuracy	OK
163.1	9	changes	OK	Fluency	BAD
163.1	10	.	OK	OK	OK
165.1	0	in	OK	OK	OK
165.1	1	some	OK	OK	OK
165.1	2	branches	OK	Fluency	OK
165.1	3	,	OK	OK	OK
165.1	4	as	OK	OK	OK
165.1	5	about	OK	OK	OK
165.1	6	the	OK	OK	OK
165.1	7	trade	OK	Accuracy	OK
165.1	8	or	OK	OK	OK
165.1	9	the	OK	OK	OK
165.1	10	social	Terminology	OK	OK
165.1	11	and	Terminology	OK	BAD
165.1	12	health	OK	OK	BAD
165.1	13	being	OK	Accuracy	OK
165.1	14	,	OK	OK	OK
165.1	15	the	OK	Fluency	OK
165.1	16	working	OK	OK	OK
165.1	17	conditions	Terminology	OK	BAD
165.1	18	worsen	Agreement	OK	BAD
165.1	19	in	OK	OK	OK
165.1	20	the	OK	OK	BAD
165.1	21	practice	OK	OK	OK
165.1	22	increasingly	OK	OK	OK
165.1	23	at	OK	OK	OK
165.1	24	the	OK	OK	OK
165.1	25	expense	OK	OK	OK
165.1	26	of	OK	OK	OK
165.1	27	the	OK	OK	OK
165.1	28	employees	OK	OK	OK
165.1	29	:	OK	OK	OK
168.1	0	next	OK	OK	OK
168.1	1	to	OK	OK	OK
168.1	2	the	OK	OK	OK
168.1	3	model	OK	OK	OK
168.1	4	offensive	OK	OK	OK
168.1	5	the	OK	OK	OK
168.1	6	bmw	OK	OK	OK
168.1	7	group	OK	OK	OK
168.1	8	and	OK	OK	OK
168.1	9	the	OK	OK	OK
168.1	10	climbed	OK	OK	OK
168.1	11	customer	OK	OK	OK
168.1	12	expectations	OK	OK	OK
168.1	13	has	OK	OK	OK
168.1	14	contributed	Function_words	Accuracy	OK
168.1	15	the	OK	OK	OK
168.1	16	successful	OK	OK	OK
168.1	17	business	OK	OK	OK
168.1	18	development	OK	OK	OK
168.1	19	of	OK	Fluency	BAD
168.1	20	bmw	OK	OK	OK
168.1	21	in	OK	OK	OK
168.1	22	berlin	OK	OK	BAD
168.1	23	considerably	OK	OK	OK
168.1	24	to	OK	Fluency	OK
168.1	25	this	OK	OK	BAD
168.1	26	decision	Mistranslation	OK	OK
168.1	27	.	OK	OK	OK
169.1	0	since	OK	OK	OK
169.1	1	2005	OK	OK	OK
169.1	2	the	OK	Fluency	OK
169.1	3	gigantic	Terminology	OK	BAD
169.1	4	iceberg	Mistranslation	OK	BAD
169.1	5	was	Untranslated	OK	OK
169.1	6	a53a	OK	OK	OK
169.1	7	on	Function_words	Fluency	BAD
169.1	8	the	Grammar	Fluency	OK
169.1	9	way	OK	OK	OK
169.1	10	through	OK	OK	OK
169.1	11	the	OK	OK	OK
169.1	12	south	OK	OK	OK
169.1	13	atlantic	OK	OK	OK
169.1	14	.	OK	OK	OK
174.1	0	timoschenko	OK	OK	OK
174.1	1	and	OK	OK	OK
174.1	2	juschtschenko	Function_words	OK	BAD
174.1	3	are	Punctuation	OK	OK
174.1	4	agreed	OK	OK	OK
174.1	5	that	OK	OK	OK
174.1	6	the	OK	OK	OK
174.1	7	country	Style/register	Fluency	BAD
174.1	8	needs	OK	OK	OK
174.1	9	a	OK	Fluency	BAD
174.1	10	new	OK	Accuracy	OK
174.1	11	constitution	OK	OK	BAD
174.1	12	to	Tense/aspect/mood	OK	BAD
174.1	13	themselves	OK	OK	OK
174.1	14	.	OK	OK	OK
176.1	0	in	OK	Accuracy	OK
176.1	1	order	OK	OK	OK
176.1	2	to	Mistranslation	OK	BAD
176.1	3	negotiate	OK	OK	OK
176.1	4	to	OK	OK	BAD
176.1	5	children	Mistranslation	OK	BAD
176.1	6	,	OK	Fluency	BAD
176.1	7	which	OK	OK	BAD
176.1	8	the	OK	OK	OK
176.1	9	conditions	OK	OK	OK
176.1	10	of	OK	OK	OK
176.1	11	a	OK	Accuracy	OK
176.1	12	burning-process	OK	OK	OK
176.1	13	are	OK	OK	OK
176.1	14	,	OK	OK	OK
176.1	15	the	OK	OK	OK
176.1	16	„	Word_order	Accuracy	OK
176.1	17	combustion	Terminology	Accuracy	BAD
176.1	18	house	OK	OK	OK
176.1	19	"	OK	OK	OK
176.1	20	was	OK	OK	OK
176.1	21	developed	OK	OK	OK
176.1	22	following	OK	OK	OK
176.1	23	the	OK	OK	OK
176.1	24	combustion	Mistranslation	OK	OK
176.1	25	triangle	OK	OK	BAD
176.1	26	.	OK	OK	OK
177.1	0	and	OK	OK	OK
177.1	1	they	OK	OK	OK
177.1	2	go	OK	OK	OK
177.1	3	out	OK	OK	OK
177.1	4	of	OK	Accuracy	OK
177.1	5	the	OK	Fluency	BAD
177.1	6	mentality	OK	OK	OK
177.1	7	of	OK	OK	OK
177.1	8	swiss	OK	Accuracy	OK
177.1	9	and	OK	Accuracy	OK
177.1	10	germans	OK	OK	OK
177.1	11	being	OK	Fluency	BAD
177.1	12	the	OK	OK	OK
177.1	13	same	OK	OK	OK
177.1	14	one	OK	Fluency	BAD
177.1	15	.	OK	OK	OK
179.1	0	in	OK	OK	OK
179.1	1	some	OK	OK	OK
179.1	2	fields	OK	OK	OK
179.1	3	of	OK	OK	OK
179.1	4	asia	Word_order	OK	OK
179.1	5	(	OK	OK	BAD
179.1	6	e.g.	OK	OK	OK
179.1	7	nepal	OK	OK	OK
179.1	8	)	OK	OK	OK
179.1	9	the	OK	OK	OK
179.1	10	mellifera	OK	OK	OK
179.1	11	is	OK	OK	BAD
179.1	12	in	OK	OK	OK
179.1	13	addition	OK	OK	BAD
179.1	14	propagated	OK	OK	OK
179.1	15	by	Part_of_speech	OK	OK
179.1	16	skillful	OK	OK	OK
179.1	17	profiteers	OK	OK	OK
179.1	18	strongly	Word_order	OK	OK
179.1	19	.	OK	OK	OK
181.1	0	also	OK	OK	OK
181.1	1	microsoft	Capitalization	OK	BAD
181.1	2	office	OK	OK	OK
181.1	3	2007	Unintelligible	OK	OK
181.1	4	supports	OK	OK	BAD
181.1	5	the	Mistranslation	Fluency	OK
181.1	6	transformation	Untranslated	OK	OK
181.1	7	according	Fluency	OK	OK
181.1	8	to	Typography	OK	OK
181.1	9	pdf	Mistranslation	OK	OK
181.1	10	/	OK	OK	OK
181.1	11	a	OK	OK	OK
181.1	12	,	OK	OK	OK
181.1	13	and	OK	OK	OK
181.1	14	that	OK	OK	OK
181.1	15	is	Word_order	OK	OK
181.1	16	a	OK	OK	OK
181.1	17	further	OK	Fluency	OK
181.1	18	tip	OK	OK	BAD
181.1	19	for	OK	OK	OK
181.1	20	the	OK	OK	OK
181.1	21	importance	OK	OK	OK
181.1	22	of	Function_words	OK	BAD
181.1	23	the	OK	OK	OK
181.1	24	pdf	OK	OK	OK
181.1	25	/	OK	OK	OK
181.1	26	a	OK	OK	OK
181.1	27	standard	OK	OK	BAD
181.1	28	.	OK	OK	OK
183.1	0	the	OK	OK	OK
183.1	1	gdr-science	OK	OK	OK
183.1	2	gave	OK	OK	OK
183.1	3	in	OK	OK	OK
183.1	4	1990	OK	OK	OK
183.1	5	„	Terminology	OK	OK
183.1	6	a	OK	OK	BAD
183.1	7	picture	Mistranslation	OK	OK
183.1	8	of	OK	OK	OK
183.1	9	the	OK	OK	OK
183.1	10	decay	OK	OK	OK
183.1	11	“	OK	OK	OK
183.1	12	,	OK	OK	OK
183.1	13	said	OK	OK	OK
183.1	14	schipanski	OK	OK	OK
183.1	15	.	OK	OK	OK
190.1	0	the	OK	OK	OK
190.1	1	so-called	OK	OK	OK
190.1	2	chat	OK	OK	OK
190.1	3	rooms	OK	OK	OK
190.1	4	are	OK	Fluency	OK
190.1	5	an	OK	OK	OK
190.1	6	element	OK	OK	OK
190.1	7	which	Grammar	Fluency	BAD
190.1	8	realizes	OK	OK	OK
190.1	9	the	OK	Accuracy	BAD
190.1	10	communicative	Mistranslation	OK	OK
190.1	11	thought	Mistranslation	OK	OK
190.1	12	in	OK	OK	BAD
190.1	13	high	OK	OK	BAD
190.1	14	measure	OK	Fluency	OK
190.1	15	.	OK	OK	OK
194.1	0	it	OK	OK	OK
194.1	1	achieves	OK	OK	OK
194.1	2	in	OK	OK	OK
194.1	3	this	Mistranslation	OK	OK
194.1	4	way	OK	OK	OK
194.1	5	a	OK	OK	OK
194.1	6	contribution	OK	OK	BAD
194.1	7	to	OK	Fluency	OK
194.1	8	the	OK	OK	OK
194.1	9	prevention	OK	OK	OK
194.1	10	of	OK	OK	OK
194.1	11	the	OK	OK	OK
194.1	12	re-nationalization	OK	OK	OK
194.1	13	of	OK	OK	BAD
194.1	14	security	OK	Fluency	BAD
194.1	15	and	OK	OK	OK
194.1	16	defense	OK	Fluency	OK
194.1	17	politics	OK	OK	OK
194.1	18	in	OK	OK	OK
194.1	19	the	OK	OK	OK
194.1	20	present	OK	OK	OK
194.1	21	europe	OK	OK	OK
194.1	22	.	OK	OK	OK
198.1	0	the	OK	OK	OK
198.1	1	business	OK	OK	OK
198.1	2	administration	OK	OK	OK
198.1	3	deals	OK	OK	OK
198.1	4	with	OK	OK	OK
198.1	5	the	OK	OK	OK
198.1	6	economical	OK	OK	OK
198.1	7	connections	OK	OK	OK
198.1	8	and	OK	OK	OK
198.1	9	lawfulness	Untranslated	OK	BAD
198.1	10	of	OK	Fluency	OK
198.1	11	single	Word_order	OK	OK
198.1	12	enterprises	OK	Accuracy	BAD
198.1	13	and	Mistranslation	OK	OK
198.1	14	supplies	OK	OK	OK
198.1	15	findings	OK	OK	OK
198.1	16	for	OK	OK	OK
198.1	17	company	OK	OK	OK
198.1	18	internal	Word_order	OK	OK
198.1	19	structures	OK	OK	OK
198.1	20	and	OK	OK	OK
198.1	21	processes	Word_order	OK	OK
198.1	22	.	OK	OK	OK
200.1	0	also	OK	OK	OK
200.1	1	the	OK	OK	OK
200.1	2	room	Mistranslation	Accuracy	BAD
200.1	3	offer	Terminology	OK	BAD
200.1	4	increased	Unintelligible	Accuracy	OK
200.1	5	.	OK	OK	OK
203.1	0	that	OK	OK	OK
203.1	1	is	OK	OK	OK
203.1	2	one	OK	OK	OK
203.1	3	of	OK	OK	BAD
203.1	4	many	OK	OK	OK
203.1	5	possible	OK	OK	OK
203.1	6	paraphrases	OK	Fluency	BAD
203.1	7	of	OK	Fluency	BAD
203.1	8	his	OK	OK	OK
203.1	9	"	Style/register	OK	BAD
203.1	10	freedom	OK	OK	OK
203.1	11	at	OK	OK	BAD
203.1	12	the	OK	OK	OK
203.1	13	band	OK	OK	OK
203.1	14	of	OK	OK	OK
203.1	15	the	OK	OK	OK
203.1	16	necessity	OK	OK	OK
203.1	17	"	OK	OK	OK
203.1	18	.	OK	OK	OK
205.1	0	the	OK	OK	OK
205.1	1	railroad	OK	OK	OK
205.1	2	is	OK	OK	OK
205.1	3	after	Terminology	Accuracy	BAD
205.1	4	all	OK	OK	OK
205.1	5	also	OK	Fluency	BAD
205.1	6	the	OK	OK	OK
205.1	7	engineer	OK	OK	BAD
205.1	8	of	OK	OK	OK
205.1	9	the	OK	OK	OK
205.1	10	hybrid	OK	OK	OK
205.1	11	engine	OK	Accuracy	OK
205.1	12	.	OK	OK	OK
212.1	0	central	OK	OK	OK
212.1	1	points	OK	OK	OK
212.1	2	are	OK	OK	OK
212.1	3	the	OK	OK	OK
212.1	4	strengthening	OK	OK	OK
212.1	5	of	OK	OK	OK
212.1	6	the	OK	OK	OK
212.1	7	attractivity	OK	OK	OK
212.1	8	as	OK	OK	OK
212.1	9	destination	OK	OK	OK
212.1	10	,	OK	OK	OK
212.1	11	improvement	OK	OK	OK
212.1	12	of	OK	OK	OK
212.1	13	the	OK	OK	OK
212.1	14	offer	OK	OK	OK
212.1	15	quality	OK	OK	OK
212.1	16	and	OK	OK	OK
212.1	17	promotion	Terminology	OK	OK
212.1	18	of	OK	OK	OK
212.1	19	the	OK	OK	OK
212.1	20	social	OK	OK	OK
212.1	21	tourism	OK	OK	OK
212.1	22	.	OK	OK	OK
213.1	0	„	OK	OK	OK
213.1	1	economic	OK	OK	OK
213.1	2	refugees	OK	OK	BAD
213.1	3	"	OK	OK	OK
213.1	4	are	OK	OK	OK
213.1	5	mentioned	Word_order	Accuracy	OK
213.1	6	those	OK	Fluency	BAD
213.1	7	ones	Mistranslation	OK	BAD
213.1	8	who	OK	Accuracy	BAD
213.1	9	flee	OK	OK	OK
213.1	10	from	OK	OK	OK
213.1	11	the	OK	OK	OK
213.1	12	poverty	OK	OK	OK
213.1	13	which	OK	OK	OK
213.1	14	the	OK	OK	OK
213.1	15	company	OK	OK	OK
213.1	16	groups	OK	OK	OK
213.1	17	of	OK	OK	OK
213.1	18	the	OK	OK	OK
213.1	19	g8	OK	OK	OK
213.1	20	countries	OK	OK	OK
213.1	21	and	OK	OK	OK
213.1	22	their	OK	OK	OK
213.1	23	governments	OK	Fluency	OK
213.1	24	cause	OK	OK	OK
213.1	25	and	OK	OK	OK
213.1	26	deepen	OK	OK	OK
213.1	27	.	OK	OK	OK
215.1	0	but	OK	OK	OK
215.1	1	are	OK	OK	OK
215.1	2	the	OK	OK	OK
215.1	3	successes	OK	OK	OK
215.1	4	not	OK	OK	OK
215.1	5	relative	OK	OK	OK
215.1	6	?	OK	OK	OK
222.1	0	because	OK	OK	OK
222.1	1	the	OK	OK	OK
222.1	2	shootings	Addition	OK	OK
222.1	3	will	Word_order	Accuracy	BAD
222.1	4	not	Word_order	Fluency	BAD
222.1	5	be	OK	OK	BAD
222.1	6	before	OK	OK	OK
222.1	7	at	OK	OK	OK
222.1	8	the	OK	OK	OK
222.1	9	end	OK	OK	OK
222.1	10	of	OK	OK	OK
222.1	11	august	OK	OK	BAD
222.1	12	finished	OK	Accuracy	OK
222.1	13	.	OK	OK	OK
229.1	0	transportation	OK	OK	OK
229.1	1	in	OK	Accuracy	OK
229.1	2	the	OK	OK	OK
229.1	3	electronic	OK	OK	OK
229.1	4	form	OK	OK	OK
234.1	0	the	OK	OK	OK
234.1	1	traffic	OK	OK	OK
234.1	2	on	OK	OK	OK
234.1	3	the	OK	OK	OK
234.1	4	ten	Word_order	Fluency	OK
234.1	5	lanes	Word_order	Accuracy	BAD
234.1	6	streets	Word_order	Fluency	OK
234.1	7	kills	Addition	OK	BAD
234.1	8	us	Word_order	Fluency	OK
234.1	9	-	Word_order	Fluency	BAD
234.1	10	it	Grammar	OK	BAD
234.1	11	remains	OK	OK	BAD
234.1	12	the	OK	OK	OK
234.1	13	metro	OK	OK	OK
234.1	14	as	OK	OK	OK
234.1	15	a	OK	OK	OK
234.1	16	vanishing	OK	Accuracy	OK
234.1	17	point	OK	OK	OK
234.1	18	.	OK	OK	OK
236.1	0	the	OK	OK	OK
236.1	1	empfäger	OK	OK	OK
236.1	2	e-mail	OK	OK	OK
236.1	3	is	OK	OK	OK
236.1	4	not	OK	OK	OK
236.1	5	valid	OK	OK	OK
236.1	6	.	OK	OK	OK
238.1	0	«	OK	OK	OK
238.1	1	contents	OK	OK	BAD
238.1	2	»	OK	OK	BAD
238.1	3	are	OK	OK	OK
238.1	4	decisive	OK	OK	OK
238.1	5	for	OK	OK	OK
238.1	6	it	OK	OK	OK
238.1	7	:	OK	OK	OK
240.1	0	in	OK	OK	OK
240.1	1	the	OK	OK	OK
240.1	2	first	OK	OK	OK
240.1	3	place	OK	OK	OK
240.1	4	next	Untranslated	Accuracy	OK
240.1	5	to	Word_order	OK	OK
240.1	6	the	OK	OK	OK
240.1	7	clarification	OK	OK	OK
240.1	8	of	OK	Accuracy	OK
240.1	9	rights	Function_words	Fluency	OK
240.1	10	and	OK	Fluency	BAD
240.1	11	duties	Terminology	Accuracy	BAD
240.1	12	this	Fluency	Fluency	BAD
240.1	13	is	OK	Accuracy	BAD
240.1	14	legal	OK	Accuracy	OK
240.1	15	advice	OK	OK	OK
240.1	16	and	OK	OK	OK
240.1	17	representation	OK	OK	OK
240.1	18	with	Capitalization	Fluency	OK
240.1	19	rent	Word_order	Fluency	BAD
240.1	20	quarrels	OK	OK	OK
240.1	21	.	OK	OK	OK
244.1	0	during	OK	OK	OK
244.1	1	the	OK	OK	OK
244.1	2	this	OK	OK	OK
244.1	3	year	Part_of_speech	OK	OK
244.1	4	's	OK	Fluency	BAD
244.1	5	competition	Mistranslation	OK	OK
244.1	6	in	OK	OK	OK
244.1	7	helsinki	OK	OK	OK
244.1	8	nine	OK	OK	OK
244.1	9	of	OK	OK	OK
244.1	10	the	OK	OK	OK
244.1	11	ten	OK	OK	BAD
244.1	12	uppermost	Mistranslation	OK	OK
244.1	13	places	Word_order	OK	OK
244.1	14	were	Function_words	OK	BAD
244.1	15	occupied	OK	OK	OK
244.1	16	by	OK	OK	OK
244.1	17	east	Capitalization	OK	OK
244.1	18	european	OK	OK	OK
244.1	19	countries	OK	Fluency	BAD
244.1	20	including	OK	OK	OK
244.1	21	the	Word_order	OK	OK
244.1	22	serbian	Style/register	Fluency	BAD
244.1	23	grand	OK	OK	OK
244.1	24	prix	Grammar	OK	OK
244.1	25	winner	OK	OK	OK
244.1	26	marija	OK	OK	OK
244.1	27	serifovic	OK	Fluency	BAD
244.1	28	(	OK	OK	OK
244.1	29	"	OK	OK	OK
244.1	30	molitva	OK	OK	OK
244.1	31	"	OK	OK	OK
244.1	32	)	OK	OK	OK
244.1	33	.	OK	OK	OK
247.1	0	the	OK	OK	OK
247.1	1	answers	OK	OK	OK
247.1	2	are	OK	OK	OK
247.1	3	not	OK	OK	OK
247.1	4	distinguished	OK	Fluency	OK
247.1	5	from	OK	OK	BAD
247.1	6	those	OK	OK	OK
247.1	7	which	OK	OK	OK
247.1	8	were	OK	OK	OK
247.1	9	given	Word_order	OK	OK
247.1	10	before	OK	OK	OK
247.1	11	the	OK	Fluency	OK
247.1	12	last	Word_order	OK	OK
247.1	13	german	OK	OK	OK
247.1	14	eu	Agreement	Fluency	OK
247.1	15	council	Grammar	OK	BAD
247.1	16	premiership	Style/register	Fluency	BAD
247.1	17	in	Mistranslation	OK	OK
247.1	18	the	OK	Fluency	BAD
247.1	19	first	OK	Fluency	BAD
247.1	20	year	OK	OK	OK
247.1	21	half	OK	OK	BAD
247.1	22	1999	OK	OK	OK
247.1	23	.	OK	OK	OK
248.1	0	about	OK	OK	OK
248.1	1	two	OK	OK	OK
248.1	2	million	OK	OK	OK
248.1	3	kinds	Agreement	Fluency	OK
248.1	4	-	OK	OK	OK
248.1	5	animals	OK	OK	OK
248.1	6	,	OK	OK	OK
248.1	7	plants	OK	OK	OK
248.1	8	,	OK	OK	OK
248.1	9	mushrooms	OK	OK	BAD
248.1	10	and	Mistranslation	OK	OK
248.1	11	microorganisms	OK	OK	OK
248.1	12	-	OK	OK	OK
248.1	13	were	OK	OK	BAD
248.1	14	described	Grammar	OK	BAD
248.1	15	up	OK	OK	OK
248.1	16	to	OK	OK	OK
248.1	17	now	OK	OK	OK
248.1	18	.	OK	OK	OK
249.1	0	the	OK	OK	OK
249.1	1	crisis	OK	OK	OK
249.1	2	of	OK	OK	OK
249.1	3	the	OK	OK	OK
249.1	4	school	OK	OK	OK
249.1	5	teaches	OK	Accuracy	BAD
249.1	6	how	Tense/aspect/mood	OK	OK
249.1	7	these	OK	OK	OK
249.1	8	crossings	Terminology	OK	BAD
249.1	9	are	OK	OK	OK
249.1	10	importantly	OK	OK	OK
249.1	11	.	OK	OK	OK
252.1	0	also	OK	OK	OK
252.1	1	here	OK	OK	OK
252.1	2	the	OK	OK	BAD
252.1	3	handled	OK	OK	OK
252.1	4	bacteria	Word_order	OK	OK
252.1	5	showed	Typography	Accuracy	OK
252.1	6	clear	Mistranslation	OK	OK
252.1	7	changes	OK	OK	BAD
252.1	8	in	OK	OK	OK
252.1	9	the	Word_order	Fluency	OK
252.1	10	material	Addition	OK	OK
252.1	11	budget	OK	Accuracy	OK
252.1	12	as	OK	OK	OK
252.1	13	well	Style/register	OK	BAD
252.1	14	as	OK	OK	OK
252.1	15	an	OK	OK	OK
252.1	16	increasing	Punctuation	Fluency	BAD
252.1	17	virulence	OK	OK	OK
252.1	18	.	OK	OK	OK
254.1	0	chronology	OK	OK	OK
254.1	1	of	OK	OK	OK
254.1	2	an	OK	OK	OK
254.1	3	extraordinary	OK	OK	OK
254.1	4	mäzenatentums	OK	OK	OK
257.1	0	because	OK	OK	OK
257.1	1	pixar	OK	OK	OK
257.1	2	and	OK	OK	OK
257.1	3	disney	OK	OK	OK
257.1	4	lead	OK	OK	OK
257.1	5	an	OK	OK	OK
257.1	6	almost	OK	OK	OK
257.1	7	subversive	OK	OK	OK
257.1	8	campaign	OK	Fluency	OK
257.1	9	with	OK	OK	OK
257.1	10	the	OK	OK	OK
257.1	11	aid	OK	OK	OK
257.1	12	of	OK	OK	OK
257.1	13	the	OK	OK	OK
257.1	14	agreeable	OK	OK	OK
257.1	15	rat	Word_order	OK	OK
257.1	16	against	OK	OK	OK
257.1	17	lousy	OK	Fluency	BAD
257.1	18	fastfood-habits	OK	OK	OK
257.1	19	.	OK	OK	OK
258.1	0	the	OK	OK	OK
258.1	1	trade	OK	OK	OK
258.1	2	representative	OK	OK	OK
258.1	3	contracts	OK	OK	OK
258.1	4	must	OK	OK	OK
258.1	5	be	OK	OK	OK
258.1	6	entered	OK	Fluency	BAD
258.1	7	into	OK	OK	OK
258.1	8	the	OK	OK	OK
258.1	9	commercial	OK	OK	OK
258.1	10	register	OK	OK	OK
258.1	11	near	OK	OK	OK
258.1	12	the	OK	OK	OK
258.1	13	responsible	OK	OK	OK
258.1	14	local	OK	OK	OK
258.1	15	chamber	OK	OK	OK
258.1	16	of	OK	OK	OK
258.1	17	commerce	OK	OK	OK
258.1	18	(	OK	OK	OK
258.1	19	kind	OK	OK	OK
258.1	20	.	OK	OK	OK
259.1	0	behaviors	OK	OK	OK
259.1	1	were	Function_words	OK	BAD
259.1	2	examined	OK	OK	OK
259.1	3	systematic	OK	OK	OK
259.1	4	then	OK	Fluency	OK
259.1	5	,	OK	OK	OK
259.1	6	to	OK	OK	OK
259.1	7	what	OK	OK	OK
259.1	8	extent	OK	Fluency	OK
259.1	9	the	OK	OK	OK
259.1	10	animal	OK	OK	OK
259.1	11	corresponds	OK	OK	OK
259.1	12	to	OK	OK	OK
259.1	13	the	OK	Fluency	BAD
259.1	14	standards	OK	OK	OK
259.1	15	of	OK	OK	OK
259.1	16	human	OK	OK	OK
259.1	17	cognition	OK	Accuracy	OK
259.1	18	.	OK	OK	OK
270.1	0	the	OK	OK	OK
270.1	1	ferrostaal	OK	OK	OK
270.1	2	ag	OK	OK	OK
270.1	3	is	OK	OK	OK
270.1	4	worldwide	OK	OK	BAD
270.1	5	leadingly	OK	OK	BAD
270.1	6	as	OK	OK	OK
270.1	7	a	OK	OK	OK
270.1	8	service	OK	Fluency	BAD
270.1	9	provider	OK	OK	BAD
270.1	10	in	OK	OK	OK
270.1	11	the	OK	OK	OK
270.1	12	connection	OK	OK	OK
270.1	13	of	OK	OK	OK
270.1	14	technical	OK	OK	OK
270.1	15	and	OK	OK	BAD
270.1	16	financial	OK	OK	OK
270.1	17	engineering	Mistranslation	OK	BAD
270.1	18	.	OK	OK	OK
273.1	0	use	OK	OK	OK
273.1	1	of	OK	OK	BAD
273.1	2	weblogs	OK	OK	OK
273.1	3	in	OK	Fluency	OK
273.1	4	the	OK	OK	OK
273.1	5	school	Terminology	OK	BAD
273.1	6	instruction	OK	OK	BAD
273.1	7	-	OK	OK	BAD
273.1	8	application	Grammar	Fluency	BAD
273.1	9	stages	Mistranslation	Accuracy	BAD
277.1	0	in	OK	OK	OK
277.1	1	the	OK	OK	OK
277.1	2	region	OK	OK	OK
277.1	3	in	OK	OK	OK
277.1	4	front	OK	OK	OK
277.1	5	of	OK	OK	OK
277.1	6	the	OK	OK	OK
277.1	7	californian	OK	OK	OK
277.1	8	coast	OK	OK	OK
277.1	9	about	OK	OK	OK
277.1	10	a	OK	OK	OK
277.1	11	hundred	OK	OK	OK
277.1	12	blue	OK	OK	OK
277.1	13	whales	Mistranslation	OK	OK
277.1	14	live	Mistranslation	Accuracy	OK
277.1	15	.	OK	OK	OK
279.1	0	in	OK	OK	OK
279.1	1	latter	OK	OK	OK
279.1	2	case	Function_words	OK	BAD
279.1	3	this	Mistranslation	Accuracy	OK
279.1	4	would	Tense/aspect/mood	Accuracy	OK
279.1	5	be	OK	OK	OK
279.1	6	among	Mistranslation	OK	BAD
279.1	7	other	Word_order	OK	BAD
279.1	8	things	OK	OK	OK
279.1	9	the	OK	OK	OK
279.1	10	messenger	OK	OK	BAD
279.1	11	material	OK	Fluency	OK
279.1	12	(	OK	OK	OK
279.1	13	neurotransmitter	OK	OK	BAD
279.1	14	)	OK	Accuracy	OK
279.1	15	serotonin	OK	Accuracy	BAD
279.1	16	.	OK	OK	OK
289.1	0	please	OK	OK	OK
289.1	1	hold	OK	OK	OK
289.1	2	yourself	OK	OK	OK
289.1	3	for	OK	OK	BAD
289.1	4	the	OK	OK	OK
289.1	5	exact	Word_order	OK	BAD
289.1	6	positions	Word_order	OK	BAD
289.1	7	of	Function_words	OK	OK
289.1	8	the	Word_order	Accuracy	BAD
289.1	9	disks	OK	OK	OK
289.1	10	onto	Accuracy	Fluency	OK
289.1	11	the	OK	Fluency	OK
289.1	12	above	Word_order	OK	OK
289.1	13	chart	OK	Fluency	BAD
289.1	14	.	OK	OK	OK
300.1	0	in	OK	OK	OK
300.1	1	addition	Mistranslation	Fluency	OK
300.1	2	theory	OK	OK	OK
300.1	3	structures	OK	OK	OK
300.1	4	come	OK	OK	BAD
300.1	5	for	OK	OK	BAD
300.1	6	the	OK	OK	OK
300.1	7	characterization	OK	OK	OK
300.1	8	of	OK	OK	OK
300.1	9	the	OK	OK	OK
300.1	10	single	OK	OK	OK
300.1	11	constituents	OK	OK	OK
300.1	12	.	OK	OK	OK
302.1	0	according	OK	OK	OK
302.1	1	to	OK	OK	OK
302.1	2	findings	OK	OK	OK
302.1	3	which	OK	OK	OK
302.1	4	reached	OK	OK	BAD
302.1	5	the	OK	OK	OK
302.1	6	british	Word_order	Accuracy	BAD
302.1	7	secret	OK	Accuracy	BAD
302.1	8	service	Word_order	OK	OK
302.1	9	at	OK	OK	OK
302.1	10	the	OK	OK	OK
302.1	11	beginning	OK	OK	OK
302.1	12	of	OK	OK	OK
302.1	13	1945	OK	OK	OK
302.1	14	a	OK	OK	OK
302.1	15	destruction	OK	OK	OK
302.1	16	radius	OK	OK	OK
302.1	17	of	OK	OK	OK
302.1	18	about	Word_order	Fluency	BAD
302.1	19	600	OK	OK	OK
302.1	20	meters	Part_of_speech	Accuracy	OK
302.1	21	was	OK	OK	OK
302.1	22	achieved	OK	OK	OK
302.1	23	with	OK	OK	OK
302.1	24	a	OK	OK	BAD
302.1	25	test	OK	OK	OK
302.1	26	by	OK	OK	OK
302.1	27	berlin	OK	OK	OK
302.1	28	to	OK	OK	OK
302.1	29	the	OK	OK	OK
302.1	30	north	OK	OK	OK
302.1	31	.	OK	OK	OK
303.1	0	speak	OK	OK	OK
303.1	1	the	OK	OK	OK
303.1	2	following	Mistranslation	Accuracy	OK
303.1	3	words	OK	Accuracy	OK
303.1	4	aloud	OK	OK	OK
303.1	5	and	OK	OK	BAD
303.1	6	mark	OK	OK	OK
303.1	7	then	Mistranslation	Fluency	OK
303.1	8	the	OK	OK	OK
303.1	9	syllable	Word_order	OK	BAD
303.1	10	which	OK	OK	OK
303.1	11	bears	OK	OK	OK
303.1	12	the	Function_words	OK	BAD
303.1	13	main	OK	Accuracy	OK
303.1	14	stress	OK	OK	OK
303.1	15	.	OK	OK	OK
311.1	0	the	OK	OK	OK
311.1	1	new	OK	OK	OK
311.1	2	head	OK	OK	OK
311.1	3	of	Terminology	OK	BAD
311.1	4	the	Word_order	OK	OK
311.1	5	berlin	OK	OK	OK
311.1	6	dussmann	OK	OK	OK
311.1	7	group	Grammar	Accuracy	BAD
311.1	8	,	Fluency	OK	OK
311.1	9	thomas	OK	Fluency	OK
311.1	10	greiner	Typography	Fluency	BAD
311.1	11	,	OK	Fluency	OK
311.1	12	wants	OK	OK	OK
311.1	13	to	OK	OK	OK
311.1	14	create	Grammar	OK	OK
311.1	15	still	OK	OK	OK
311.1	16	this	OK	OK	OK
311.1	17	year	OK	OK	OK
311.1	18	1000	OK	OK	OK
311.1	19	new	OK	OK	OK
311.1	20	jobs	OK	OK	OK
311.1	21	,	OK	OK	OK
311.1	22	100	OK	OK	OK
311.1	23	of	OK	Fluency	OK
311.1	24	them	OK	OK	OK
311.1	25	in	OK	OK	OK
311.1	26	berlin	OK	Fluency	BAD
311.1	27	and	OK	OK	OK
311.1	28	brandenburg	OK	OK	BAD
311.1	29	.	OK	OK	OK
313.1	0	just	OK	OK	OK
313.1	1	in	OK	OK	OK
313.1	2	central	OK	OK	BAD
313.1	3	europe	OK	Fluency	OK
313.1	4	there	Tense/aspect/mood	OK	OK
313.1	5	are	Word_order	Fluency	BAD
313.1	6	now	OK	OK	OK
313.1	7	and	OK	OK	OK
313.1	8	then	Tense/aspect/mood	Accuracy	BAD
313.1	9	strong	Tense/aspect/mood	OK	OK
313.1	10	reservations	OK	OK	OK
313.1	11	against	Mistranslation	Fluency	BAD
313.1	12	the	Word_order	Fluency	BAD
313.1	13	preserving	OK	OK	OK
313.1	14	of	OK	OK	OK
313.1	15	corpses	Mistranslation	OK	BAD
313.1	16	.	OK	OK	OK
316.1	0	information	OK	OK	OK
316.1	1	(	OK	OK	OK
316.1	2	about	OK	OK	OK
316.1	3	application	OK	OK	OK
316.1	4	possibilities	OK	OK	OK
316.1	5	,	OK	OK	OK
316.1	6	fort	OK	OK	OK
316.1	7	educations	OK	OK	OK
316.1	8	,	Grammar	OK	BAD
316.1	9	fact-finding	OK	OK	OK
316.1	10	tours	OK	OK	OK
316.1	11	,	OK	OK	OK
316.1	12	ideas	Mistranslation	Accuracy	OK
316.1	13	)	OK	Fluency	OK
319.1	0	because	OK	OK	OK
319.1	1	there	OK	OK	OK
319.1	2	is	Unintelligible	OK	BAD
319.1	3	this	Word_order	OK	BAD
319.1	4	transformation	OK	OK	OK
319.1	5	process	Mistranslation	Accuracy	BAD
319.1	6	,	OK	OK	OK
319.1	7	it	Tense/aspect/mood	OK	OK
319.1	8	is	OK	OK	OK
319.1	9	reasonable	OK	OK	OK
319.1	10	and	OK	OK	OK
319.1	11	necessary	OK	OK	OK
319.1	12	to	OK	Fluency	BAD
319.1	13	understand	Word_order	OK	BAD
319.1	14	programmatic	Mistranslation	Accuracy	BAD
319.1	15	ideas	OK	OK	OK
319.1	16	again	OK	OK	BAD
319.1	17	.	OK	OK	OK
321.1	0	in	OK	OK	OK
321.1	1	november	OK	OK	OK
321.1	2	union	OK	OK	OK
321.1	3	and	OK	OK	OK
321.1	4	spd	Grammar	OK	OK
321.1	5	want	OK	Fluency	OK
321.1	6	to	OK	OK	OK
321.1	7	talk	OK	OK	OK
321.1	8	once	OK	OK	OK
321.1	9	again	OK	OK	OK
321.1	10	about	Word_order	OK	OK
321.1	11	the	Word_order	OK	OK
321.1	12	online-search	OK	OK	OK
321.1	13	as	OK	OK	OK
321.1	14	union	OK	OK	BAD
321.1	15	faction	OK	Accuracy	OK
321.1	16	leader	OK	OK	OK
321.1	17	volker	OK	OK	OK
321.1	18	kauder	OK	OK	OK
321.1	19	explained	OK	OK	BAD
321.1	20	.	OK	OK	OK
323.1	0	also	Word_order	OK	OK
323.1	1	"	OK	OK	OK
323.1	2	black	OK	OK	BAD
323.1	3	man	OK	Fluency	OK
323.1	4	working	Word_order	OK	BAD
323.1	5	"	OK	OK	OK
323.1	6	is	OK	OK	BAD
323.1	7	possible	OK	Accuracy	OK
323.1	8	,	Punctuation	OK	OK
323.1	9	depends	OK	OK	OK
323.1	10	on	Tense/aspect/mood	OK	OK
323.1	11	who	OK	OK	OK
323.1	12	answers	OK	OK	OK
323.1	13	.	OK	OK	OK
331.1	0	the	OK	OK	OK
331.1	1	liquidation	OK	OK	OK
331.1	2	is	OK	OK	BAD
331.1	3	carried	OK	OK	OK
331.1	4	out	OK	Accuracy	OK
331.1	5	by	OK	OK	OK
331.1	6	the	OK	OK	OK
331.1	7	executive	OK	Fluency	OK
331.1	8	board	Word_order	OK	OK
331.1	9	,	OK	OK	OK
331.1	10	provided	OK	Fluency	OK
331.1	11	that	OK	OK	OK
331.1	12	the	OK	OK	OK
331.1	13	general	OK	Fluency	BAD
331.1	14	meeting	OK	OK	OK
331.1	15	orders	OK	OK	OK
331.1	16	liquidators	OK	OK	BAD
331.1	17	not	OK	OK	OK
331.1	18	other	OK	OK	OK
331.1	19	.	OK	OK	OK
333.1	0	and	OK	OK	OK
333.1	1	yes	OK	OK	OK
333.1	2	,	OK	OK	OK
333.1	3	and	OK	OK	OK
333.1	4	these	OK	OK	OK
333.1	5	old	OK	OK	OK
333.1	6	mountain	Punctuation	OK	OK
333.1	7	climbers	OK	Accuracy	OK
333.1	8	told	Fluency	OK	OK
333.1	9	these	OK	OK	OK
333.1	10	histories	OK	OK	BAD
333.1	11	.	OK	OK	OK
337.1	0	the	OK	OK	OK
337.1	1	same	OK	OK	OK
337.1	2	sense	OK	OK	BAD
337.1	3	of	OK	OK	OK
337.1	4	office	OK	OK	OK
337.1	5	and	OK	OK	OK
337.1	6	sacrament	OK	Accuracy	BAD
338.1	0	the	OK	OK	OK
338.1	1	expansion	OK	OK	OK
338.1	2	of	OK	OK	OK
338.1	3	the	OK	Fluency	OK
338.1	4	elementary	OK	OK	OK
338.1	5	schools	OK	OK	OK
338.1	6	to	OK	OK	OK
338.1	7	full-time	OK	Accuracy	OK
338.1	8	elementary	OK	OK	BAD
338.1	9	schools	Word_order	Fluency	BAD
338.1	10	broadens	Word_order	OK	BAD
338.1	11	the	OK	OK	OK
338.1	12	pedagogic	OK	OK	OK
338.1	13	action	OK	OK	OK
338.1	14	elbow	OK	OK	OK
338.1	15	room	OK	OK	OK
338.1	16	and	OK	OK	OK
338.1	17	offers	OK	OK	OK
338.1	18	possibilities	OK	OK	OK
338.1	19	of	OK	OK	OK
338.1	20	qualified	OK	OK	OK
338.1	21	care	OK	OK	OK
338.1	22	.	OK	OK	OK
349.1	0	the	OK	OK	OK
349.1	1	finishing	OK	OK	OK
349.1	2	guarantee	OK	OK	OK
349.1	3	and	OK	OK	OK
349.1	4	/	OK	Fluency	OK
349.1	5	or	Word_order	OK	OK
349.1	6	.	OK	OK	OK
349.1	7	finishing	OK	OK	BAD
349.1	8	insurance	OK	OK	OK
349.1	9	is	OK	OK	OK
349.1	10	an	OK	OK	OK
349.1	11	important	OK	OK	OK
349.1	12	component	OK	OK	BAD
349.1	13	of	OK	OK	OK
349.1	14	the	OK	OK	OK
349.1	15	film	Word_order	Fluency	OK
349.1	16	financing	OK	OK	OK
349.1	17	and	OK	OK	OK
349.1	18	is	OK	OK	OK
349.1	19	defined	OK	OK	OK
349.1	20	before	OK	OK	OK
349.1	21	beginning	OK	OK	OK
349.1	22	of	OK	OK	OK
349.1	23	production	OK	OK	OK
349.1	24	by	Terminology	OK	OK
349.1	25	contract	OK	OK	OK
349.1	26	.	OK	OK	OK
